interactions:
- request:
    body: !!python/unicode '{}'
    headers:
      Accept:
      - application/json
      Accept-Encoding:
      - gzip, deflate
      Connection:
      - keep-alive
      Content-Length:
      - '2'
      Content-Type:
      - application/json
      User-Agent:
      - python-requests/2.23.0
    method: GET
    uri: https://api.digitalocean.com/v2/domains/foxwoodswebsites.com
  response:
    body:
      string: !!python/unicode '{"domain":{"name":"foxwoodswebsites.com","ttl":1800,"zone_file":"$ORIGIN
        foxwoodswebsites.com.\n$TTL 1800\nfoxwoodswebsites.com. IN SOA ns1.digitalocean.com.
        hostmaster.foxwoodswebsites.com. 1583891373 10800 3600 604800 1800\nfoxwoodswebsites.com.
        1800 IN NS ns1.digitalocean.com.\nfoxwoodswebsites.com. 1800 IN NS ns2.digitalocean.com.\nfoxwoodswebsites.com.
        1800 IN NS ns3.digitalocean.com.\nlocalhost.foxwoodswebsites.com. 3600 IN
        A 127.0.0.1\ndocs.foxwoodswebsites.com. 3600 IN CNAME docs.example.com.\n_acme-challenge.fqdn.foxwoodswebsites.com.
        3600 IN TXT challengetoken\n_acme-challenge.full.foxwoodswebsites.com. 3600
        IN TXT challengetoken\n_acme-challenge.test.foxwoodswebsites.com. 3600 IN
        TXT challengetoken\n_acme-challenge.createrecordset.foxwoodswebsites.com.
        3600 IN TXT challengetoken1\n_acme-challenge.createrecordset.foxwoodswebsites.com.
        3600 IN TXT challengetoken2\n_acme-challenge.noop.foxwoodswebsites.com. 3600
        IN TXT challengetoken\n_acme-challenge.deleterecordinset.foxwoodswebsites.com.
        3600 IN TXT challengetoken2\nttl.fqdn.foxwoodswebsites.com. 3600 IN TXT ttlshouldbe3600\n_acme-challenge.listrecordset.foxwoodswebsites.com.
        3600 IN TXT challengetoken1\n_acme-challenge.listrecordset.foxwoodswebsites.com.
        3600 IN TXT challengetoken2\nrandom.fqdntest.foxwoodswebsites.com. 3600 IN
        TXT challengetoken\nrandom.fulltest.foxwoodswebsites.com. 3600 IN TXT challengetoken\nrandom.test.foxwoodswebsites.com.
        3600 IN TXT challengetoken\nupdated.test.foxwoodswebsites.com. 3600 IN TXT
        challengetoken\nupdated.testfqdn.foxwoodswebsites.com. 3600 IN TXT challengetoken\nupdated.testfull.foxwoodswebsites.com.
        3600 IN TXT challengetoken\n"}}'
    headers:
      cache-control:
      - max-age=0, private, must-revalidate
      cf-cache-status:
      - DYNAMIC
      cf-ray:
      - 57219ec01f82e512-LAX
      connection:
      - keep-alive
      content-length:
      - '1658'
      content-type:
      - application/json; charset=utf-8
      date:
      - Wed, 11 Mar 2020 01:49:39 GMT
      etag:
      - W/"7ef44b625baa9940d1a64ca26f46f1cb"
      expect-ct:
      - max-age=604800, report-uri="https://report-uri.cloudflare.com/cdn-cgi/beacon/expect-ct"
      ratelimit-limit:
      - '5000'
      ratelimit-remaining:
      - '4793'
      ratelimit-reset:
      - '1583891032'
      server:
      - cloudflare
      set-cookie:
      - __cfduid=d1a5711df2c1b4ff8f4e91e800ab3f4811583891379; expires=Fri, 10-Apr-20
        01:49:39 GMT; path=/; domain=.digitalocean.com; HttpOnly; SameSite=Lax
      transfer-encoding:
      - chunked
      x-content-type-options:
      - nosniff
      x-frame-options:
      - SAMEORIGIN
      x-gateway:
      - Edge-Gateway
      x-request-id:
      - 247cc069-cbf4-469f-bd74-621f58fab0ca
      x-response-from:
      - service
      x-runtime:
      - '0.079548'
      x-xss-protection:
      - 1; mode=block
    status:
      code: 200
      message: OK
- request:
    body: !!python/unicode '{}'
    headers:
      Accept:
      - application/json
      Accept-Encoding:
      - gzip, deflate
      Connection:
      - keep-alive
      Content-Length:
      - '2'
      Content-Type:
      - application/json
      User-Agent:
      - python-requests/2.23.0
    method: GET
    uri: https://api.digitalocean.com/v2/domains/foxwoodswebsites.com/records
  response:
    body:
      string: !!python/unicode '{"domain_records":[{"id":78210035,"type":"SOA","name":"@","data":"1800","priority":null,"port":null,"ttl":1800,"weight":null,"flags":null,"tag":null},{"id":78210036,"type":"NS","name":"@","data":"ns1.digitalocean.com","priority":null,"port":null,"ttl":1800,"weight":null,"flags":null,"tag":null},{"id":78210037,"type":"NS","name":"@","data":"ns2.digitalocean.com","priority":null,"port":null,"ttl":1800,"weight":null,"flags":null,"tag":null},{"id":78210038,"type":"NS","name":"@","data":"ns3.digitalocean.com","priority":null,"port":null,"ttl":1800,"weight":null,"flags":null,"tag":null},{"id":92264100,"type":"A","name":"localhost","data":"127.0.0.1","priority":null,"port":null,"ttl":3600,"weight":null,"flags":null,"tag":null},{"id":92264101,"type":"CNAME","name":"docs","data":"docs.example.com","priority":null,"port":null,"ttl":3600,"weight":null,"flags":null,"tag":null},{"id":92264103,"type":"TXT","name":"_acme-challenge.fqdn","data":"challengetoken","priority":null,"port":null,"ttl":3600,"weight":null,"flags":null,"tag":null},{"id":92264104,"type":"TXT","name":"_acme-challenge.full","data":"challengetoken","priority":null,"port":null,"ttl":3600,"weight":null,"flags":null,"tag":null},{"id":92264105,"type":"TXT","name":"_acme-challenge.test","data":"challengetoken","priority":null,"port":null,"ttl":3600,"weight":null,"flags":null,"tag":null},{"id":92264107,"type":"TXT","name":"_acme-challenge.createrecordset","data":"challengetoken1","priority":null,"port":null,"ttl":3600,"weight":null,"flags":null,"tag":null},{"id":92264108,"type":"TXT","name":"_acme-challenge.createrecordset","data":"challengetoken2","priority":null,"port":null,"ttl":3600,"weight":null,"flags":null,"tag":null},{"id":92264111,"type":"TXT","name":"_acme-challenge.noop","data":"challengetoken","priority":null,"port":null,"ttl":3600,"weight":null,"flags":null,"tag":null},{"id":92264118,"type":"TXT","name":"_acme-challenge.deleterecordinset","data":"challengetoken2","priority":null,"port":null,"ttl":3600,"weight":null,"flags":null,"tag":null},{"id":92264128,"type":"TXT","name":"ttl.fqdn","data":"ttlshouldbe3600","priority":null,"port":null,"ttl":3600,"weight":null,"flags":null,"tag":null},{"id":92264132,"type":"TXT","name":"_acme-challenge.listrecordset","data":"challengetoken1","priority":null,"port":null,"ttl":3600,"weight":null,"flags":null,"tag":null},{"id":92264133,"type":"TXT","name":"_acme-challenge.listrecordset","data":"challengetoken2","priority":null,"port":null,"ttl":3600,"weight":null,"flags":null,"tag":null},{"id":92264134,"type":"TXT","name":"random.fqdntest","data":"challengetoken","priority":null,"port":null,"ttl":3600,"weight":null,"flags":null,"tag":null},{"id":92264142,"type":"TXT","name":"random.fulltest","data":"challengetoken","priority":null,"port":null,"ttl":3600,"weight":null,"flags":null,"tag":null},{"id":92264153,"type":"TXT","name":"random.test","data":"challengetoken","priority":null,"port":null,"ttl":3600,"weight":null,"flags":null,"tag":null},{"id":92264156,"type":"TXT","name":"updated.test","data":"challengetoken","priority":null,"port":null,"ttl":3600,"weight":null,"flags":null,"tag":null}],"links":{"pages":{"last":"https://api.digitalocean.com/v2/domains/foxwoodswebsites.com/records?page=2","next":"https://api.digitalocean.com/v2/domains/foxwoodswebsites.com/records?page=2"}},"meta":{"total":22}}'
    headers:
      cache-control:
      - max-age=0, private, must-revalidate
      cf-cache-status:
      - DYNAMIC
      cf-ray:
      - 57219ec46cfdeb00-LAX
      connection:
      - keep-alive
      content-length:
      - '3349'
      content-type:
      - application/json; charset=utf-8
      date:
      - Wed, 11 Mar 2020 01:49:41 GMT
      etag:
      - W/"177a914f44c719360aaf2e03dbadf8c4"
      expect-ct:
      - max-age=604800, report-uri="https://report-uri.cloudflare.com/cdn-cgi/beacon/expect-ct"
      ratelimit-limit:
      - '5000'
      ratelimit-remaining:
      - '4792'
      ratelimit-reset:
      - '1583891032'
      server:
      - cloudflare
      set-cookie:
      - __cfduid=de10058264730257966e6c779dc859b951583891379; expires=Fri, 10-Apr-20
        01:49:39 GMT; path=/; domain=.digitalocean.com; HttpOnly; SameSite=Lax
      transfer-encoding:
      - chunked
      x-content-type-options:
      - nosniff
      x-frame-options:
      - SAMEORIGIN
      x-gateway:
      - Edge-Gateway
      x-request-id:
      - b10b0a9c-201e-4002-b62b-2a23b766fd58
      x-response-from:
      - service
      x-runtime:
      - '1.108010'
      x-xss-protection:
      - 1; mode=block
    status:
      code: 200
      message: OK
- request:
    body: !!python/unicode '{}'
    headers:
      Accept:
      - application/json
      Accept-Encoding:
      - gzip, deflate
      Connection:
      - keep-alive
      Content-Length:
      - '2'
      Content-Type:
      - application/json
      User-Agent:
      - python-requests/2.23.0
    method: GET
    uri: https://api.digitalocean.com/v2/domains/foxwoodswebsites.com/records?page=2
  response:
    body:
      string: !!python/unicode '{"domain_records":[{"id":92264158,"type":"TXT","name":"updated.testfqdn","data":"challengetoken","priority":null,"port":null,"ttl":3600,"weight":null,"flags":null,"tag":null},{"id":92264161,"type":"TXT","name":"updated.testfull","data":"challengetoken","priority":null,"port":null,"ttl":3600,"weight":null,"flags":null,"tag":null}],"links":{"pages":{"first":"https://api.digitalocean.com/v2/domains/foxwoodswebsites.com/records?page=1","prev":"https://api.digitalocean.com/v2/domains/foxwoodswebsites.com/records?page=1"}},"meta":{"total":22}}'
    headers:
      cache-control:
      - max-age=0, private, must-revalidate
      cf-cache-status:
      - DYNAMIC
      cf-ray:
      - 57219ecf6ae877b8-LAX
      connection:
      - keep-alive
      content-length:
      - '543'
      content-type:
      - application/json; charset=utf-8
      date:
      - Wed, 11 Mar 2020 01:49:42 GMT
      etag:
      - W/"350858b8adccedb5696a9672eed038b9"
      expect-ct:
      - max-age=604800, report-uri="https://report-uri.cloudflare.com/cdn-cgi/beacon/expect-ct"
      ratelimit-limit:
      - '5000'
      ratelimit-remaining:
      - '4791'
      ratelimit-reset:
      - '1583891032'
      server:
      - cloudflare
      set-cookie:
      - __cfduid=def49f18da74663c72ff33e889cad60c11583891381; expires=Fri, 10-Apr-20
        01:49:41 GMT; path=/; domain=.digitalocean.com; HttpOnly; SameSite=Lax
      transfer-encoding:
      - chunked
      x-content-type-options:
      - nosniff
      x-frame-options:
      - SAMEORIGIN
      x-gateway:
      - Edge-Gateway
      x-request-id:
      - 80f68ac5-8fe6-4aec-89a2-e4641a6ca5bd
      x-response-from:
      - service
      x-runtime:
      - '0.115128'
      x-xss-protection:
      - 1; mode=block
    status:
      code: 200
      message: OK
- request:
    body: !!python/unicode '{}'
    headers:
      Accept:
      - application/json
      Accept-Encoding:
      - gzip, deflate
      Connection:
      - keep-alive
      Content-Length:
      - '2'
      Content-Type:
      - application/json
      User-Agent:
      - python-requests/2.23.0
    method: GET
    uri: https://api.digitalocean.com/v2/domains/foxwoodswebsites.com/records
  response:
    body:
      string: !!python/unicode '{"domain_records":[{"id":78210035,"type":"SOA","name":"@","data":"1800","priority":null,"port":null,"ttl":1800,"weight":null,"flags":null,"tag":null},{"id":78210036,"type":"NS","name":"@","data":"ns1.digitalocean.com","priority":null,"port":null,"ttl":1800,"weight":null,"flags":null,"tag":null},{"id":78210037,"type":"NS","name":"@","data":"ns2.digitalocean.com","priority":null,"port":null,"ttl":1800,"weight":null,"flags":null,"tag":null},{"id":78210038,"type":"NS","name":"@","data":"ns3.digitalocean.com","priority":null,"port":null,"ttl":1800,"weight":null,"flags":null,"tag":null},{"id":92264100,"type":"A","name":"localhost","data":"127.0.0.1","priority":null,"port":null,"ttl":3600,"weight":null,"flags":null,"tag":null},{"id":92264101,"type":"CNAME","name":"docs","data":"docs.example.com","priority":null,"port":null,"ttl":3600,"weight":null,"flags":null,"tag":null},{"id":92264103,"type":"TXT","name":"_acme-challenge.fqdn","data":"challengetoken","priority":null,"port":null,"ttl":3600,"weight":null,"flags":null,"tag":null},{"id":92264104,"type":"TXT","name":"_acme-challenge.full","data":"challengetoken","priority":null,"port":null,"ttl":3600,"weight":null,"flags":null,"tag":null},{"id":92264105,"type":"TXT","name":"_acme-challenge.test","data":"challengetoken","priority":null,"port":null,"ttl":3600,"weight":null,"flags":null,"tag":null},{"id":92264107,"type":"TXT","name":"_acme-challenge.createrecordset","data":"challengetoken1","priority":null,"port":null,"ttl":3600,"weight":null,"flags":null,"tag":null},{"id":92264108,"type":"TXT","name":"_acme-challenge.createrecordset","data":"challengetoken2","priority":null,"port":null,"ttl":3600,"weight":null,"flags":null,"tag":null},{"id":92264111,"type":"TXT","name":"_acme-challenge.noop","data":"challengetoken","priority":null,"port":null,"ttl":3600,"weight":null,"flags":null,"tag":null},{"id":92264118,"type":"TXT","name":"_acme-challenge.deleterecordinset","data":"challengetoken2","priority":null,"port":null,"ttl":3600,"weight":null,"flags":null,"tag":null},{"id":92264128,"type":"TXT","name":"ttl.fqdn","data":"ttlshouldbe3600","priority":null,"port":null,"ttl":3600,"weight":null,"flags":null,"tag":null},{"id":92264132,"type":"TXT","name":"_acme-challenge.listrecordset","data":"challengetoken1","priority":null,"port":null,"ttl":3600,"weight":null,"flags":null,"tag":null},{"id":92264133,"type":"TXT","name":"_acme-challenge.listrecordset","data":"challengetoken2","priority":null,"port":null,"ttl":3600,"weight":null,"flags":null,"tag":null},{"id":92264134,"type":"TXT","name":"random.fqdntest","data":"challengetoken","priority":null,"port":null,"ttl":3600,"weight":null,"flags":null,"tag":null},{"id":92264142,"type":"TXT","name":"random.fulltest","data":"challengetoken","priority":null,"port":null,"ttl":3600,"weight":null,"flags":null,"tag":null},{"id":92264153,"type":"TXT","name":"random.test","data":"challengetoken","priority":null,"port":null,"ttl":3600,"weight":null,"flags":null,"tag":null},{"id":92264156,"type":"TXT","name":"updated.test","data":"challengetoken","priority":null,"port":null,"ttl":3600,"weight":null,"flags":null,"tag":null}],"links":{"pages":{"last":"https://api.digitalocean.com/v2/domains/foxwoodswebsites.com/records?page=2","next":"https://api.digitalocean.com/v2/domains/foxwoodswebsites.com/records?page=2"}},"meta":{"total":22}}'
    headers:
      cache-control:
      - max-age=0, private, must-revalidate
      cf-cache-status:
      - DYNAMIC
      cf-ray:
      - 57219ed53ea378ea-LAX
      connection:
      - keep-alive
      content-length:
      - '3349'
      content-type:
      - application/json; charset=utf-8
      date:
      - Wed, 11 Mar 2020 01:49:43 GMT
      etag:
      - W/"177a914f44c719360aaf2e03dbadf8c4"
      expect-ct:
      - max-age=604800, report-uri="https://report-uri.cloudflare.com/cdn-cgi/beacon/expect-ct"
      ratelimit-limit:
      - '5000'
      ratelimit-remaining:
      - '4790'
      ratelimit-reset:
      - '1583891032'
      server:
      - cloudflare
      set-cookie:
      - __cfduid=dbefb3f036007d790922f36110ce98d271583891382; expires=Fri, 10-Apr-20
        01:49:42 GMT; path=/; domain=.digitalocean.com; HttpOnly; SameSite=Lax
      transfer-encoding:
      - chunked
      x-content-type-options:
      - nosniff
      x-frame-options:
      - SAMEORIGIN
      x-gateway:
      - Edge-Gateway
      x-request-id:
      - e87ee1e9-f869-4cc2-aae8-b43a5640caad
      x-response-from:
      - service
      x-runtime:
      - '0.113523'
      x-xss-protection:
      - 1; mode=block
    status:
      code: 200
      message: OK
- request:
    body: !!python/unicode '{}'
    headers:
      Accept:
      - application/json
      Accept-Encoding:
      - gzip, deflate
      Connection:
      - keep-alive
      Content-Length:
      - '2'
      Content-Type:
      - application/json
      User-Agent:
      - python-requests/2.23.0
    method: GET
    uri: https://api.digitalocean.com/v2/domains/foxwoodswebsites.com/records?page=2
  response:
    body:
      string: !!python/unicode '{"domain_records":[{"id":92264158,"type":"TXT","name":"updated.testfqdn","data":"challengetoken","priority":null,"port":null,"ttl":3600,"weight":null,"flags":null,"tag":null},{"id":92264161,"type":"TXT","name":"updated.testfull","data":"challengetoken","priority":null,"port":null,"ttl":3600,"weight":null,"flags":null,"tag":null}],"links":{"pages":{"first":"https://api.digitalocean.com/v2/domains/foxwoodswebsites.com/records?page=1","prev":"https://api.digitalocean.com/v2/domains/foxwoodswebsites.com/records?page=1"}},"meta":{"total":22}}'
    headers:
      cache-control:
      - max-age=0, private, must-revalidate
      cf-cache-status:
      - DYNAMIC
      cf-ray:
      - 57219edc3d23e7f1-LAX
      connection:
      - keep-alive
      content-length:
      - '543'
      content-type:
      - application/json; charset=utf-8
      date:
      - Wed, 11 Mar 2020 01:49:44 GMT
      etag:
      - W/"350858b8adccedb5696a9672eed038b9"
      expect-ct:
      - max-age=604800, report-uri="https://report-uri.cloudflare.com/cdn-cgi/beacon/expect-ct"
      ratelimit-limit:
      - '5000'
      ratelimit-remaining:
      - '4789'
      ratelimit-reset:
      - '1583891032'
      server:
      - cloudflare
      set-cookie:
      - __cfduid=de29a177897e116f14fb68814d10272351583891383; expires=Fri, 10-Apr-20
        01:49:43 GMT; path=/; domain=.digitalocean.com; HttpOnly; SameSite=Lax
      transfer-encoding:
      - chunked
      x-content-type-options:
      - nosniff
      x-frame-options:
      - SAMEORIGIN
      x-gateway:
      - Edge-Gateway
      x-request-id:
      - d65f9765-f5f0-475f-87ac-2aefd9b4f269
      x-response-from:
      - service
      x-runtime:
      - '0.117812'
      x-xss-protection:
      - 1; mode=block
    status:
      code: 200
      message: OK
- request:
    body: !!python/unicode '{}'
    headers:
      Accept:
      - application/json
      Accept-Encoding:
      - gzip, deflate
      Connection:
      - keep-alive
      Content-Length:
      - '2'
      Content-Type:
      - application/json
      User-Agent:
      - python-requests/2.23.0
    method: GET
    uri: https://api.digitalocean.com/v2/domains/foxwoodswebsites.com/records
  response:
    body:
      string: !!python/unicode '{"domain_records":[{"id":78210035,"type":"SOA","name":"@","data":"1800","priority":null,"port":null,"ttl":1800,"weight":null,"flags":null,"tag":null},{"id":78210036,"type":"NS","name":"@","data":"ns1.digitalocean.com","priority":null,"port":null,"ttl":1800,"weight":null,"flags":null,"tag":null},{"id":78210037,"type":"NS","name":"@","data":"ns2.digitalocean.com","priority":null,"port":null,"ttl":1800,"weight":null,"flags":null,"tag":null},{"id":78210038,"type":"NS","name":"@","data":"ns3.digitalocean.com","priority":null,"port":null,"ttl":1800,"weight":null,"flags":null,"tag":null},{"id":92264100,"type":"A","name":"localhost","data":"127.0.0.1","priority":null,"port":null,"ttl":3600,"weight":null,"flags":null,"tag":null},{"id":92264101,"type":"CNAME","name":"docs","data":"docs.example.com","priority":null,"port":null,"ttl":3600,"weight":null,"flags":null,"tag":null},{"id":92264103,"type":"TXT","name":"_acme-challenge.fqdn","data":"challengetoken","priority":null,"port":null,"ttl":3600,"weight":null,"flags":null,"tag":null},{"id":92264104,"type":"TXT","name":"_acme-challenge.full","data":"challengetoken","priority":null,"port":null,"ttl":3600,"weight":null,"flags":null,"tag":null},{"id":92264105,"type":"TXT","name":"_acme-challenge.test","data":"challengetoken","priority":null,"port":null,"ttl":3600,"weight":null,"flags":null,"tag":null},{"id":92264107,"type":"TXT","name":"_acme-challenge.createrecordset","data":"challengetoken1","priority":null,"port":null,"ttl":3600,"weight":null,"flags":null,"tag":null},{"id":92264108,"type":"TXT","name":"_acme-challenge.createrecordset","data":"challengetoken2","priority":null,"port":null,"ttl":3600,"weight":null,"flags":null,"tag":null},{"id":92264111,"type":"TXT","name":"_acme-challenge.noop","data":"challengetoken","priority":null,"port":null,"ttl":3600,"weight":null,"flags":null,"tag":null},{"id":92264118,"type":"TXT","name":"_acme-challenge.deleterecordinset","data":"challengetoken2","priority":null,"port":null,"ttl":3600,"weight":null,"flags":null,"tag":null},{"id":92264128,"type":"TXT","name":"ttl.fqdn","data":"ttlshouldbe3600","priority":null,"port":null,"ttl":3600,"weight":null,"flags":null,"tag":null},{"id":92264132,"type":"TXT","name":"_acme-challenge.listrecordset","data":"challengetoken1","priority":null,"port":null,"ttl":3600,"weight":null,"flags":null,"tag":null},{"id":92264133,"type":"TXT","name":"_acme-challenge.listrecordset","data":"challengetoken2","priority":null,"port":null,"ttl":3600,"weight":null,"flags":null,"tag":null},{"id":92264134,"type":"TXT","name":"random.fqdntest","data":"challengetoken","priority":null,"port":null,"ttl":3600,"weight":null,"flags":null,"tag":null},{"id":92264142,"type":"TXT","name":"random.fulltest","data":"challengetoken","priority":null,"port":null,"ttl":3600,"weight":null,"flags":null,"tag":null},{"id":92264153,"type":"TXT","name":"random.test","data":"challengetoken","priority":null,"port":null,"ttl":3600,"weight":null,"flags":null,"tag":null},{"id":92264156,"type":"TXT","name":"updated.test","data":"challengetoken","priority":null,"port":null,"ttl":3600,"weight":null,"flags":null,"tag":null}],"links":{"pages":{"last":"https://api.digitalocean.com/v2/domains/foxwoodswebsites.com/records?page=2","next":"https://api.digitalocean.com/v2/domains/foxwoodswebsites.com/records?page=2"}},"meta":{"total":22}}'
    headers:
      cache-control:
      - max-age=0, private, must-revalidate
      cf-cache-status:
      - DYNAMIC
      cf-ray:
      - 57219ee96ee1e50e-LAX
      connection:
      - keep-alive
      content-length:
      - '3349'
      content-type:
      - application/json; charset=utf-8
      date:
      - Wed, 11 Mar 2020 01:49:46 GMT
      etag:
      - W/"177a914f44c719360aaf2e03dbadf8c4"
      expect-ct:
      - max-age=604800, report-uri="https://report-uri.cloudflare.com/cdn-cgi/beacon/expect-ct"
      ratelimit-limit:
      - '5000'
      ratelimit-remaining:
      - '4788'
      ratelimit-reset:
      - '1583891032'
      server:
      - cloudflare
      set-cookie:
      - __cfduid=dc503a14af28247e7417605e6897a82d21583891385; expires=Fri, 10-Apr-20
        01:49:45 GMT; path=/; domain=.digitalocean.com; HttpOnly; SameSite=Lax
      transfer-encoding:
      - chunked
      x-content-type-options:
      - nosniff
      x-frame-options:
      - SAMEORIGIN
      x-gateway:
      - Edge-Gateway
      x-request-id:
      - 51c10db8-5e65-4528-94a1-f0e5d0a61eec
      x-response-from:
      - service
      x-runtime:
      - '0.112954'
      x-xss-protection:
      - 1; mode=block
    status:
      code: 200
      message: OK
- request:
    body: !!python/unicode '{}'
    headers:
      Accept:
      - application/json
      Accept-Encoding:
      - gzip, deflate
      Connection:
      - keep-alive
      Content-Length:
      - '2'
      Content-Type:
      - application/json
      User-Agent:
      - python-requests/2.23.0
    method: GET
    uri: https://api.digitalocean.com/v2/domains/foxwoodswebsites.com/records?page=2
  response:
    body:
      string: !!python/unicode '{"domain_records":[{"id":92264158,"type":"TXT","name":"updated.testfqdn","data":"challengetoken","priority":null,"port":null,"ttl":3600,"weight":null,"flags":null,"tag":null},{"id":92264161,"type":"TXT","name":"updated.testfull","data":"challengetoken","priority":null,"port":null,"ttl":3600,"weight":null,"flags":null,"tag":null}],"links":{"pages":{"first":"https://api.digitalocean.com/v2/domains/foxwoodswebsites.com/records?page=1","prev":"https://api.digitalocean.com/v2/domains/foxwoodswebsites.com/records?page=1"}},"meta":{"total":22}}'
    headers:
      cache-control:
      - max-age=0, private, must-revalidate
      cf-cache-status:
      - DYNAMIC
      cf-ray:
      - 57219eef6d86e4f6-LAX
      connection:
      - keep-alive
      content-length:
      - '543'
      content-type:
      - application/json; charset=utf-8
      date:
      - Wed, 11 Mar 2020 01:49:47 GMT
      etag:
      - W/"350858b8adccedb5696a9672eed038b9"
      expect-ct:
      - max-age=604800, report-uri="https://report-uri.cloudflare.com/cdn-cgi/beacon/expect-ct"
      ratelimit-limit:
      - '5000'
      ratelimit-remaining:
      - '4787'
      ratelimit-reset:
      - '1583891032'
      server:
      - cloudflare
      set-cookie:
      - __cfduid=d8d2c2086722c5317af70d0a562b8aaa41583891386; expires=Fri, 10-Apr-20
        01:49:46 GMT; path=/; domain=.digitalocean.com; HttpOnly; SameSite=Lax
      transfer-encoding:
      - chunked
      x-content-type-options:
      - nosniff
      x-frame-options:
      - SAMEORIGIN
      x-gateway:
      - Edge-Gateway
      x-request-id:
      - 7f6707b0-713f-4018-a047-7695bfe6212d
      x-response-from:
      - service
      x-runtime:
      - '0.121707'
      x-xss-protection:
      - 1; mode=block
    status:
      code: 200
      message: OK
version: 1
