interactions:
- request:
    body: !!python/unicode '{}'
    headers:
      Accept:
      - application/json
      Accept-Encoding:
      - gzip, deflate
      Connection:
      - keep-alive
      Content-Length:
      - '2'
      Content-Type:
      - application/json
      User-Agent:
      - python-requests/2.23.0
    method: GET
    uri: https://api.digitalocean.com/v2/domains/foxwoodswebsites.com
  response:
    body:
      string: !!python/unicode '{"domain":{"name":"foxwoodswebsites.com","ttl":1800,"zone_file":"$ORIGIN
        foxwoodswebsites.com.\n$TTL 1800\nfoxwoodswebsites.com. IN SOA ns1.digitalocean.com.
        hostmaster.foxwoodswebsites.com. 1583891130 10800 3600 604800 1800\nfoxwoodswebsites.com.
        1800 IN NS ns1.digitalocean.com.\nfoxwoodswebsites.com. 1800 IN NS ns2.digitalocean.com.\nfoxwoodswebsites.com.
        1800 IN NS ns3.digitalocean.com.\nlocalhost.foxwoodswebsites.com. 3600 IN
        A 127.0.0.1\ndocs.foxwoodswebsites.com. 3600 IN CNAME docs.example.com.\n_acme-challenge.fqdn.foxwoodswebsites.com.
        3600 IN TXT challengetoken\n_acme-challenge.full.foxwoodswebsites.com. 3600
        IN TXT challengetoken\n_acme-challenge.test.foxwoodswebsites.com. 3600 IN
        TXT challengetoken\n_acme-challenge.createrecordset.foxwoodswebsites.com.
        3600 IN TXT challengetoken1\n_acme-challenge.createrecordset.foxwoodswebsites.com.
        3600 IN TXT challengetoken2\n_acme-challenge.noop.foxwoodswebsites.com. 3600
        IN TXT challengetoken\n_acme-challenge.deleterecordinset.foxwoodswebsites.com.
        3600 IN TXT challengetoken2\nttl.fqdn.foxwoodswebsites.com. 3600 IN TXT ttlshouldbe3600\n_acme-challenge.listrecordset.foxwoodswebsites.com.
        3600 IN TXT challengetoken1\n_acme-challenge.listrecordset.foxwoodswebsites.com.
        3600 IN TXT challengetoken2\nrandom.fqdntest.foxwoodswebsites.com. 3600 IN
        TXT challengetoken\nrandom.fulltest.foxwoodswebsites.com. 3600 IN TXT challengetoken\nrandom.test.foxwoodswebsites.com.
        3600 IN TXT challengetoken\nupdated.test.foxwoodswebsites.com. 3600 IN TXT
        challengetoken\nupdated.testfqdn.foxwoodswebsites.com. 3600 IN TXT challengetoken\nupdated.testfull.foxwoodswebsites.com.
        3600 IN TXT challengetoken\n"}}'
    headers:
      cache-control:
      - max-age=0, private, must-revalidate
      cf-cache-status:
      - DYNAMIC
      cf-ray:
      - 57219d26ac95e82d-LAX
      connection:
      - keep-alive
      content-length:
      - '1658'
      content-type:
      - application/json; charset=utf-8
      date:
      - Wed, 11 Mar 2020 01:48:34 GMT
      etag:
      - W/"70e163fd0c446609dd88b19cdbc82579"
      expect-ct:
      - max-age=604800, report-uri="https://report-uri.cloudflare.com/cdn-cgi/beacon/expect-ct"
      ratelimit-limit:
      - '5000'
      ratelimit-remaining:
      - '4870'
      ratelimit-reset:
      - '1583891032'
      server:
      - cloudflare
      set-cookie:
      - __cfduid=dd4815b3b00ba901d3f75b9d4a2829cfe1583891313; expires=Fri, 10-Apr-20
        01:48:33 GMT; path=/; domain=.digitalocean.com; HttpOnly; SameSite=Lax
      transfer-encoding:
      - chunked
      x-content-type-options:
      - nosniff
      x-frame-options:
      - SAMEORIGIN
      x-gateway:
      - Edge-Gateway
      x-request-id:
      - 8d7661e3-0a7c-4b38-a2ab-f4a0730a8259
      x-response-from:
      - service
      x-runtime:
      - '0.092763'
      x-xss-protection:
      - 1; mode=block
    status:
      code: 200
      message: OK
- request:
    body: !!python/unicode '{}'
    headers:
      Accept:
      - application/json
      Accept-Encoding:
      - gzip, deflate
      Connection:
      - keep-alive
      Content-Length:
      - '2'
      Content-Type:
      - application/json
      User-Agent:
      - python-requests/2.23.0
    method: GET
    uri: https://api.digitalocean.com/v2/domains/foxwoodswebsites.com/records
  response:
    body:
      string: !!python/unicode '{"domain_records":[{"id":78210035,"type":"SOA","name":"@","data":"1800","priority":null,"port":null,"ttl":1800,"weight":null,"flags":null,"tag":null},{"id":78210036,"type":"NS","name":"@","data":"ns1.digitalocean.com","priority":null,"port":null,"ttl":1800,"weight":null,"flags":null,"tag":null},{"id":78210037,"type":"NS","name":"@","data":"ns2.digitalocean.com","priority":null,"port":null,"ttl":1800,"weight":null,"flags":null,"tag":null},{"id":78210038,"type":"NS","name":"@","data":"ns3.digitalocean.com","priority":null,"port":null,"ttl":1800,"weight":null,"flags":null,"tag":null},{"id":92264100,"type":"A","name":"localhost","data":"127.0.0.1","priority":null,"port":null,"ttl":3600,"weight":null,"flags":null,"tag":null},{"id":92264101,"type":"CNAME","name":"docs","data":"docs.example.com","priority":null,"port":null,"ttl":3600,"weight":null,"flags":null,"tag":null},{"id":92264103,"type":"TXT","name":"_acme-challenge.fqdn","data":"challengetoken","priority":null,"port":null,"ttl":3600,"weight":null,"flags":null,"tag":null},{"id":92264104,"type":"TXT","name":"_acme-challenge.full","data":"challengetoken","priority":null,"port":null,"ttl":3600,"weight":null,"flags":null,"tag":null},{"id":92264105,"type":"TXT","name":"_acme-challenge.test","data":"challengetoken","priority":null,"port":null,"ttl":3600,"weight":null,"flags":null,"tag":null},{"id":92264107,"type":"TXT","name":"_acme-challenge.createrecordset","data":"challengetoken1","priority":null,"port":null,"ttl":3600,"weight":null,"flags":null,"tag":null},{"id":92264108,"type":"TXT","name":"_acme-challenge.createrecordset","data":"challengetoken2","priority":null,"port":null,"ttl":3600,"weight":null,"flags":null,"tag":null},{"id":92264111,"type":"TXT","name":"_acme-challenge.noop","data":"challengetoken","priority":null,"port":null,"ttl":3600,"weight":null,"flags":null,"tag":null},{"id":92264118,"type":"TXT","name":"_acme-challenge.deleterecordinset","data":"challengetoken2","priority":null,"port":null,"ttl":3600,"weight":null,"flags":null,"tag":null},{"id":92264128,"type":"TXT","name":"ttl.fqdn","data":"ttlshouldbe3600","priority":null,"port":null,"ttl":3600,"weight":null,"flags":null,"tag":null},{"id":92264132,"type":"TXT","name":"_acme-challenge.listrecordset","data":"challengetoken1","priority":null,"port":null,"ttl":3600,"weight":null,"flags":null,"tag":null},{"id":92264133,"type":"TXT","name":"_acme-challenge.listrecordset","data":"challengetoken2","priority":null,"port":null,"ttl":3600,"weight":null,"flags":null,"tag":null},{"id":92264134,"type":"TXT","name":"random.fqdntest","data":"challengetoken","priority":null,"port":null,"ttl":3600,"weight":null,"flags":null,"tag":null},{"id":92264142,"type":"TXT","name":"random.fulltest","data":"challengetoken","priority":null,"port":null,"ttl":3600,"weight":null,"flags":null,"tag":null},{"id":92264153,"type":"TXT","name":"random.test","data":"challengetoken","priority":null,"port":null,"ttl":3600,"weight":null,"flags":null,"tag":null},{"id":92264156,"type":"TXT","name":"updated.test","data":"challengetoken","priority":null,"port":null,"ttl":3600,"weight":null,"flags":null,"tag":null}],"links":{"pages":{"last":"https://api.digitalocean.com/v2/domains/foxwoodswebsites.com/records?page=2","next":"https://api.digitalocean.com/v2/domains/foxwoodswebsites.com/records?page=2"}},"meta":{"total":22}}'
    headers:
      cache-control:
      - max-age=0, private, must-revalidate
      cf-cache-status:
      - DYNAMIC
      cf-ray:
      - 57219d2b2943e4ea-LAX
      connection:
      - keep-alive
      content-length:
      - '3349'
      content-type:
      - application/json; charset=utf-8
      date:
      - Wed, 11 Mar 2020 01:48:34 GMT
      etag:
      - W/"177a914f44c719360aaf2e03dbadf8c4"
      expect-ct:
      - max-age=604800, report-uri="https://report-uri.cloudflare.com/cdn-cgi/beacon/expect-ct"
      ratelimit-limit:
      - '5000'
      ratelimit-remaining:
      - '4869'
      ratelimit-reset:
      - '1583891032'
      server:
      - cloudflare
      set-cookie:
      - __cfduid=d133acd5f9be7a197bfabc3486a0340541583891314; expires=Fri, 10-Apr-20
        01:48:34 GMT; path=/; domain=.digitalocean.com; HttpOnly; SameSite=Lax
      transfer-encoding:
      - chunked
      x-content-type-options:
      - nosniff
      x-frame-options:
      - SAMEORIGIN
      x-gateway:
      - Edge-Gateway
      x-request-id:
      - 64a7a2d4-2428-4fbd-bce7-91234a6588e4
      x-response-from:
      - service
      x-runtime:
      - '0.129714'
      x-xss-protection:
      - 1; mode=block
    status:
      code: 200
      message: OK
- request:
    body: !!python/unicode '{}'
    headers:
      Accept:
      - application/json
      Accept-Encoding:
      - gzip, deflate
      Connection:
      - keep-alive
      Content-Length:
      - '2'
      Content-Type:
      - application/json
      User-Agent:
      - python-requests/2.23.0
    method: GET
    uri: https://api.digitalocean.com/v2/domains/foxwoodswebsites.com/records?page=2
  response:
    body:
      string: !!python/unicode '{"domain_records":[{"id":92264158,"type":"TXT","name":"updated.testfqdn","data":"challengetoken","priority":null,"port":null,"ttl":3600,"weight":null,"flags":null,"tag":null},{"id":92264161,"type":"TXT","name":"updated.testfull","data":"challengetoken","priority":null,"port":null,"ttl":3600,"weight":null,"flags":null,"tag":null}],"links":{"pages":{"first":"https://api.digitalocean.com/v2/domains/foxwoodswebsites.com/records?page=1","prev":"https://api.digitalocean.com/v2/domains/foxwoodswebsites.com/records?page=1"}},"meta":{"total":22}}'
    headers:
      cache-control:
      - max-age=0, private, must-revalidate
      cf-cache-status:
      - DYNAMIC
      cf-ray:
      - 57219d2fdd2be512-LAX
      connection:
      - keep-alive
      content-length:
      - '543'
      content-type:
      - application/json; charset=utf-8
      date:
      - Wed, 11 Mar 2020 01:48:35 GMT
      etag:
      - W/"350858b8adccedb5696a9672eed038b9"
      expect-ct:
      - max-age=604800, report-uri="https://report-uri.cloudflare.com/cdn-cgi/beacon/expect-ct"
      ratelimit-limit:
      - '5000'
      ratelimit-remaining:
      - '4868'
      ratelimit-reset:
      - '1583891032'
      server:
      - cloudflare
      set-cookie:
      - __cfduid=d6610a59f819e5efb2241c623aa3a7d211583891315; expires=Fri, 10-Apr-20
        01:48:35 GMT; path=/; domain=.digitalocean.com; HttpOnly; SameSite=Lax
      transfer-encoding:
      - chunked
      x-content-type-options:
      - nosniff
      x-frame-options:
      - SAMEORIGIN
      x-gateway:
      - Edge-Gateway
      x-request-id:
      - 53b643f3-b2ce-44a7-9486-c448a745af2b
      x-response-from:
      - service
      x-runtime:
      - '0.101531'
      x-xss-protection:
      - 1; mode=block
    status:
      code: 200
      message: OK
- request:
    body: !!python/unicode '{}'
    headers:
      Accept:
      - application/json
      Accept-Encoding:
      - gzip, deflate
      Connection:
      - keep-alive
      Content-Length:
      - '2'
      Content-Type:
      - application/json
      User-Agent:
      - python-requests/2.23.0
    method: GET
    uri: https://api.digitalocean.com/v2/domains/foxwoodswebsites.com/records
  response:
    body:
      string: !!python/unicode '{"domain_records":[{"id":78210035,"type":"SOA","name":"@","data":"1800","priority":null,"port":null,"ttl":1800,"weight":null,"flags":null,"tag":null},{"id":78210036,"type":"NS","name":"@","data":"ns1.digitalocean.com","priority":null,"port":null,"ttl":1800,"weight":null,"flags":null,"tag":null},{"id":78210037,"type":"NS","name":"@","data":"ns2.digitalocean.com","priority":null,"port":null,"ttl":1800,"weight":null,"flags":null,"tag":null},{"id":78210038,"type":"NS","name":"@","data":"ns3.digitalocean.com","priority":null,"port":null,"ttl":1800,"weight":null,"flags":null,"tag":null},{"id":92264100,"type":"A","name":"localhost","data":"127.0.0.1","priority":null,"port":null,"ttl":3600,"weight":null,"flags":null,"tag":null},{"id":92264101,"type":"CNAME","name":"docs","data":"docs.example.com","priority":null,"port":null,"ttl":3600,"weight":null,"flags":null,"tag":null},{"id":92264103,"type":"TXT","name":"_acme-challenge.fqdn","data":"challengetoken","priority":null,"port":null,"ttl":3600,"weight":null,"flags":null,"tag":null},{"id":92264104,"type":"TXT","name":"_acme-challenge.full","data":"challengetoken","priority":null,"port":null,"ttl":3600,"weight":null,"flags":null,"tag":null},{"id":92264105,"type":"TXT","name":"_acme-challenge.test","data":"challengetoken","priority":null,"port":null,"ttl":3600,"weight":null,"flags":null,"tag":null},{"id":92264107,"type":"TXT","name":"_acme-challenge.createrecordset","data":"challengetoken1","priority":null,"port":null,"ttl":3600,"weight":null,"flags":null,"tag":null},{"id":92264108,"type":"TXT","name":"_acme-challenge.createrecordset","data":"challengetoken2","priority":null,"port":null,"ttl":3600,"weight":null,"flags":null,"tag":null},{"id":92264111,"type":"TXT","name":"_acme-challenge.noop","data":"challengetoken","priority":null,"port":null,"ttl":3600,"weight":null,"flags":null,"tag":null},{"id":92264118,"type":"TXT","name":"_acme-challenge.deleterecordinset","data":"challengetoken2","priority":null,"port":null,"ttl":3600,"weight":null,"flags":null,"tag":null},{"id":92264128,"type":"TXT","name":"ttl.fqdn","data":"ttlshouldbe3600","priority":null,"port":null,"ttl":3600,"weight":null,"flags":null,"tag":null},{"id":92264132,"type":"TXT","name":"_acme-challenge.listrecordset","data":"challengetoken1","priority":null,"port":null,"ttl":3600,"weight":null,"flags":null,"tag":null},{"id":92264133,"type":"TXT","name":"_acme-challenge.listrecordset","data":"challengetoken2","priority":null,"port":null,"ttl":3600,"weight":null,"flags":null,"tag":null},{"id":92264134,"type":"TXT","name":"random.fqdntest","data":"challengetoken","priority":null,"port":null,"ttl":3600,"weight":null,"flags":null,"tag":null},{"id":92264142,"type":"TXT","name":"random.fulltest","data":"challengetoken","priority":null,"port":null,"ttl":3600,"weight":null,"flags":null,"tag":null},{"id":92264153,"type":"TXT","name":"random.test","data":"challengetoken","priority":null,"port":null,"ttl":3600,"weight":null,"flags":null,"tag":null},{"id":92264156,"type":"TXT","name":"updated.test","data":"challengetoken","priority":null,"port":null,"ttl":3600,"weight":null,"flags":null,"tag":null}],"links":{"pages":{"last":"https://api.digitalocean.com/v2/domains/foxwoodswebsites.com/records?page=2","next":"https://api.digitalocean.com/v2/domains/foxwoodswebsites.com/records?page=2"}},"meta":{"total":22}}'
    headers:
      cache-control:
      - max-age=0, private, must-revalidate
      cf-cache-status:
      - DYNAMIC
      cf-ray:
      - 57219d32fb7de7a8-LAX
      connection:
      - keep-alive
      content-length:
      - '3349'
      content-type:
      - application/json; charset=utf-8
      date:
      - Wed, 11 Mar 2020 01:48:36 GMT
      etag:
      - W/"177a914f44c719360aaf2e03dbadf8c4"
      expect-ct:
      - max-age=604800, report-uri="https://report-uri.cloudflare.com/cdn-cgi/beacon/expect-ct"
      ratelimit-limit:
      - '5000'
      ratelimit-remaining:
      - '4867'
      ratelimit-reset:
      - '1583891032'
      server:
      - cloudflare
      set-cookie:
      - __cfduid=dd570597f73f4e4443c281b61bd4a5afd1583891315; expires=Fri, 10-Apr-20
        01:48:35 GMT; path=/; domain=.digitalocean.com; HttpOnly; SameSite=Lax
      transfer-encoding:
      - chunked
      x-content-type-options:
      - nosniff
      x-frame-options:
      - SAMEORIGIN
      x-gateway:
      - Edge-Gateway
      x-request-id:
      - 80c8fcc4-b8c6-4259-961f-f73e95abf492
      x-response-from:
      - service
      x-runtime:
      - '0.116082'
      x-xss-protection:
      - 1; mode=block
    status:
      code: 200
      message: OK
- request:
    body: !!python/unicode '{}'
    headers:
      Accept:
      - application/json
      Accept-Encoding:
      - gzip, deflate
      Connection:
      - keep-alive
      Content-Length:
      - '2'
      Content-Type:
      - application/json
      User-Agent:
      - python-requests/2.23.0
    method: GET
    uri: https://api.digitalocean.com/v2/domains/foxwoodswebsites.com/records?page=2
  response:
    body:
      string: !!python/unicode '{"domain_records":[{"id":92264158,"type":"TXT","name":"updated.testfqdn","data":"challengetoken","priority":null,"port":null,"ttl":3600,"weight":null,"flags":null,"tag":null},{"id":92264161,"type":"TXT","name":"updated.testfull","data":"challengetoken","priority":null,"port":null,"ttl":3600,"weight":null,"flags":null,"tag":null}],"links":{"pages":{"first":"https://api.digitalocean.com/v2/domains/foxwoodswebsites.com/records?page=1","prev":"https://api.digitalocean.com/v2/domains/foxwoodswebsites.com/records?page=1"}},"meta":{"total":22}}'
    headers:
      cache-control:
      - max-age=0, private, must-revalidate
      cf-cache-status:
      - DYNAMIC
      cf-ray:
      - 57219d37db6debcd-LAX
      connection:
      - keep-alive
      content-length:
      - '543'
      content-type:
      - application/json; charset=utf-8
      date:
      - Wed, 11 Mar 2020 01:48:36 GMT
      etag:
      - W/"350858b8adccedb5696a9672eed038b9"
      expect-ct:
      - max-age=604800, report-uri="https://report-uri.cloudflare.com/cdn-cgi/beacon/expect-ct"
      ratelimit-limit:
      - '5000'
      ratelimit-remaining:
      - '4866'
      ratelimit-reset:
      - '1583891032'
      server:
      - cloudflare
      set-cookie:
      - __cfduid=d47042b7f2d3342a2da0fffb8272b97191583891316; expires=Fri, 10-Apr-20
        01:48:36 GMT; path=/; domain=.digitalocean.com; HttpOnly; SameSite=Lax
      transfer-encoding:
      - chunked
      x-content-type-options:
      - nosniff
      x-frame-options:
      - SAMEORIGIN
      x-gateway:
      - Edge-Gateway
      x-request-id:
      - 0d35971c-2c97-4415-8b87-ea60cda3d045
      x-response-from:
      - service
      x-runtime:
      - '0.116705'
      x-xss-protection:
      - 1; mode=block
    status:
      code: 200
      message: OK
version: 1
