interactions:
- request:
    body: !!python/unicode '{}'
    headers:
      Accept:
      - application/json
      Accept-Encoding:
      - gzip, deflate
      Connection:
      - keep-alive
      Content-Length:
      - '2'
      Content-Type:
      - application/json
      User-Agent:
      - python-requests/2.23.0
    method: GET
    uri: https://api.digitalocean.com/v2/domains/foxwoodswebsites.com
  response:
    body:
      string: !!python/unicode '{"domain":{"name":"foxwoodswebsites.com","ttl":1800,"zone_file":"$ORIGIN
        foxwoodswebsites.com.\n$TTL 1800\nfoxwoodswebsites.com. IN SOA ns1.digitalocean.com.
        hostmaster.foxwoodswebsites.com. 1583891373 10800 3600 604800 1800\nfoxwoodswebsites.com.
        1800 IN NS ns1.digitalocean.com.\nfoxwoodswebsites.com. 1800 IN NS ns2.digitalocean.com.\nfoxwoodswebsites.com.
        1800 IN NS ns3.digitalocean.com.\nlocalhost.foxwoodswebsites.com. 3600 IN
        A 127.0.0.1\ndocs.foxwoodswebsites.com. 3600 IN CNAME docs.example.com.\n_acme-challenge.fqdn.foxwoodswebsites.com.
        3600 IN TXT challengetoken\n_acme-challenge.full.foxwoodswebsites.com. 3600
        IN TXT challengetoken\n_acme-challenge.test.foxwoodswebsites.com. 3600 IN
        TXT challengetoken\n_acme-challenge.createrecordset.foxwoodswebsites.com.
        3600 IN TXT challengetoken1\n_acme-challenge.createrecordset.foxwoodswebsites.com.
        3600 IN TXT challengetoken2\n_acme-challenge.noop.foxwoodswebsites.com. 3600
        IN TXT challengetoken\n_acme-challenge.deleterecordinset.foxwoodswebsites.com.
        3600 IN TXT challengetoken2\nttl.fqdn.foxwoodswebsites.com. 3600 IN TXT ttlshouldbe3600\n_acme-challenge.listrecordset.foxwoodswebsites.com.
        3600 IN TXT challengetoken1\n_acme-challenge.listrecordset.foxwoodswebsites.com.
        3600 IN TXT challengetoken2\nrandom.fqdntest.foxwoodswebsites.com. 3600 IN
        TXT challengetoken\nrandom.fulltest.foxwoodswebsites.com. 3600 IN TXT challengetoken\nrandom.test.foxwoodswebsites.com.
        3600 IN TXT challengetoken\nupdated.test.foxwoodswebsites.com. 3600 IN TXT
        challengetoken\nupdated.testfqdn.foxwoodswebsites.com. 3600 IN TXT challengetoken\nupdated.testfull.foxwoodswebsites.com.
        3600 IN TXT challengetoken\n"}}'
    headers:
      cache-control:
      - max-age=0, private, must-revalidate
      cf-cache-status:
      - DYNAMIC
      cf-ray:
      - 57219f610c3fe4cc-LAX
      connection:
      - keep-alive
      content-length:
      - '1658'
      content-type:
      - application/json; charset=utf-8
      date:
      - Wed, 11 Mar 2020 01:50:05 GMT
      etag:
      - W/"7ef44b625baa9940d1a64ca26f46f1cb"
      expect-ct:
      - max-age=604800, report-uri="https://report-uri.cloudflare.com/cdn-cgi/beacon/expect-ct"
      ratelimit-limit:
      - '5000'
      ratelimit-remaining:
      - '4768'
      ratelimit-reset:
      - '1583891032'
      server:
      - cloudflare
      set-cookie:
      - __cfduid=d77651eb2103956c6a3af306b1bf0711a1583891404; expires=Fri, 10-Apr-20
        01:50:04 GMT; path=/; domain=.digitalocean.com; HttpOnly; SameSite=Lax
      transfer-encoding:
      - chunked
      x-content-type-options:
      - nosniff
      x-frame-options:
      - SAMEORIGIN
      x-gateway:
      - Edge-Gateway
      x-request-id:
      - add6a484-45e6-4d2c-be98-4eb86cc6a296
      x-response-from:
      - service
      x-runtime:
      - '0.129388'
      x-xss-protection:
      - 1; mode=block
    status:
      code: 200
      message: OK
- request:
    body: !!python/unicode '{}'
    headers:
      Accept:
      - application/json
      Accept-Encoding:
      - gzip, deflate
      Connection:
      - keep-alive
      Content-Length:
      - '2'
      Content-Type:
      - application/json
      User-Agent:
      - python-requests/2.23.0
    method: GET
    uri: https://api.digitalocean.com/v2/domains/foxwoodswebsites.com/records
  response:
    body:
      string: !!python/unicode '{"domain_records":[{"id":78210035,"type":"SOA","name":"@","data":"1800","priority":null,"port":null,"ttl":1800,"weight":null,"flags":null,"tag":null},{"id":78210036,"type":"NS","name":"@","data":"ns1.digitalocean.com","priority":null,"port":null,"ttl":1800,"weight":null,"flags":null,"tag":null},{"id":78210037,"type":"NS","name":"@","data":"ns2.digitalocean.com","priority":null,"port":null,"ttl":1800,"weight":null,"flags":null,"tag":null},{"id":78210038,"type":"NS","name":"@","data":"ns3.digitalocean.com","priority":null,"port":null,"ttl":1800,"weight":null,"flags":null,"tag":null},{"id":92264100,"type":"A","name":"localhost","data":"127.0.0.1","priority":null,"port":null,"ttl":3600,"weight":null,"flags":null,"tag":null},{"id":92264101,"type":"CNAME","name":"docs","data":"docs.example.com","priority":null,"port":null,"ttl":3600,"weight":null,"flags":null,"tag":null},{"id":92264103,"type":"TXT","name":"_acme-challenge.fqdn","data":"challengetoken","priority":null,"port":null,"ttl":3600,"weight":null,"flags":null,"tag":null},{"id":92264104,"type":"TXT","name":"_acme-challenge.full","data":"challengetoken","priority":null,"port":null,"ttl":3600,"weight":null,"flags":null,"tag":null},{"id":92264105,"type":"TXT","name":"_acme-challenge.test","data":"challengetoken","priority":null,"port":null,"ttl":3600,"weight":null,"flags":null,"tag":null},{"id":92264107,"type":"TXT","name":"_acme-challenge.createrecordset","data":"challengetoken1","priority":null,"port":null,"ttl":3600,"weight":null,"flags":null,"tag":null},{"id":92264108,"type":"TXT","name":"_acme-challenge.createrecordset","data":"challengetoken2","priority":null,"port":null,"ttl":3600,"weight":null,"flags":null,"tag":null},{"id":92264111,"type":"TXT","name":"_acme-challenge.noop","data":"challengetoken","priority":null,"port":null,"ttl":3600,"weight":null,"flags":null,"tag":null},{"id":92264118,"type":"TXT","name":"_acme-challenge.deleterecordinset","data":"challengetoken2","priority":null,"port":null,"ttl":3600,"weight":null,"flags":null,"tag":null},{"id":92264128,"type":"TXT","name":"ttl.fqdn","data":"ttlshouldbe3600","priority":null,"port":null,"ttl":3600,"weight":null,"flags":null,"tag":null},{"id":92264132,"type":"TXT","name":"_acme-challenge.listrecordset","data":"challengetoken1","priority":null,"port":null,"ttl":3600,"weight":null,"flags":null,"tag":null},{"id":92264133,"type":"TXT","name":"_acme-challenge.listrecordset","data":"challengetoken2","priority":null,"port":null,"ttl":3600,"weight":null,"flags":null,"tag":null},{"id":92264134,"type":"TXT","name":"random.fqdntest","data":"challengetoken","priority":null,"port":null,"ttl":3600,"weight":null,"flags":null,"tag":null},{"id":92264142,"type":"TXT","name":"random.fulltest","data":"challengetoken","priority":null,"port":null,"ttl":3600,"weight":null,"flags":null,"tag":null},{"id":92264153,"type":"TXT","name":"random.test","data":"challengetoken","priority":null,"port":null,"ttl":3600,"weight":null,"flags":null,"tag":null},{"id":92264156,"type":"TXT","name":"updated.test","data":"challengetoken","priority":null,"port":null,"ttl":3600,"weight":null,"flags":null,"tag":null}],"links":{"pages":{"last":"https://api.digitalocean.com/v2/domains/foxwoodswebsites.com/records?page=2","next":"https://api.digitalocean.com/v2/domains/foxwoodswebsites.com/records?page=2"}},"meta":{"total":22}}'
    headers:
      cache-control:
      - max-age=0, private, must-revalidate
      cf-cache-status:
      - DYNAMIC
      cf-ray:
      - 57219f64c924eb08-LAX
      connection:
      - keep-alive
      content-length:
      - '3349'
      content-type:
      - application/json; charset=utf-8
      date:
      - Wed, 11 Mar 2020 01:50:05 GMT
      etag:
      - W/"177a914f44c719360aaf2e03dbadf8c4"
      expect-ct:
      - max-age=604800, report-uri="https://report-uri.cloudflare.com/cdn-cgi/beacon/expect-ct"
      ratelimit-limit:
      - '5000'
      ratelimit-remaining:
      - '4767'
      ratelimit-reset:
      - '1583891032'
      server:
      - cloudflare
      set-cookie:
      - __cfduid=d1a64202ff271c10640efcc07e088d8681583891405; expires=Fri, 10-Apr-20
        01:50:05 GMT; path=/; domain=.digitalocean.com; HttpOnly; SameSite=Lax
      transfer-encoding:
      - chunked
      x-content-type-options:
      - nosniff
      x-frame-options:
      - SAMEORIGIN
      x-gateway:
      - Edge-Gateway
      x-request-id:
      - 018927d7-3976-42d9-944c-6ac2f340f33c
      x-response-from:
      - service
      x-runtime:
      - '0.127405'
      x-xss-protection:
      - 1; mode=block
    status:
      code: 200
      message: OK
- request:
    body: !!python/unicode '{}'
    headers:
      Accept:
      - application/json
      Accept-Encoding:
      - gzip, deflate
      Connection:
      - keep-alive
      Content-Length:
      - '2'
      Content-Type:
      - application/json
      User-Agent:
      - python-requests/2.23.0
    method: GET
    uri: https://api.digitalocean.com/v2/domains/foxwoodswebsites.com/records?page=2
  response:
    body:
      string: !!python/unicode '{"domain_records":[{"id":92264158,"type":"TXT","name":"updated.testfqdn","data":"challengetoken","priority":null,"port":null,"ttl":3600,"weight":null,"flags":null,"tag":null},{"id":92264161,"type":"TXT","name":"updated.testfull","data":"challengetoken","priority":null,"port":null,"ttl":3600,"weight":null,"flags":null,"tag":null}],"links":{"pages":{"first":"https://api.digitalocean.com/v2/domains/foxwoodswebsites.com/records?page=1","prev":"https://api.digitalocean.com/v2/domains/foxwoodswebsites.com/records?page=1"}},"meta":{"total":22}}'
    headers:
      cache-control:
      - max-age=0, private, must-revalidate
      cf-cache-status:
      - DYNAMIC
      cf-ray:
      - 57219f683875eb89-LAX
      connection:
      - keep-alive
      content-length:
      - '543'
      content-type:
      - application/json; charset=utf-8
      date:
      - Wed, 11 Mar 2020 01:50:06 GMT
      etag:
      - W/"350858b8adccedb5696a9672eed038b9"
      expect-ct:
      - max-age=604800, report-uri="https://report-uri.cloudflare.com/cdn-cgi/beacon/expect-ct"
      ratelimit-limit:
      - '5000'
      ratelimit-remaining:
      - '4766'
      ratelimit-reset:
      - '1583891032'
      server:
      - cloudflare
      set-cookie:
      - __cfduid=d6a67075d59c9730a9ad9c950f0901db91583891406; expires=Fri, 10-Apr-20
        01:50:06 GMT; path=/; domain=.digitalocean.com; HttpOnly; SameSite=Lax
      transfer-encoding:
      - chunked
      x-content-type-options:
      - nosniff
      x-frame-options:
      - SAMEORIGIN
      x-gateway:
      - Edge-Gateway
      x-request-id:
      - cece7bc5-b5c5-43a2-b253-1082c38920b3
      x-response-from:
      - service
      x-runtime:
      - '0.111430'
      x-xss-protection:
      - 1; mode=block
    status:
      code: 200
      message: OK
version: 1
