interactions:
- request:
    body: !!python/unicode '{}'
    headers:
      Accept: [application/json]
      Accept-Encoding: ['gzip, deflate']
      Connection: [keep-alive]
      Content-Length: ['2']
      Content-Type: [application/json]
      User-Agent: [python-requests/2.18.4]
    method: GET
    uri: https://api.digitalocean.com/v2/domains/capsulecd.com
  response:
    body: {string: !!python/unicode '{"domain":{"name":"capsulecd.com","ttl":1800,"zone_file":"$ORIGIN
        capsulecd.com.\n$TTL 1800\ncapsulecd.com. IN SOA ns1.digitalocean.com. hostmaster.capsulecd.com.
        1521528467 10800 3600 604800 1800\ncapsulecd.com. 1800 IN NS ns1.digitalocean.com.\ncapsulecd.com.
        1800 IN NS ns2.digitalocean.com.\ncapsulecd.com. 1800 IN NS ns3.digitalocean.com.\ncapsulecd.com.
        1800 IN A 127.0.0.1\nlocalhost.capsulecd.com. 1800 IN A 127.0.0.1\ndocs.capsulecd.com.
        1800 IN CNAME docs.example.com.\n_acme-challenge.fqdn.capsulecd.com. 1800
        IN TXT challengetoken\n_acme-challenge.full.capsulecd.com. 1800 IN TXT challengetoken\n_acme-challenge.test.capsulecd.com.
        1800 IN TXT challengetoken\nrandom.fqdntest.capsulecd.com. 1800 IN TXT challengetoken\nrandom.fulltest.capsulecd.com.
        1800 IN TXT challengetoken\nrandom.test.capsulecd.com. 1800 IN TXT challengetoken\nupdated.test.capsulecd.com.
        1800 IN TXT challengetoken\nupdated.testfqdn.capsulecd.com. 1800 IN TXT challengetoken\nupdated.testfull.capsulecd.com.
        1800 IN TXT challengetoken\n_acme-challenge.createrecordset.capsulecd.com.
        1800 IN TXT challengetoken1\n_acme-challenge.createrecordset.capsulecd.com.
        1800 IN TXT challengetoken2\n_acme-challenge.deleterecordinset.capsulecd.com.
        1800 IN TXT challengetoken2\n_acme-challenge.noop.capsulecd.com. 1800 IN TXT
        challengetoken\n"}}'}
    headers:
      cache-control: ['max-age=0, private, must-revalidate']
      cf-ray: [3fe63ac17e27929a-SJC]
      connection: [keep-alive]
      content-length: ['1318']
      content-type: [application/json; charset=utf-8]
      date: ['Tue, 20 Mar 2018 06:47:49 GMT']
      etag: [W/"be0152cb8296a75d0f76865f1e3161ad"]
      expect-ct: ['max-age=604800, report-uri="https://report-uri.cloudflare.com/cdn-cgi/beacon/expect-ct"']
      ratelimit-limit: ['5000']
      ratelimit-remaining: ['4732']
      ratelimit-reset: ['1521525195']
      server: [cloudflare]
      set-cookie: ['__cfduid=dc9519ca5f425e8bc8132e1baf8b5283c1521528468; expires=Wed,
          20-Mar-19 06:47:48 GMT; path=/; domain=.digitalocean.com; HttpOnly']
      transfer-encoding: [chunked]
      x-content-type-options: [nosniff]
      x-frame-options: [SAMEORIGIN]
      x-gateway: [Edge-Gateway]
      x-request-id: [9a01c6ca-9b93-4a11-800f-19a8aa120934]
      x-response-from: [service]
      x-runtime: ['0.143320']
      x-xss-protection: [1; mode=block]
    status: {code: 200, message: OK}
- request:
    body: !!python/unicode '{}'
    headers:
      Accept: [application/json]
      Accept-Encoding: ['gzip, deflate']
      Connection: [keep-alive]
      Content-Length: ['2']
      Content-Type: [application/json]
      User-Agent: [python-requests/2.18.4]
    method: GET
    uri: https://api.digitalocean.com/v2/domains/capsulecd.com/records
  response:
    body: {string: !!python/unicode '{"domain_records":[{"id":13310015,"type":"NS","name":"@","data":"ns1.digitalocean.com","priority":null,"port":null,"ttl":1800,"weight":null,"flags":null,"tag":null},{"id":13310016,"type":"NS","name":"@","data":"ns2.digitalocean.com","priority":null,"port":null,"ttl":1800,"weight":null,"flags":null,"tag":null},{"id":13310017,"type":"NS","name":"@","data":"ns3.digitalocean.com","priority":null,"port":null,"ttl":1800,"weight":null,"flags":null,"tag":null},{"id":13310018,"type":"A","name":"@","data":"127.0.0.1","priority":null,"port":null,"ttl":1800,"weight":null,"flags":null,"tag":null},{"id":38629349,"type":"A","name":"localhost","data":"127.0.0.1","priority":null,"port":null,"ttl":1800,"weight":null,"flags":null,"tag":null},{"id":38629350,"type":"CNAME","name":"docs","data":"docs.example.com","priority":null,"port":null,"ttl":1800,"weight":null,"flags":null,"tag":null},{"id":38629351,"type":"TXT","name":"_acme-challenge.fqdn","data":"challengetoken","priority":null,"port":null,"ttl":1800,"weight":null,"flags":null,"tag":null},{"id":38629354,"type":"TXT","name":"_acme-challenge.full","data":"challengetoken","priority":null,"port":null,"ttl":1800,"weight":null,"flags":null,"tag":null},{"id":38629356,"type":"TXT","name":"_acme-challenge.test","data":"challengetoken","priority":null,"port":null,"ttl":1800,"weight":null,"flags":null,"tag":null},{"id":38629375,"type":"TXT","name":"random.fqdntest","data":"challengetoken","priority":null,"port":null,"ttl":1800,"weight":null,"flags":null,"tag":null},{"id":38629378,"type":"TXT","name":"random.fulltest","data":"challengetoken","priority":null,"port":null,"ttl":1800,"weight":null,"flags":null,"tag":null},{"id":38629383,"type":"TXT","name":"random.test","data":"challengetoken","priority":null,"port":null,"ttl":1800,"weight":null,"flags":null,"tag":null},{"id":38629387,"type":"TXT","name":"updated.test","data":"challengetoken","priority":null,"port":null,"ttl":1800,"weight":null,"flags":null,"tag":null},{"id":38629390,"type":"TXT","name":"updated.testfqdn","data":"challengetoken","priority":null,"port":null,"ttl":1800,"weight":null,"flags":null,"tag":null},{"id":38629391,"type":"TXT","name":"updated.testfull","data":"challengetoken","priority":null,"port":null,"ttl":1800,"weight":null,"flags":null,"tag":null},{"id":38629393,"type":"TXT","name":"_acme-challenge.createrecordset","data":"challengetoken1","priority":null,"port":null,"ttl":1800,"weight":null,"flags":null,"tag":null},{"id":38629394,"type":"TXT","name":"_acme-challenge.createrecordset","data":"challengetoken2","priority":null,"port":null,"ttl":1800,"weight":null,"flags":null,"tag":null},{"id":38629397,"type":"TXT","name":"_acme-challenge.deleterecordinset","data":"challengetoken2","priority":null,"port":null,"ttl":1800,"weight":null,"flags":null,"tag":null},{"id":38629411,"type":"TXT","name":"_acme-challenge.noop","data":"challengetoken","priority":null,"port":null,"ttl":1800,"weight":null,"flags":null,"tag":null}],"links":{},"meta":{"total":19}}'}
    headers:
      cache-control: ['max-age=0, private, must-revalidate']
      cf-ray: [3fe63ac4095192b8-SJC]
      connection: [keep-alive]
      content-length: ['2996']
      content-type: [application/json; charset=utf-8]
      date: ['Tue, 20 Mar 2018 06:47:49 GMT']
      etag: [W/"3db2e27af9789ae39a4150b3a8d69ef2"]
      expect-ct: ['max-age=604800, report-uri="https://report-uri.cloudflare.com/cdn-cgi/beacon/expect-ct"']
      ratelimit-limit: ['5000']
      ratelimit-remaining: ['4731']
      ratelimit-reset: ['1521525195']
      server: [cloudflare]
      set-cookie: ['__cfduid=d9c73044520c5af9b899ae128a5cb3ffd1521528469; expires=Wed,
          20-Mar-19 06:47:49 GMT; path=/; domain=.digitalocean.com; HttpOnly']
      transfer-encoding: [chunked]
      x-content-type-options: [nosniff]
      x-frame-options: [SAMEORIGIN]
      x-gateway: [Edge-Gateway]
      x-request-id: [b6291c4c-6795-4ae5-b792-b35a4b069483]
      x-response-from: [service]
      x-runtime: ['0.190625']
      x-xss-protection: [1; mode=block]
    status: {code: 200, message: OK}
- request:
    body: !!python/unicode '{"data": "challengetoken1", "type": "TXT", "name": "_acme-challenge.listrecordset"}'
    headers:
      Accept: [application/json]
      Accept-Encoding: ['gzip, deflate']
      Connection: [keep-alive]
      Content-Length: ['83']
      Content-Type: [application/json]
      User-Agent: [python-requests/2.18.4]
    method: POST
    uri: https://api.digitalocean.com/v2/domains/capsulecd.com/records
  response:
    body: {string: !!python/unicode '{"domain_record":{"id":38629414,"type":"TXT","name":"_acme-challenge.listrecordset","data":"challengetoken1","priority":null,"port":null,"ttl":1800,"weight":null,"flags":null,"tag":null}}'}
    headers:
      cache-control: ['max-age=0, private, must-revalidate']
      cf-ray: [3fe63ac659bf9390-SJC]
      connection: [keep-alive]
      content-length: ['187']
      content-type: [application/json; charset=utf-8]
      date: ['Tue, 20 Mar 2018 06:47:49 GMT']
      etag: ['"af5bbfec610ae608cfed465922ae51e9"']
      expect-ct: ['max-age=604800, report-uri="https://report-uri.cloudflare.com/cdn-cgi/beacon/expect-ct"']
      ratelimit-limit: ['5000']
      ratelimit-remaining: ['4730']
      ratelimit-reset: ['1521525195']
      server: [cloudflare]
      set-cookie: ['__cfduid=d82fde7a77d772829f3b89cbef20be8351521528469; expires=Wed,
          20-Mar-19 06:47:49 GMT; path=/; domain=.digitalocean.com; HttpOnly']
      x-content-type-options: [nosniff]
      x-frame-options: [SAMEORIGIN]
      x-gateway: [Edge-Gateway]
      x-request-id: [d803b75d-c308-458a-9857-efd9b124f405]
      x-response-from: [service]
      x-runtime: ['0.207309']
      x-xss-protection: [1; mode=block]
    status: {code: 201, message: Created}
- request:
    body: !!python/unicode '{}'
    headers:
      Accept: [application/json]
      Accept-Encoding: ['gzip, deflate']
      Connection: [keep-alive]
      Content-Length: ['2']
      Content-Type: [application/json]
      User-Agent: [python-requests/2.18.4]
    method: GET
    uri: https://api.digitalocean.com/v2/domains/capsulecd.com/records
  response:
    body: {string: !!python/unicode '{"domain_records":[{"id":13310015,"type":"NS","name":"@","data":"ns1.digitalocean.com","priority":null,"port":null,"ttl":1800,"weight":null,"flags":null,"tag":null},{"id":13310016,"type":"NS","name":"@","data":"ns2.digitalocean.com","priority":null,"port":null,"ttl":1800,"weight":null,"flags":null,"tag":null},{"id":13310017,"type":"NS","name":"@","data":"ns3.digitalocean.com","priority":null,"port":null,"ttl":1800,"weight":null,"flags":null,"tag":null},{"id":13310018,"type":"A","name":"@","data":"127.0.0.1","priority":null,"port":null,"ttl":1800,"weight":null,"flags":null,"tag":null},{"id":38629349,"type":"A","name":"localhost","data":"127.0.0.1","priority":null,"port":null,"ttl":1800,"weight":null,"flags":null,"tag":null},{"id":38629350,"type":"CNAME","name":"docs","data":"docs.example.com","priority":null,"port":null,"ttl":1800,"weight":null,"flags":null,"tag":null},{"id":38629351,"type":"TXT","name":"_acme-challenge.fqdn","data":"challengetoken","priority":null,"port":null,"ttl":1800,"weight":null,"flags":null,"tag":null},{"id":38629354,"type":"TXT","name":"_acme-challenge.full","data":"challengetoken","priority":null,"port":null,"ttl":1800,"weight":null,"flags":null,"tag":null},{"id":38629356,"type":"TXT","name":"_acme-challenge.test","data":"challengetoken","priority":null,"port":null,"ttl":1800,"weight":null,"flags":null,"tag":null},{"id":38629375,"type":"TXT","name":"random.fqdntest","data":"challengetoken","priority":null,"port":null,"ttl":1800,"weight":null,"flags":null,"tag":null},{"id":38629378,"type":"TXT","name":"random.fulltest","data":"challengetoken","priority":null,"port":null,"ttl":1800,"weight":null,"flags":null,"tag":null},{"id":38629383,"type":"TXT","name":"random.test","data":"challengetoken","priority":null,"port":null,"ttl":1800,"weight":null,"flags":null,"tag":null},{"id":38629387,"type":"TXT","name":"updated.test","data":"challengetoken","priority":null,"port":null,"ttl":1800,"weight":null,"flags":null,"tag":null},{"id":38629390,"type":"TXT","name":"updated.testfqdn","data":"challengetoken","priority":null,"port":null,"ttl":1800,"weight":null,"flags":null,"tag":null},{"id":38629391,"type":"TXT","name":"updated.testfull","data":"challengetoken","priority":null,"port":null,"ttl":1800,"weight":null,"flags":null,"tag":null},{"id":38629393,"type":"TXT","name":"_acme-challenge.createrecordset","data":"challengetoken1","priority":null,"port":null,"ttl":1800,"weight":null,"flags":null,"tag":null},{"id":38629394,"type":"TXT","name":"_acme-challenge.createrecordset","data":"challengetoken2","priority":null,"port":null,"ttl":1800,"weight":null,"flags":null,"tag":null},{"id":38629397,"type":"TXT","name":"_acme-challenge.deleterecordinset","data":"challengetoken2","priority":null,"port":null,"ttl":1800,"weight":null,"flags":null,"tag":null},{"id":38629411,"type":"TXT","name":"_acme-challenge.noop","data":"challengetoken","priority":null,"port":null,"ttl":1800,"weight":null,"flags":null,"tag":null},{"id":38629414,"type":"TXT","name":"_acme-challenge.listrecordset","data":"challengetoken1","priority":null,"port":null,"ttl":1800,"weight":null,"flags":null,"tag":null}],"links":{},"meta":{"total":20}}'}
    headers:
      cache-control: ['max-age=0, private, must-revalidate']
      cf-ray: [3fe63ac8ab3e929a-SJC]
      connection: [keep-alive]
      content-length: ['3166']
      content-type: [application/json; charset=utf-8]
      date: ['Tue, 20 Mar 2018 06:47:50 GMT']
      etag: [W/"462f851f43e8bbb74be0859c99c3dea4"]
      expect-ct: ['max-age=604800, report-uri="https://report-uri.cloudflare.com/cdn-cgi/beacon/expect-ct"']
      ratelimit-limit: ['5000']
      ratelimit-remaining: ['4729']
      ratelimit-reset: ['1521525195']
      server: [cloudflare]
      set-cookie: ['__cfduid=dbdeb7d8ce7b27f22e7fa5be17a1ffa901521528469; expires=Wed,
          20-Mar-19 06:47:49 GMT; path=/; domain=.digitalocean.com; HttpOnly']
      transfer-encoding: [chunked]
      x-content-type-options: [nosniff]
      x-frame-options: [SAMEORIGIN]
      x-gateway: [Edge-Gateway]
      x-request-id: [4fb93591-9b7c-4566-b731-52fe654508ef]
      x-response-from: [service]
      x-runtime: ['0.201318']
      x-xss-protection: [1; mode=block]
    status: {code: 200, message: OK}
- request:
    body: !!python/unicode '{"data": "challengetoken2", "type": "TXT", "name": "_acme-challenge.listrecordset"}'
    headers:
      Accept: [application/json]
      Accept-Encoding: ['gzip, deflate']
      Connection: [keep-alive]
      Content-Length: ['83']
      Content-Type: [application/json]
      User-Agent: [python-requests/2.18.4]
    method: POST
    uri: https://api.digitalocean.com/v2/domains/capsulecd.com/records
  response:
    body: {string: !!python/unicode '{"domain_record":{"id":38629415,"type":"TXT","name":"_acme-challenge.listrecordset","data":"challengetoken2","priority":null,"port":null,"ttl":1800,"weight":null,"flags":null,"tag":null}}'}
    headers:
      cache-control: ['max-age=0, private, must-revalidate']
      cf-ray: [3fe63acafe5592f4-SJC]
      connection: [keep-alive]
      content-length: ['187']
      content-type: [application/json; charset=utf-8]
      date: ['Tue, 20 Mar 2018 06:47:50 GMT']
      etag: ['"1cfbf782c56ea29a78f9b628ac6580d6"']
      expect-ct: ['max-age=604800, report-uri="https://report-uri.cloudflare.com/cdn-cgi/beacon/expect-ct"']
      ratelimit-limit: ['5000']
      ratelimit-remaining: ['4728']
      ratelimit-reset: ['1521525195']
      server: [cloudflare]
      set-cookie: ['__cfduid=d344ea46f871913617f406e0a40a7c2f81521528470; expires=Wed,
          20-Mar-19 06:47:50 GMT; path=/; domain=.digitalocean.com; HttpOnly']
      x-content-type-options: [nosniff]
      x-frame-options: [SAMEORIGIN]
      x-gateway: [Edge-Gateway]
      x-request-id: [20260dc1-9379-477d-8c88-6daad78b565a]
      x-response-from: [service]
      x-runtime: ['0.368443']
      x-xss-protection: [1; mode=block]
    status: {code: 201, message: Created}
- request:
    body: !!python/unicode '{}'
    headers:
      Accept: [application/json]
      Accept-Encoding: ['gzip, deflate']
      Connection: [keep-alive]
      Content-Length: ['2']
      Content-Type: [application/json]
      User-Agent: [python-requests/2.18.4]
    method: GET
    uri: https://api.digitalocean.com/v2/domains/capsulecd.com/records
  response:
    body: {string: !!python/unicode '{"domain_records":[{"id":13310015,"type":"NS","name":"@","data":"ns1.digitalocean.com","priority":null,"port":null,"ttl":1800,"weight":null,"flags":null,"tag":null},{"id":13310016,"type":"NS","name":"@","data":"ns2.digitalocean.com","priority":null,"port":null,"ttl":1800,"weight":null,"flags":null,"tag":null},{"id":13310017,"type":"NS","name":"@","data":"ns3.digitalocean.com","priority":null,"port":null,"ttl":1800,"weight":null,"flags":null,"tag":null},{"id":13310018,"type":"A","name":"@","data":"127.0.0.1","priority":null,"port":null,"ttl":1800,"weight":null,"flags":null,"tag":null},{"id":38629349,"type":"A","name":"localhost","data":"127.0.0.1","priority":null,"port":null,"ttl":1800,"weight":null,"flags":null,"tag":null},{"id":38629350,"type":"CNAME","name":"docs","data":"docs.example.com","priority":null,"port":null,"ttl":1800,"weight":null,"flags":null,"tag":null},{"id":38629351,"type":"TXT","name":"_acme-challenge.fqdn","data":"challengetoken","priority":null,"port":null,"ttl":1800,"weight":null,"flags":null,"tag":null},{"id":38629354,"type":"TXT","name":"_acme-challenge.full","data":"challengetoken","priority":null,"port":null,"ttl":1800,"weight":null,"flags":null,"tag":null},{"id":38629356,"type":"TXT","name":"_acme-challenge.test","data":"challengetoken","priority":null,"port":null,"ttl":1800,"weight":null,"flags":null,"tag":null},{"id":38629375,"type":"TXT","name":"random.fqdntest","data":"challengetoken","priority":null,"port":null,"ttl":1800,"weight":null,"flags":null,"tag":null},{"id":38629378,"type":"TXT","name":"random.fulltest","data":"challengetoken","priority":null,"port":null,"ttl":1800,"weight":null,"flags":null,"tag":null},{"id":38629383,"type":"TXT","name":"random.test","data":"challengetoken","priority":null,"port":null,"ttl":1800,"weight":null,"flags":null,"tag":null},{"id":38629387,"type":"TXT","name":"updated.test","data":"challengetoken","priority":null,"port":null,"ttl":1800,"weight":null,"flags":null,"tag":null},{"id":38629390,"type":"TXT","name":"updated.testfqdn","data":"challengetoken","priority":null,"port":null,"ttl":1800,"weight":null,"flags":null,"tag":null},{"id":38629391,"type":"TXT","name":"updated.testfull","data":"challengetoken","priority":null,"port":null,"ttl":1800,"weight":null,"flags":null,"tag":null},{"id":38629393,"type":"TXT","name":"_acme-challenge.createrecordset","data":"challengetoken1","priority":null,"port":null,"ttl":1800,"weight":null,"flags":null,"tag":null},{"id":38629394,"type":"TXT","name":"_acme-challenge.createrecordset","data":"challengetoken2","priority":null,"port":null,"ttl":1800,"weight":null,"flags":null,"tag":null},{"id":38629397,"type":"TXT","name":"_acme-challenge.deleterecordinset","data":"challengetoken2","priority":null,"port":null,"ttl":1800,"weight":null,"flags":null,"tag":null},{"id":38629411,"type":"TXT","name":"_acme-challenge.noop","data":"challengetoken","priority":null,"port":null,"ttl":1800,"weight":null,"flags":null,"tag":null},{"id":38629414,"type":"TXT","name":"_acme-challenge.listrecordset","data":"challengetoken1","priority":null,"port":null,"ttl":1800,"weight":null,"flags":null,"tag":null}],"links":{"pages":{"last":"https://api.digitalocean.com/v2/domains/capsulecd.com/records?page=2","next":"https://api.digitalocean.com/v2/domains/capsulecd.com/records?page=2"}},"meta":{"total":21}}'}
    headers:
      cache-control: ['max-age=0, private, must-revalidate']
      cf-ray: [3fe63acfab09933c-SJC]
      connection: [keep-alive]
      content-length: ['3331']
      content-type: [application/json; charset=utf-8]
      date: ['Tue, 20 Mar 2018 06:47:51 GMT']
      etag: [W/"048d820c0a20da1e80aae90657adf751"]
      expect-ct: ['max-age=604800, report-uri="https://report-uri.cloudflare.com/cdn-cgi/beacon/expect-ct"']
      ratelimit-limit: ['5000']
      ratelimit-remaining: ['4727']
      ratelimit-reset: ['1521525195']
      server: [cloudflare]
      set-cookie: ['__cfduid=d2072534b501bdde1a46a2e5d4350ae6f1521528470; expires=Wed,
          20-Mar-19 06:47:50 GMT; path=/; domain=.digitalocean.com; HttpOnly']
      transfer-encoding: [chunked]
      x-content-type-options: [nosniff]
      x-frame-options: [SAMEORIGIN]
      x-gateway: [Edge-Gateway]
      x-request-id: [f71d6217-8dc0-4f28-a36c-b57cf770910f]
      x-response-from: [service]
      x-runtime: ['0.211385']
      x-xss-protection: [1; mode=block]
    status: {code: 200, message: OK}
- request:
    body: !!python/unicode '{}'
    headers:
      Accept: [application/json]
      Accept-Encoding: ['gzip, deflate']
      Connection: [keep-alive]
      Content-Length: ['2']
      Content-Type: [application/json]
      User-Agent: [python-requests/2.18.4]
    method: GET
    uri: https://api.digitalocean.com/v2/domains/capsulecd.com/records?page=2
  response:
    body: {string: !!python/unicode '{"domain_records":[{"id":38629415,"type":"TXT","name":"_acme-challenge.listrecordset","data":"challengetoken2","priority":null,"port":null,"ttl":1800,"weight":null,"flags":null,"tag":null}],"links":{"pages":{"first":"https://api.digitalocean.com/v2/domains/capsulecd.com/records?page=1","prev":"https://api.digitalocean.com/v2/domains/capsulecd.com/records?page=1"}},"meta":{"total":21}}'}
    headers:
      cache-control: ['max-age=0, private, must-revalidate']
      cf-ray: [3fe63ad3bd4492c4-SJC]
      connection: [keep-alive]
      content-length: ['387']
      content-type: [application/json; charset=utf-8]
      date: ['Tue, 20 Mar 2018 06:47:51 GMT']
      etag: [W/"3c4a0032470453799035639377b0caf3"]
      expect-ct: ['max-age=604800, report-uri="https://report-uri.cloudflare.com/cdn-cgi/beacon/expect-ct"']
      ratelimit-limit: ['5000']
      ratelimit-remaining: ['4726']
      ratelimit-reset: ['1521525195']
      server: [cloudflare]
      set-cookie: ['__cfduid=d053ad98d5be72c8da387f9c6130aa1881521528471; expires=Wed,
          20-Mar-19 06:47:51 GMT; path=/; domain=.digitalocean.com; HttpOnly']
      transfer-encoding: [chunked]
      x-content-type-options: [nosniff]
      x-frame-options: [SAMEORIGIN]
      x-gateway: [Edge-Gateway]
      x-request-id: [32d9c6c1-5b88-4ad1-8fd6-6b84efbd3596]
      x-response-from: [service]
      x-runtime: ['0.140691']
      x-xss-protection: [1; mode=block]
    status: {code: 200, message: OK}
version: 1
