interactions:
- request:
    body: !!python/unicode '{}'
    headers:
      Accept:
      - application/json
      Accept-Encoding:
      - gzip, deflate
      Connection:
      - keep-alive
      Content-Length:
      - '2'
      Content-Type:
      - application/json
      User-Agent:
      - python-requests/2.23.0
    method: GET
    uri: https://api.digitalocean.com/v2/domains/foxwoodswebsites.com
  response:
    body:
      string: !!python/unicode '{"domain":{"name":"foxwoodswebsites.com","ttl":1800,"zone_file":"$ORIGIN
        foxwoodswebsites.com.\n$TTL 1800\nfoxwoodswebsites.com. IN SOA ns1.digitalocean.com.
        hostmaster.foxwoodswebsites.com. 1583891130 10800 3600 604800 1800\nfoxwoodswebsites.com.
        1800 IN NS ns1.digitalocean.com.\nfoxwoodswebsites.com. 1800 IN NS ns2.digitalocean.com.\nfoxwoodswebsites.com.
        1800 IN NS ns3.digitalocean.com.\nlocalhost.foxwoodswebsites.com. 3600 IN
        A 127.0.0.1\ndocs.foxwoodswebsites.com. 3600 IN CNAME docs.example.com.\n_acme-challenge.fqdn.foxwoodswebsites.com.
        3600 IN TXT challengetoken\n_acme-challenge.full.foxwoodswebsites.com. 3600
        IN TXT challengetoken\n_acme-challenge.test.foxwoodswebsites.com. 3600 IN
        TXT challengetoken\n_acme-challenge.createrecordset.foxwoodswebsites.com.
        3600 IN TXT challengetoken1\n_acme-challenge.createrecordset.foxwoodswebsites.com.
        3600 IN TXT challengetoken2\n_acme-challenge.noop.foxwoodswebsites.com. 3600
        IN TXT challengetoken\n_acme-challenge.deleterecordinset.foxwoodswebsites.com.
        3600 IN TXT challengetoken2\nttl.fqdn.foxwoodswebsites.com. 3600 IN TXT ttlshouldbe3600\n_acme-challenge.listrecordset.foxwoodswebsites.com.
        3600 IN TXT challengetoken1\n_acme-challenge.listrecordset.foxwoodswebsites.com.
        3600 IN TXT challengetoken2\nrandom.fqdntest.foxwoodswebsites.com. 3600 IN
        TXT challengetoken\nrandom.fulltest.foxwoodswebsites.com. 3600 IN TXT challengetoken\nrandom.test.foxwoodswebsites.com.
        3600 IN TXT challengetoken\nupdated.test.foxwoodswebsites.com. 3600 IN TXT
        challengetoken\nupdated.testfqdn.foxwoodswebsites.com. 3600 IN TXT challengetoken\nupdated.testfull.foxwoodswebsites.com.
        3600 IN TXT challengetoken\n"}}'
    headers:
      cache-control:
      - max-age=0, private, must-revalidate
      cf-cache-status:
      - DYNAMIC
      cf-ray:
      - 57219d42dc0eeae3-LAX
      connection:
      - keep-alive
      content-length:
      - '1658'
      content-type:
      - application/json; charset=utf-8
      date:
      - Wed, 11 Mar 2020 01:48:38 GMT
      etag:
      - W/"70e163fd0c446609dd88b19cdbc82579"
      expect-ct:
      - max-age=604800, report-uri="https://report-uri.cloudflare.com/cdn-cgi/beacon/expect-ct"
      ratelimit-limit:
      - '5000'
      ratelimit-remaining:
      - '4865'
      ratelimit-reset:
      - '1583891032'
      server:
      - cloudflare
      set-cookie:
      - __cfduid=dc54969f0e98e500d6262339d28fbbc4a1583891318; expires=Fri, 10-Apr-20
        01:48:38 GMT; path=/; domain=.digitalocean.com; HttpOnly; SameSite=Lax
      transfer-encoding:
      - chunked
      x-content-type-options:
      - nosniff
      x-frame-options:
      - SAMEORIGIN
      x-gateway:
      - Edge-Gateway
      x-request-id:
      - c0d515d4-d707-42b9-93a4-fe656d5c4299
      x-response-from:
      - service
      x-runtime:
      - '0.131975'
      x-xss-protection:
      - 1; mode=block
    status:
      code: 200
      message: OK
- request:
    body: !!python/unicode '{}'
    headers:
      Accept:
      - application/json
      Accept-Encoding:
      - gzip, deflate
      Connection:
      - keep-alive
      Content-Length:
      - '2'
      Content-Type:
      - application/json
      User-Agent:
      - python-requests/2.23.0
    method: GET
    uri: https://api.digitalocean.com/v2/domains/foxwoodswebsites.com/records
  response:
    body:
      string: !!python/unicode '{"domain_records":[{"id":78210035,"type":"SOA","name":"@","data":"1800","priority":null,"port":null,"ttl":1800,"weight":null,"flags":null,"tag":null},{"id":78210036,"type":"NS","name":"@","data":"ns1.digitalocean.com","priority":null,"port":null,"ttl":1800,"weight":null,"flags":null,"tag":null},{"id":78210037,"type":"NS","name":"@","data":"ns2.digitalocean.com","priority":null,"port":null,"ttl":1800,"weight":null,"flags":null,"tag":null},{"id":78210038,"type":"NS","name":"@","data":"ns3.digitalocean.com","priority":null,"port":null,"ttl":1800,"weight":null,"flags":null,"tag":null},{"id":92264100,"type":"A","name":"localhost","data":"127.0.0.1","priority":null,"port":null,"ttl":3600,"weight":null,"flags":null,"tag":null},{"id":92264101,"type":"CNAME","name":"docs","data":"docs.example.com","priority":null,"port":null,"ttl":3600,"weight":null,"flags":null,"tag":null},{"id":92264103,"type":"TXT","name":"_acme-challenge.fqdn","data":"challengetoken","priority":null,"port":null,"ttl":3600,"weight":null,"flags":null,"tag":null},{"id":92264104,"type":"TXT","name":"_acme-challenge.full","data":"challengetoken","priority":null,"port":null,"ttl":3600,"weight":null,"flags":null,"tag":null},{"id":92264105,"type":"TXT","name":"_acme-challenge.test","data":"challengetoken","priority":null,"port":null,"ttl":3600,"weight":null,"flags":null,"tag":null},{"id":92264107,"type":"TXT","name":"_acme-challenge.createrecordset","data":"challengetoken1","priority":null,"port":null,"ttl":3600,"weight":null,"flags":null,"tag":null},{"id":92264108,"type":"TXT","name":"_acme-challenge.createrecordset","data":"challengetoken2","priority":null,"port":null,"ttl":3600,"weight":null,"flags":null,"tag":null},{"id":92264111,"type":"TXT","name":"_acme-challenge.noop","data":"challengetoken","priority":null,"port":null,"ttl":3600,"weight":null,"flags":null,"tag":null},{"id":92264118,"type":"TXT","name":"_acme-challenge.deleterecordinset","data":"challengetoken2","priority":null,"port":null,"ttl":3600,"weight":null,"flags":null,"tag":null},{"id":92264128,"type":"TXT","name":"ttl.fqdn","data":"ttlshouldbe3600","priority":null,"port":null,"ttl":3600,"weight":null,"flags":null,"tag":null},{"id":92264132,"type":"TXT","name":"_acme-challenge.listrecordset","data":"challengetoken1","priority":null,"port":null,"ttl":3600,"weight":null,"flags":null,"tag":null},{"id":92264133,"type":"TXT","name":"_acme-challenge.listrecordset","data":"challengetoken2","priority":null,"port":null,"ttl":3600,"weight":null,"flags":null,"tag":null},{"id":92264134,"type":"TXT","name":"random.fqdntest","data":"challengetoken","priority":null,"port":null,"ttl":3600,"weight":null,"flags":null,"tag":null},{"id":92264142,"type":"TXT","name":"random.fulltest","data":"challengetoken","priority":null,"port":null,"ttl":3600,"weight":null,"flags":null,"tag":null},{"id":92264153,"type":"TXT","name":"random.test","data":"challengetoken","priority":null,"port":null,"ttl":3600,"weight":null,"flags":null,"tag":null},{"id":92264156,"type":"TXT","name":"updated.test","data":"challengetoken","priority":null,"port":null,"ttl":3600,"weight":null,"flags":null,"tag":null}],"links":{"pages":{"last":"https://api.digitalocean.com/v2/domains/foxwoodswebsites.com/records?page=2","next":"https://api.digitalocean.com/v2/domains/foxwoodswebsites.com/records?page=2"}},"meta":{"total":22}}'
    headers:
      cache-control:
      - max-age=0, private, must-revalidate
      cf-cache-status:
      - DYNAMIC
      cf-ray:
      - 57219d482cbdeaf0-LAX
      connection:
      - keep-alive
      content-length:
      - '3349'
      content-type:
      - application/json; charset=utf-8
      date:
      - Wed, 11 Mar 2020 01:48:39 GMT
      etag:
      - W/"177a914f44c719360aaf2e03dbadf8c4"
      expect-ct:
      - max-age=604800, report-uri="https://report-uri.cloudflare.com/cdn-cgi/beacon/expect-ct"
      ratelimit-limit:
      - '5000'
      ratelimit-remaining:
      - '4864'
      ratelimit-reset:
      - '1583891032'
      server:
      - cloudflare
      set-cookie:
      - __cfduid=d9eb7b5edc40b33c60e068ba4b660ad631583891319; expires=Fri, 10-Apr-20
        01:48:39 GMT; path=/; domain=.digitalocean.com; HttpOnly; SameSite=Lax
      transfer-encoding:
      - chunked
      x-content-type-options:
      - nosniff
      x-frame-options:
      - SAMEORIGIN
      x-gateway:
      - Edge-Gateway
      x-request-id:
      - 52d68790-bfa2-43a4-8913-bd3912696599
      x-response-from:
      - service
      x-runtime:
      - '0.109908'
      x-xss-protection:
      - 1; mode=block
    status:
      code: 200
      message: OK
- request:
    body: !!python/unicode '{}'
    headers:
      Accept:
      - application/json
      Accept-Encoding:
      - gzip, deflate
      Connection:
      - keep-alive
      Content-Length:
      - '2'
      Content-Type:
      - application/json
      User-Agent:
      - python-requests/2.23.0
    method: GET
    uri: https://api.digitalocean.com/v2/domains/foxwoodswebsites.com/records?page=2
  response:
    body:
      string: !!python/unicode '{"domain_records":[{"id":92264158,"type":"TXT","name":"updated.testfqdn","data":"challengetoken","priority":null,"port":null,"ttl":3600,"weight":null,"flags":null,"tag":null},{"id":92264161,"type":"TXT","name":"updated.testfull","data":"challengetoken","priority":null,"port":null,"ttl":3600,"weight":null,"flags":null,"tag":null}],"links":{"pages":{"first":"https://api.digitalocean.com/v2/domains/foxwoodswebsites.com/records?page=1","prev":"https://api.digitalocean.com/v2/domains/foxwoodswebsites.com/records?page=1"}},"meta":{"total":22}}'
    headers:
      cache-control:
      - max-age=0, private, must-revalidate
      cf-cache-status:
      - DYNAMIC
      cf-ray:
      - 57219d4b6c37d356-LAX
      connection:
      - keep-alive
      content-length:
      - '543'
      content-type:
      - application/json; charset=utf-8
      date:
      - Wed, 11 Mar 2020 01:48:40 GMT
      etag:
      - W/"350858b8adccedb5696a9672eed038b9"
      expect-ct:
      - max-age=604800, report-uri="https://report-uri.cloudflare.com/cdn-cgi/beacon/expect-ct"
      ratelimit-limit:
      - '5000'
      ratelimit-remaining:
      - '4863'
      ratelimit-reset:
      - '1583891032'
      server:
      - cloudflare
      set-cookie:
      - __cfduid=dff1f485d62bd55fbc4e320fce8f885ad1583891319; expires=Fri, 10-Apr-20
        01:48:39 GMT; path=/; domain=.digitalocean.com; HttpOnly; SameSite=Lax
      transfer-encoding:
      - chunked
      x-content-type-options:
      - nosniff
      x-frame-options:
      - SAMEORIGIN
      x-gateway:
      - Edge-Gateway
      x-request-id:
      - 2e1e47ee-182c-40de-8b2f-1fe2c4a8ac41
      x-response-from:
      - service
      x-runtime:
      - '0.130498'
      x-xss-protection:
      - 1; mode=block
    status:
      code: 200
      message: OK
- request:
    body: !!python/unicode '{}'
    headers:
      Accept:
      - application/json
      Accept-Encoding:
      - gzip, deflate
      Connection:
      - keep-alive
      Content-Length:
      - '2'
      Content-Type:
      - application/json
      User-Agent:
      - python-requests/2.23.0
    method: GET
    uri: https://api.digitalocean.com/v2/domains/foxwoodswebsites.com/records
  response:
    body:
      string: !!python/unicode '{"domain_records":[{"id":78210035,"type":"SOA","name":"@","data":"1800","priority":null,"port":null,"ttl":1800,"weight":null,"flags":null,"tag":null},{"id":78210036,"type":"NS","name":"@","data":"ns1.digitalocean.com","priority":null,"port":null,"ttl":1800,"weight":null,"flags":null,"tag":null},{"id":78210037,"type":"NS","name":"@","data":"ns2.digitalocean.com","priority":null,"port":null,"ttl":1800,"weight":null,"flags":null,"tag":null},{"id":78210038,"type":"NS","name":"@","data":"ns3.digitalocean.com","priority":null,"port":null,"ttl":1800,"weight":null,"flags":null,"tag":null},{"id":92264100,"type":"A","name":"localhost","data":"127.0.0.1","priority":null,"port":null,"ttl":3600,"weight":null,"flags":null,"tag":null},{"id":92264101,"type":"CNAME","name":"docs","data":"docs.example.com","priority":null,"port":null,"ttl":3600,"weight":null,"flags":null,"tag":null},{"id":92264103,"type":"TXT","name":"_acme-challenge.fqdn","data":"challengetoken","priority":null,"port":null,"ttl":3600,"weight":null,"flags":null,"tag":null},{"id":92264104,"type":"TXT","name":"_acme-challenge.full","data":"challengetoken","priority":null,"port":null,"ttl":3600,"weight":null,"flags":null,"tag":null},{"id":92264105,"type":"TXT","name":"_acme-challenge.test","data":"challengetoken","priority":null,"port":null,"ttl":3600,"weight":null,"flags":null,"tag":null},{"id":92264107,"type":"TXT","name":"_acme-challenge.createrecordset","data":"challengetoken1","priority":null,"port":null,"ttl":3600,"weight":null,"flags":null,"tag":null},{"id":92264108,"type":"TXT","name":"_acme-challenge.createrecordset","data":"challengetoken2","priority":null,"port":null,"ttl":3600,"weight":null,"flags":null,"tag":null},{"id":92264111,"type":"TXT","name":"_acme-challenge.noop","data":"challengetoken","priority":null,"port":null,"ttl":3600,"weight":null,"flags":null,"tag":null},{"id":92264118,"type":"TXT","name":"_acme-challenge.deleterecordinset","data":"challengetoken2","priority":null,"port":null,"ttl":3600,"weight":null,"flags":null,"tag":null},{"id":92264128,"type":"TXT","name":"ttl.fqdn","data":"ttlshouldbe3600","priority":null,"port":null,"ttl":3600,"weight":null,"flags":null,"tag":null},{"id":92264132,"type":"TXT","name":"_acme-challenge.listrecordset","data":"challengetoken1","priority":null,"port":null,"ttl":3600,"weight":null,"flags":null,"tag":null},{"id":92264133,"type":"TXT","name":"_acme-challenge.listrecordset","data":"challengetoken2","priority":null,"port":null,"ttl":3600,"weight":null,"flags":null,"tag":null},{"id":92264134,"type":"TXT","name":"random.fqdntest","data":"challengetoken","priority":null,"port":null,"ttl":3600,"weight":null,"flags":null,"tag":null},{"id":92264142,"type":"TXT","name":"random.fulltest","data":"challengetoken","priority":null,"port":null,"ttl":3600,"weight":null,"flags":null,"tag":null},{"id":92264153,"type":"TXT","name":"random.test","data":"challengetoken","priority":null,"port":null,"ttl":3600,"weight":null,"flags":null,"tag":null},{"id":92264156,"type":"TXT","name":"updated.test","data":"challengetoken","priority":null,"port":null,"ttl":3600,"weight":null,"flags":null,"tag":null}],"links":{"pages":{"last":"https://api.digitalocean.com/v2/domains/foxwoodswebsites.com/records?page=2","next":"https://api.digitalocean.com/v2/domains/foxwoodswebsites.com/records?page=2"}},"meta":{"total":22}}'
    headers:
      cache-control:
      - max-age=0, private, must-revalidate
      cf-cache-status:
      - DYNAMIC
      cf-ray:
      - 57219d516ecbeb3d-LAX
      connection:
      - keep-alive
      content-length:
      - '3349'
      content-type:
      - application/json; charset=utf-8
      date:
      - Wed, 11 Mar 2020 01:48:40 GMT
      etag:
      - W/"177a914f44c719360aaf2e03dbadf8c4"
      expect-ct:
      - max-age=604800, report-uri="https://report-uri.cloudflare.com/cdn-cgi/beacon/expect-ct"
      ratelimit-limit:
      - '5000'
      ratelimit-remaining:
      - '4862'
      ratelimit-reset:
      - '1583891032'
      server:
      - cloudflare
      set-cookie:
      - __cfduid=d25c35ce9f7621d5899b21cec9efa4a671583891320; expires=Fri, 10-Apr-20
        01:48:40 GMT; path=/; domain=.digitalocean.com; HttpOnly; SameSite=Lax
      transfer-encoding:
      - chunked
      x-content-type-options:
      - nosniff
      x-frame-options:
      - SAMEORIGIN
      x-gateway:
      - Edge-Gateway
      x-request-id:
      - d5d4bf0a-155d-4b53-82e0-3526305d5446
      x-response-from:
      - service
      x-runtime:
      - '0.111754'
      x-xss-protection:
      - 1; mode=block
    status:
      code: 200
      message: OK
- request:
    body: !!python/unicode '{}'
    headers:
      Accept:
      - application/json
      Accept-Encoding:
      - gzip, deflate
      Connection:
      - keep-alive
      Content-Length:
      - '2'
      Content-Type:
      - application/json
      User-Agent:
      - python-requests/2.23.0
    method: GET
    uri: https://api.digitalocean.com/v2/domains/foxwoodswebsites.com/records?page=2
  response:
    body:
      string: !!python/unicode '{"domain_records":[{"id":92264158,"type":"TXT","name":"updated.testfqdn","data":"challengetoken","priority":null,"port":null,"ttl":3600,"weight":null,"flags":null,"tag":null},{"id":92264161,"type":"TXT","name":"updated.testfull","data":"challengetoken","priority":null,"port":null,"ttl":3600,"weight":null,"flags":null,"tag":null}],"links":{"pages":{"first":"https://api.digitalocean.com/v2/domains/foxwoodswebsites.com/records?page=1","prev":"https://api.digitalocean.com/v2/domains/foxwoodswebsites.com/records?page=1"}},"meta":{"total":22}}'
    headers:
      cache-control:
      - max-age=0, private, must-revalidate
      cf-cache-status:
      - DYNAMIC
      cf-ray:
      - 57219d564ae1eab7-LAX
      connection:
      - keep-alive
      content-length:
      - '543'
      content-type:
      - application/json; charset=utf-8
      date:
      - Wed, 11 Mar 2020 01:48:41 GMT
      etag:
      - W/"350858b8adccedb5696a9672eed038b9"
      expect-ct:
      - max-age=604800, report-uri="https://report-uri.cloudflare.com/cdn-cgi/beacon/expect-ct"
      ratelimit-limit:
      - '5000'
      ratelimit-remaining:
      - '4861'
      ratelimit-reset:
      - '1583891032'
      server:
      - cloudflare
      set-cookie:
      - __cfduid=db205ef4e73904872e4b3f89634c061d81583891321; expires=Fri, 10-Apr-20
        01:48:41 GMT; path=/; domain=.digitalocean.com; HttpOnly; SameSite=Lax
      transfer-encoding:
      - chunked
      x-content-type-options:
      - nosniff
      x-frame-options:
      - SAMEORIGIN
      x-gateway:
      - Edge-Gateway
      x-request-id:
      - f498b4b9-2f61-48b0-a15f-b1bda4b9f262
      x-response-from:
      - service
      x-runtime:
      - '0.119038'
      x-xss-protection:
      - 1; mode=block
    status:
      code: 200
      message: OK
- request:
    body: !!python/unicode '{}'
    headers:
      Accept:
      - application/json
      Accept-Encoding:
      - gzip, deflate
      Connection:
      - keep-alive
      Content-Length:
      - '2'
      Content-Type:
      - application/json
      User-Agent:
      - python-requests/2.23.0
    method: GET
    uri: https://api.digitalocean.com/v2/domains/foxwoodswebsites.com/records
  response:
    body:
      string: !!python/unicode '{"domain_records":[{"id":78210035,"type":"SOA","name":"@","data":"1800","priority":null,"port":null,"ttl":1800,"weight":null,"flags":null,"tag":null},{"id":78210036,"type":"NS","name":"@","data":"ns1.digitalocean.com","priority":null,"port":null,"ttl":1800,"weight":null,"flags":null,"tag":null},{"id":78210037,"type":"NS","name":"@","data":"ns2.digitalocean.com","priority":null,"port":null,"ttl":1800,"weight":null,"flags":null,"tag":null},{"id":78210038,"type":"NS","name":"@","data":"ns3.digitalocean.com","priority":null,"port":null,"ttl":1800,"weight":null,"flags":null,"tag":null},{"id":92264100,"type":"A","name":"localhost","data":"127.0.0.1","priority":null,"port":null,"ttl":3600,"weight":null,"flags":null,"tag":null},{"id":92264101,"type":"CNAME","name":"docs","data":"docs.example.com","priority":null,"port":null,"ttl":3600,"weight":null,"flags":null,"tag":null},{"id":92264103,"type":"TXT","name":"_acme-challenge.fqdn","data":"challengetoken","priority":null,"port":null,"ttl":3600,"weight":null,"flags":null,"tag":null},{"id":92264104,"type":"TXT","name":"_acme-challenge.full","data":"challengetoken","priority":null,"port":null,"ttl":3600,"weight":null,"flags":null,"tag":null},{"id":92264105,"type":"TXT","name":"_acme-challenge.test","data":"challengetoken","priority":null,"port":null,"ttl":3600,"weight":null,"flags":null,"tag":null},{"id":92264107,"type":"TXT","name":"_acme-challenge.createrecordset","data":"challengetoken1","priority":null,"port":null,"ttl":3600,"weight":null,"flags":null,"tag":null},{"id":92264108,"type":"TXT","name":"_acme-challenge.createrecordset","data":"challengetoken2","priority":null,"port":null,"ttl":3600,"weight":null,"flags":null,"tag":null},{"id":92264111,"type":"TXT","name":"_acme-challenge.noop","data":"challengetoken","priority":null,"port":null,"ttl":3600,"weight":null,"flags":null,"tag":null},{"id":92264118,"type":"TXT","name":"_acme-challenge.deleterecordinset","data":"challengetoken2","priority":null,"port":null,"ttl":3600,"weight":null,"flags":null,"tag":null},{"id":92264128,"type":"TXT","name":"ttl.fqdn","data":"ttlshouldbe3600","priority":null,"port":null,"ttl":3600,"weight":null,"flags":null,"tag":null},{"id":92264132,"type":"TXT","name":"_acme-challenge.listrecordset","data":"challengetoken1","priority":null,"port":null,"ttl":3600,"weight":null,"flags":null,"tag":null},{"id":92264133,"type":"TXT","name":"_acme-challenge.listrecordset","data":"challengetoken2","priority":null,"port":null,"ttl":3600,"weight":null,"flags":null,"tag":null},{"id":92264134,"type":"TXT","name":"random.fqdntest","data":"challengetoken","priority":null,"port":null,"ttl":3600,"weight":null,"flags":null,"tag":null},{"id":92264142,"type":"TXT","name":"random.fulltest","data":"challengetoken","priority":null,"port":null,"ttl":3600,"weight":null,"flags":null,"tag":null},{"id":92264153,"type":"TXT","name":"random.test","data":"challengetoken","priority":null,"port":null,"ttl":3600,"weight":null,"flags":null,"tag":null},{"id":92264156,"type":"TXT","name":"updated.test","data":"challengetoken","priority":null,"port":null,"ttl":3600,"weight":null,"flags":null,"tag":null}],"links":{"pages":{"last":"https://api.digitalocean.com/v2/domains/foxwoodswebsites.com/records?page=2","next":"https://api.digitalocean.com/v2/domains/foxwoodswebsites.com/records?page=2"}},"meta":{"total":22}}'
    headers:
      cache-control:
      - max-age=0, private, must-revalidate
      cf-cache-status:
      - DYNAMIC
      cf-ray:
      - 57219d5b58e3d352-LAX
      connection:
      - keep-alive
      content-length:
      - '3349'
      content-type:
      - application/json; charset=utf-8
      date:
      - Wed, 11 Mar 2020 01:48:42 GMT
      etag:
      - W/"177a914f44c719360aaf2e03dbadf8c4"
      expect-ct:
      - max-age=604800, report-uri="https://report-uri.cloudflare.com/cdn-cgi/beacon/expect-ct"
      ratelimit-limit:
      - '5000'
      ratelimit-remaining:
      - '4860'
      ratelimit-reset:
      - '1583891032'
      server:
      - cloudflare
      set-cookie:
      - __cfduid=d03913e5b6910d3bcf47536a9a88709c91583891322; expires=Fri, 10-Apr-20
        01:48:42 GMT; path=/; domain=.digitalocean.com; HttpOnly; SameSite=Lax
      transfer-encoding:
      - chunked
      x-content-type-options:
      - nosniff
      x-frame-options:
      - SAMEORIGIN
      x-gateway:
      - Edge-Gateway
      x-request-id:
      - 856be994-3121-4cbc-a94a-4de28875ed7a
      x-response-from:
      - service
      x-runtime:
      - '0.114624'
      x-xss-protection:
      - 1; mode=block
    status:
      code: 200
      message: OK
- request:
    body: !!python/unicode '{}'
    headers:
      Accept:
      - application/json
      Accept-Encoding:
      - gzip, deflate
      Connection:
      - keep-alive
      Content-Length:
      - '2'
      Content-Type:
      - application/json
      User-Agent:
      - python-requests/2.23.0
    method: GET
    uri: https://api.digitalocean.com/v2/domains/foxwoodswebsites.com/records?page=2
  response:
    body:
      string: !!python/unicode '{"domain_records":[{"id":92264158,"type":"TXT","name":"updated.testfqdn","data":"challengetoken","priority":null,"port":null,"ttl":3600,"weight":null,"flags":null,"tag":null},{"id":92264161,"type":"TXT","name":"updated.testfull","data":"challengetoken","priority":null,"port":null,"ttl":3600,"weight":null,"flags":null,"tag":null}],"links":{"pages":{"first":"https://api.digitalocean.com/v2/domains/foxwoodswebsites.com/records?page=1","prev":"https://api.digitalocean.com/v2/domains/foxwoodswebsites.com/records?page=1"}},"meta":{"total":22}}'
    headers:
      cache-control:
      - max-age=0, private, must-revalidate
      cf-cache-status:
      - DYNAMIC
      cf-ray:
      - 57219d60193f788a-LAX
      connection:
      - keep-alive
      content-length:
      - '543'
      content-type:
      - application/json; charset=utf-8
      date:
      - Wed, 11 Mar 2020 01:48:43 GMT
      etag:
      - W/"350858b8adccedb5696a9672eed038b9"
      expect-ct:
      - max-age=604800, report-uri="https://report-uri.cloudflare.com/cdn-cgi/beacon/expect-ct"
      ratelimit-limit:
      - '5000'
      ratelimit-remaining:
      - '4859'
      ratelimit-reset:
      - '1583891032'
      server:
      - cloudflare
      set-cookie:
      - __cfduid=d18706903dbbcb7eef7edb5f77964849d1583891322; expires=Fri, 10-Apr-20
        01:48:42 GMT; path=/; domain=.digitalocean.com; HttpOnly; SameSite=Lax
      transfer-encoding:
      - chunked
      x-content-type-options:
      - nosniff
      x-frame-options:
      - SAMEORIGIN
      x-gateway:
      - Edge-Gateway
      x-request-id:
      - 1d7553b4-7e7a-49a7-8196-e077abb313fa
      x-response-from:
      - service
      x-runtime:
      - '0.137300'
      x-xss-protection:
      - 1; mode=block
    status:
      code: 200
      message: OK
version: 1
