interactions:
- request:
    body: !!python/unicode '{}'
    headers:
      Accept:
      - application/json
      Accept-Encoding:
      - gzip, deflate
      Connection:
      - keep-alive
      Content-Length:
      - '2'
      Content-Type:
      - application/json
      User-Agent:
      - python-requests/2.23.0
    method: GET
    uri: https://api.digitalocean.com/v2/domains/foxwoodswebsites.com
  response:
    body:
      string: !!python/unicode '{"domain":{"name":"foxwoodswebsites.com","ttl":1800,"zone_file":"$ORIGIN
        foxwoodswebsites.com.\n$TTL 1800\nfoxwoodswebsites.com. IN SOA ns1.digitalocean.com.
        hostmaster.foxwoodswebsites.com. 1583891130 10800 3600 604800 1800\nfoxwoodswebsites.com.
        1800 IN NS ns1.digitalocean.com.\nfoxwoodswebsites.com. 1800 IN NS ns2.digitalocean.com.\nfoxwoodswebsites.com.
        1800 IN NS ns3.digitalocean.com.\nlocalhost.foxwoodswebsites.com. 3600 IN
        A 127.0.0.1\ndocs.foxwoodswebsites.com. 3600 IN CNAME docs.example.com.\n_acme-challenge.fqdn.foxwoodswebsites.com.
        3600 IN TXT challengetoken\n_acme-challenge.full.foxwoodswebsites.com. 3600
        IN TXT challengetoken\n_acme-challenge.test.foxwoodswebsites.com. 3600 IN
        TXT challengetoken\n_acme-challenge.createrecordset.foxwoodswebsites.com.
        3600 IN TXT challengetoken1\n_acme-challenge.createrecordset.foxwoodswebsites.com.
        3600 IN TXT challengetoken2\n_acme-challenge.noop.foxwoodswebsites.com. 3600
        IN TXT challengetoken\n_acme-challenge.deleterecordinset.foxwoodswebsites.com.
        3600 IN TXT challengetoken2\nttl.fqdn.foxwoodswebsites.com. 3600 IN TXT ttlshouldbe3600\n_acme-challenge.listrecordset.foxwoodswebsites.com.
        3600 IN TXT challengetoken1\n_acme-challenge.listrecordset.foxwoodswebsites.com.
        3600 IN TXT challengetoken2\nrandom.fqdntest.foxwoodswebsites.com. 3600 IN
        TXT challengetoken\nrandom.fulltest.foxwoodswebsites.com. 3600 IN TXT challengetoken\nrandom.test.foxwoodswebsites.com.
        3600 IN TXT challengetoken\nupdated.test.foxwoodswebsites.com. 3600 IN TXT
        challengetoken\nupdated.testfqdn.foxwoodswebsites.com. 3600 IN TXT challengetoken\nupdated.testfull.foxwoodswebsites.com.
        3600 IN TXT challengetoken\n"}}'
    headers:
      cache-control:
      - max-age=0, private, must-revalidate
      cf-cache-status:
      - DYNAMIC
      cf-ray:
      - 57219d072806992f-LAX
      connection:
      - keep-alive
      content-length:
      - '1658'
      content-type:
      - application/json; charset=utf-8
      date:
      - Wed, 11 Mar 2020 01:48:28 GMT
      etag:
      - W/"70e163fd0c446609dd88b19cdbc82579"
      expect-ct:
      - max-age=604800, report-uri="https://report-uri.cloudflare.com/cdn-cgi/beacon/expect-ct"
      ratelimit-limit:
      - '5000'
      ratelimit-remaining:
      - '4876'
      ratelimit-reset:
      - '1583891032'
      server:
      - cloudflare
      set-cookie:
      - __cfduid=d41e356075c18f7119bbc89ef46e16f451583891308; expires=Fri, 10-Apr-20
        01:48:28 GMT; path=/; domain=.digitalocean.com; HttpOnly; SameSite=Lax
      transfer-encoding:
      - chunked
      x-content-type-options:
      - nosniff
      x-frame-options:
      - SAMEORIGIN
      x-gateway:
      - Edge-Gateway
      x-request-id:
      - b6af7c10-4981-42d7-8ed8-da4a6d286335
      x-response-from:
      - service
      x-runtime:
      - '0.104410'
      x-xss-protection:
      - 1; mode=block
    status:
      code: 200
      message: OK
- request:
    body: !!python/unicode '{}'
    headers:
      Accept:
      - application/json
      Accept-Encoding:
      - gzip, deflate
      Connection:
      - keep-alive
      Content-Length:
      - '2'
      Content-Type:
      - application/json
      User-Agent:
      - python-requests/2.23.0
    method: GET
    uri: https://api.digitalocean.com/v2/domains/foxwoodswebsites.com/records
  response:
    body:
      string: !!python/unicode '{"domain_records":[{"id":78210035,"type":"SOA","name":"@","data":"1800","priority":null,"port":null,"ttl":1800,"weight":null,"flags":null,"tag":null},{"id":78210036,"type":"NS","name":"@","data":"ns1.digitalocean.com","priority":null,"port":null,"ttl":1800,"weight":null,"flags":null,"tag":null},{"id":78210037,"type":"NS","name":"@","data":"ns2.digitalocean.com","priority":null,"port":null,"ttl":1800,"weight":null,"flags":null,"tag":null},{"id":78210038,"type":"NS","name":"@","data":"ns3.digitalocean.com","priority":null,"port":null,"ttl":1800,"weight":null,"flags":null,"tag":null},{"id":92264100,"type":"A","name":"localhost","data":"127.0.0.1","priority":null,"port":null,"ttl":3600,"weight":null,"flags":null,"tag":null},{"id":92264101,"type":"CNAME","name":"docs","data":"docs.example.com","priority":null,"port":null,"ttl":3600,"weight":null,"flags":null,"tag":null},{"id":92264103,"type":"TXT","name":"_acme-challenge.fqdn","data":"challengetoken","priority":null,"port":null,"ttl":3600,"weight":null,"flags":null,"tag":null},{"id":92264104,"type":"TXT","name":"_acme-challenge.full","data":"challengetoken","priority":null,"port":null,"ttl":3600,"weight":null,"flags":null,"tag":null},{"id":92264105,"type":"TXT","name":"_acme-challenge.test","data":"challengetoken","priority":null,"port":null,"ttl":3600,"weight":null,"flags":null,"tag":null},{"id":92264107,"type":"TXT","name":"_acme-challenge.createrecordset","data":"challengetoken1","priority":null,"port":null,"ttl":3600,"weight":null,"flags":null,"tag":null},{"id":92264108,"type":"TXT","name":"_acme-challenge.createrecordset","data":"challengetoken2","priority":null,"port":null,"ttl":3600,"weight":null,"flags":null,"tag":null},{"id":92264111,"type":"TXT","name":"_acme-challenge.noop","data":"challengetoken","priority":null,"port":null,"ttl":3600,"weight":null,"flags":null,"tag":null},{"id":92264118,"type":"TXT","name":"_acme-challenge.deleterecordinset","data":"challengetoken2","priority":null,"port":null,"ttl":3600,"weight":null,"flags":null,"tag":null},{"id":92264128,"type":"TXT","name":"ttl.fqdn","data":"ttlshouldbe3600","priority":null,"port":null,"ttl":3600,"weight":null,"flags":null,"tag":null},{"id":92264132,"type":"TXT","name":"_acme-challenge.listrecordset","data":"challengetoken1","priority":null,"port":null,"ttl":3600,"weight":null,"flags":null,"tag":null},{"id":92264133,"type":"TXT","name":"_acme-challenge.listrecordset","data":"challengetoken2","priority":null,"port":null,"ttl":3600,"weight":null,"flags":null,"tag":null},{"id":92264134,"type":"TXT","name":"random.fqdntest","data":"challengetoken","priority":null,"port":null,"ttl":3600,"weight":null,"flags":null,"tag":null},{"id":92264142,"type":"TXT","name":"random.fulltest","data":"challengetoken","priority":null,"port":null,"ttl":3600,"weight":null,"flags":null,"tag":null},{"id":92264153,"type":"TXT","name":"random.test","data":"challengetoken","priority":null,"port":null,"ttl":3600,"weight":null,"flags":null,"tag":null},{"id":92264156,"type":"TXT","name":"updated.test","data":"challengetoken","priority":null,"port":null,"ttl":3600,"weight":null,"flags":null,"tag":null}],"links":{"pages":{"last":"https://api.digitalocean.com/v2/domains/foxwoodswebsites.com/records?page=2","next":"https://api.digitalocean.com/v2/domains/foxwoodswebsites.com/records?page=2"}},"meta":{"total":22}}'
    headers:
      cache-control:
      - max-age=0, private, must-revalidate
      cf-cache-status:
      - DYNAMIC
      cf-ray:
      - 57219d0acc74ebd9-LAX
      connection:
      - keep-alive
      content-length:
      - '3349'
      content-type:
      - application/json; charset=utf-8
      date:
      - Wed, 11 Mar 2020 01:48:29 GMT
      etag:
      - W/"177a914f44c719360aaf2e03dbadf8c4"
      expect-ct:
      - max-age=604800, report-uri="https://report-uri.cloudflare.com/cdn-cgi/beacon/expect-ct"
      ratelimit-limit:
      - '5000'
      ratelimit-remaining:
      - '4875'
      ratelimit-reset:
      - '1583891032'
      server:
      - cloudflare
      set-cookie:
      - __cfduid=df3b334c2039faa8ad769a53cb0121c571583891309; expires=Fri, 10-Apr-20
        01:48:29 GMT; path=/; domain=.digitalocean.com; HttpOnly; SameSite=Lax
      transfer-encoding:
      - chunked
      x-content-type-options:
      - nosniff
      x-frame-options:
      - SAMEORIGIN
      x-gateway:
      - Edge-Gateway
      x-request-id:
      - 1aeabe2c-7701-4ccc-95a9-6627cdfff210
      x-response-from:
      - service
      x-runtime:
      - '0.137015'
      x-xss-protection:
      - 1; mode=block
    status:
      code: 200
      message: OK
- request:
    body: !!python/unicode '{}'
    headers:
      Accept:
      - application/json
      Accept-Encoding:
      - gzip, deflate
      Connection:
      - keep-alive
      Content-Length:
      - '2'
      Content-Type:
      - application/json
      User-Agent:
      - python-requests/2.23.0
    method: GET
    uri: https://api.digitalocean.com/v2/domains/foxwoodswebsites.com/records?page=2
  response:
    body:
      string: !!python/unicode '{"domain_records":[{"id":92264158,"type":"TXT","name":"updated.testfqdn","data":"challengetoken","priority":null,"port":null,"ttl":3600,"weight":null,"flags":null,"tag":null},{"id":92264161,"type":"TXT","name":"updated.testfull","data":"challengetoken","priority":null,"port":null,"ttl":3600,"weight":null,"flags":null,"tag":null}],"links":{"pages":{"first":"https://api.digitalocean.com/v2/domains/foxwoodswebsites.com/records?page=1","prev":"https://api.digitalocean.com/v2/domains/foxwoodswebsites.com/records?page=1"}},"meta":{"total":22}}'
    headers:
      cache-control:
      - max-age=0, private, must-revalidate
      cf-cache-status:
      - DYNAMIC
      cf-ray:
      - 57219d0e5e0998f3-LAX
      connection:
      - keep-alive
      content-length:
      - '543'
      content-type:
      - application/json; charset=utf-8
      date:
      - Wed, 11 Mar 2020 01:48:30 GMT
      etag:
      - W/"350858b8adccedb5696a9672eed038b9"
      expect-ct:
      - max-age=604800, report-uri="https://report-uri.cloudflare.com/cdn-cgi/beacon/expect-ct"
      ratelimit-limit:
      - '5000'
      ratelimit-remaining:
      - '4874'
      ratelimit-reset:
      - '1583891032'
      server:
      - cloudflare
      set-cookie:
      - __cfduid=d242c3196848fd326af1d4a2f22d025fd1583891309; expires=Fri, 10-Apr-20
        01:48:29 GMT; path=/; domain=.digitalocean.com; HttpOnly; SameSite=Lax
      transfer-encoding:
      - chunked
      x-content-type-options:
      - nosniff
      x-frame-options:
      - SAMEORIGIN
      x-gateway:
      - Edge-Gateway
      x-request-id:
      - ee867041-1246-4d89-8d68-68b1cf08b3a9
      x-response-from:
      - service
      x-runtime:
      - '0.138521'
      x-xss-protection:
      - 1; mode=block
    status:
      code: 200
      message: OK
version: 1
