interactions:
- request:
    body: !!python/unicode '{}'
    headers:
      Accept:
      - application/json
      Accept-Encoding:
      - gzip, deflate
      Connection:
      - keep-alive
      Content-Length:
      - '2'
      Content-Type:
      - application/json
      User-Agent:
      - python-requests/2.22.0
    method: GET
    uri: https://api.ukfast.io/safedns/v1/zones/calv.tk
  response:
    body:
      string: !!python/unicode '{"data":{"name":"calv.tk","description":""},"meta":{}}'
    headers:
      access-control-allow-origin:
      - https://developers.ukfast.io
      cache-control:
      - no-cache, private
      connection:
      - close
      content-length:
      - '54'
      content-type:
      - application/json
      date:
      - Mon, 03 Jun 2019 05:26:26 GMT
      request-id:
      - 1c46421f-d638-41be-9dcb-1ae2870092e3
      server:
      - UKFast Web Services
      transfer-encoding:
      - chunked
      vary:
      - Origin
    status:
      code: 200
      message: OK
- request:
    body: !!python/unicode '{}'
    headers:
      Accept:
      - application/json
      Accept-Encoding:
      - gzip, deflate
      Connection:
      - keep-alive
      Content-Length:
      - '2'
      Content-Type:
      - application/json
      User-Agent:
      - python-requests/2.22.0
    method: GET
    uri: https://api.ukfast.io/safedns/v1/zones/calv.tk/records
  response:
    body:
      string: !!python/unicode '{"data":[{"id":2070373,"name":"calv.tk","type":"SOA","content":"ns0.ukfast.net
        miff2000.gmail.com 2019060108 7200 3600 604800 86400","updated_at":"2019-06-01T09:53:36+00:00","ttl":86400,"priority":0},{"id":2070374,"name":"calv.tk","type":"NS","content":"ns0.ukfast.net","updated_at":"2019-06-01T09:53:35+00:00","ttl":86400,"priority":0},{"id":2070375,"name":"calv.tk","type":"NS","content":"ns1.ukfast.net","updated_at":"2019-06-01T09:53:35+00:00","ttl":86400,"priority":0},{"id":2070376,"name":"calv.tk","type":"A","content":"94.229.165.115","updated_at":"2019-06-01T09:53:36+00:00","ttl":86400,"priority":0},{"id":2070377,"name":"www.calv.tk","type":"A","content":"94.229.165.115","updated_at":"2019-06-01T09:53:36+00:00","ttl":86400,"priority":0},{"id":3452810,"name":"a.calv.tk","type":"A","content":"192.168.1.1","updated_at":"2019-06-01T09:53:36+00:00","ttl":86400,"priority":0},{"id":3452813,"name":"b.calv.tk","type":"A","content":"192.168.1.1","updated_at":"2019-06-01T09:53:36+00:00","ttl":86400,"priority":0},{"id":3452816,"name":"c.calv.tk","type":"A","content":"192.168.1.1","updated_at":"2019-06-01T09:53:35+00:00","ttl":86400,"priority":0},{"id":3452819,"name":"d.calv.tk","type":"A","content":"192.168.1.1","updated_at":"2019-06-01T09:53:35+00:00","ttl":86400,"priority":0},{"id":3452822,"name":"e.calv.tk","type":"A","content":"192.168.1.1","updated_at":"2019-06-01T09:53:35+00:00","ttl":86400,"priority":0}],"meta":{"pagination":{"total":50,"count":10,"per_page":10,"current_page":1,"total_pages":5,"links":{"next":"https:\/\/api.ukfast.io\/safedns\/v1\/zones\/calv.tk\/records?page=2","last":"https:\/\/api.ukfast.io\/safedns\/v1\/zones\/calv.tk\/records?page=5"}}}}'
    headers:
      access-control-allow-origin:
      - https://developers.ukfast.io
      cache-control:
      - no-cache, private
      connection:
      - close
      content-length:
      - '1685'
      content-type:
      - application/json
      date:
      - Mon, 03 Jun 2019 05:26:26 GMT
      request-id:
      - e040a199-add7-4b74-8275-d327520081a8
      server:
      - UKFast Web Services
      transfer-encoding:
      - chunked
      vary:
      - Origin
    status:
      code: 200
      message: OK
- request:
    body: !!python/unicode '{}'
    headers:
      Accept:
      - application/json
      Accept-Encoding:
      - gzip, deflate
      Connection:
      - keep-alive
      Content-Length:
      - '2'
      Content-Type:
      - application/json
      User-Agent:
      - python-requests/2.22.0
    method: GET
    uri: https://api.ukfast.io/safedns/v1/zones/calv.tk/records?page=2
  response:
    body:
      string: !!python/unicode '{"data":[{"id":3452825,"name":"f.calv.tk","type":"A","content":"192.168.1.1","updated_at":"2019-06-01T09:53:35+00:00","ttl":86400,"priority":0},{"id":3452828,"name":"g.calv.tk","type":"A","content":"192.168.1.1","updated_at":"2019-06-01T09:53:35+00:00","ttl":86400,"priority":0},{"id":3452831,"name":"h.calv.tk","type":"A","content":"192.168.1.1","updated_at":"2019-06-01T09:53:35+00:00","ttl":86400,"priority":0},{"id":3452834,"name":"i.calv.tk","type":"A","content":"192.168.1.1","updated_at":"2019-06-01T09:53:35+00:00","ttl":86400,"priority":0},{"id":3452837,"name":"j.calv.tk","type":"A","content":"192.168.1.1","updated_at":"2019-06-01T09:53:35+00:00","ttl":86400,"priority":0},{"id":3452840,"name":"k.calv.tk","type":"A","content":"192.168.1.1","updated_at":"2019-06-01T09:53:35+00:00","ttl":86400,"priority":0},{"id":3452843,"name":"l.calv.tk","type":"A","content":"192.168.1.1","updated_at":"2019-06-01T09:53:35+00:00","ttl":86400,"priority":0},{"id":3452846,"name":"m.calv.tk","type":"A","content":"192.168.1.1","updated_at":"2019-06-01T09:53:35+00:00","ttl":86400,"priority":0},{"id":3452849,"name":"n.calv.tk","type":"A","content":"192.168.1.1","updated_at":"2019-06-01T09:53:35+00:00","ttl":86400,"priority":0},{"id":3452852,"name":"o.calv.tk","type":"A","content":"192.168.1.1","updated_at":"2019-06-01T09:53:35+00:00","ttl":86400,"priority":0}],"meta":{"pagination":{"total":50,"count":10,"per_page":10,"current_page":2,"total_pages":5,"links":{"first":"https:\/\/api.ukfast.io\/safedns\/v1\/zones\/calv.tk\/records?page=1","previous":"https:\/\/api.ukfast.io\/safedns\/v1\/zones\/calv.tk\/records?page=1","next":"https:\/\/api.ukfast.io\/safedns\/v1\/zones\/calv.tk\/records?page=3","last":"https:\/\/api.ukfast.io\/safedns\/v1\/zones\/calv.tk\/records?page=5"}}}}'
    headers:
      access-control-allow-origin:
      - https://developers.ukfast.io
      cache-control:
      - no-cache, private
      connection:
      - close
      content-length:
      - '1780'
      content-type:
      - application/json
      date:
      - Mon, 03 Jun 2019 05:26:26 GMT
      request-id:
      - 79b2a45b-1454-4ac2-9468-a1f3297f8f48
      server:
      - UKFast Web Services
      transfer-encoding:
      - chunked
      vary:
      - Origin
    status:
      code: 200
      message: OK
- request:
    body: !!python/unicode '{}'
    headers:
      Accept:
      - application/json
      Accept-Encoding:
      - gzip, deflate
      Connection:
      - keep-alive
      Content-Length:
      - '2'
      Content-Type:
      - application/json
      User-Agent:
      - python-requests/2.22.0
    method: GET
    uri: https://api.ukfast.io/safedns/v1/zones/calv.tk/records?page=3
  response:
    body:
      string: !!python/unicode '{"data":[{"id":3452855,"name":"p.calv.tk","type":"A","content":"192.168.1.1","updated_at":"2019-06-01T09:53:35+00:00","ttl":86400,"priority":0},{"id":3452858,"name":"q.calv.tk","type":"A","content":"192.168.1.1","updated_at":"2019-06-01T09:53:35+00:00","ttl":86400,"priority":0},{"id":3452861,"name":"r.calv.tk","type":"A","content":"192.168.1.1","updated_at":"2019-06-01T09:53:35+00:00","ttl":86400,"priority":0},{"id":3452864,"name":"s.calv.tk","type":"A","content":"192.168.1.1","updated_at":"2019-06-01T09:53:35+00:00","ttl":86400,"priority":0},{"id":3452867,"name":"t.calv.tk","type":"A","content":"192.168.1.1","updated_at":"2019-06-01T09:53:35+00:00","ttl":86400,"priority":0},{"id":3452870,"name":"u.calv.tk","type":"A","content":"192.168.1.1","updated_at":"2019-06-01T09:53:35+00:00","ttl":86400,"priority":0},{"id":3452873,"name":"v.calv.tk","type":"A","content":"192.168.1.1","updated_at":"2019-06-01T09:53:35+00:00","ttl":86400,"priority":0},{"id":3452876,"name":"w.calv.tk","type":"A","content":"192.168.1.1","updated_at":"2019-06-01T09:53:35+00:00","ttl":86400,"priority":0},{"id":3452879,"name":"x.calv.tk","type":"A","content":"192.168.1.1","updated_at":"2019-06-01T09:53:35+00:00","ttl":86400,"priority":0},{"id":3452882,"name":"y.calv.tk","type":"A","content":"192.168.1.1","updated_at":"2019-06-01T09:53:35+00:00","ttl":86400,"priority":0}],"meta":{"pagination":{"total":50,"count":10,"per_page":10,"current_page":3,"total_pages":5,"links":{"first":"https:\/\/api.ukfast.io\/safedns\/v1\/zones\/calv.tk\/records?page=1","previous":"https:\/\/api.ukfast.io\/safedns\/v1\/zones\/calv.tk\/records?page=2","next":"https:\/\/api.ukfast.io\/safedns\/v1\/zones\/calv.tk\/records?page=4","last":"https:\/\/api.ukfast.io\/safedns\/v1\/zones\/calv.tk\/records?page=5"}}}}'
    headers:
      access-control-allow-origin:
      - https://developers.ukfast.io
      cache-control:
      - no-cache, private
      connection:
      - close
      content-length:
      - '1780'
      content-type:
      - application/json
      date:
      - Mon, 03 Jun 2019 05:26:27 GMT
      request-id:
      - ab317565-3385-41ca-b3fe-7824e99ad4e0
      server:
      - UKFast Web Services
      transfer-encoding:
      - chunked
      vary:
      - Origin
    status:
      code: 200
      message: OK
- request:
    body: !!python/unicode '{}'
    headers:
      Accept:
      - application/json
      Accept-Encoding:
      - gzip, deflate
      Connection:
      - keep-alive
      Content-Length:
      - '2'
      Content-Type:
      - application/json
      User-Agent:
      - python-requests/2.22.0
    method: GET
    uri: https://api.ukfast.io/safedns/v1/zones/calv.tk/records?page=4
  response:
    body:
      string: !!python/unicode '{"data":[{"id":3452885,"name":"z.calv.tk","type":"A","content":"192.168.1.1","updated_at":"2019-06-01T09:53:35+00:00","ttl":86400,"priority":0},{"id":3452921,"name":"test.calv.tk","type":"AAAA","content":"2a00:1450:400f:807::200e","updated_at":"2019-06-01T09:53:36+00:00","ttl":86400,"priority":0},{"id":3453098,"name":"test2.calv.tk","type":"AAAA","content":"2a11:1450:400f:807::200e","updated_at":"2019-06-01T09:53:36+00:00","ttl":86400,"priority":0},{"id":3466124,"name":"localhost.calv.tk","type":"A","content":"127.0.0.1","updated_at":"2019-06-01T09:53:35+00:00","ttl":86400,"priority":0},{"id":3466427,"name":"random.fqdntest.calv.tk","type":"TXT","content":"\"challengetoken\"","updated_at":"2019-06-01T09:53:36+00:00","ttl":86400,"priority":0},{"id":3466742,"name":"_acme-challenge.fqdn.calv.tk","type":"TXT","content":"\"challengetoken\"","updated_at":"2019-06-03T04:57:16+00:00","ttl":86400,"priority":0},{"id":3466745,"name":"_acme-challenge.full.calv.tk","type":"TXT","content":"\"challengetoken\"","updated_at":"2019-06-03T04:57:19+00:00","ttl":86400,"priority":0},{"id":3466748,"name":"_acme-challenge.test.calv.tk","type":"TXT","content":"\"challengetoken\"","updated_at":"2019-06-03T04:57:21+00:00","ttl":86400,"priority":0},{"id":3466751,"name":"_acme-challenge.createrecordset.calv.tk","type":"TXT","content":"\"challengetoken1\"","updated_at":"2019-06-03T04:57:24+00:00","ttl":86400,"priority":0},{"id":3466754,"name":"_acme-challenge.createrecordset.calv.tk","type":"TXT","content":"\"challengetoken2\"","updated_at":"2019-06-03T04:57:26+00:00","ttl":86400,"priority":0}],"meta":{"pagination":{"total":50,"count":10,"per_page":10,"current_page":4,"total_pages":5,"links":{"first":"https:\/\/api.ukfast.io\/safedns\/v1\/zones\/calv.tk\/records?page=1","previous":"https:\/\/api.ukfast.io\/safedns\/v1\/zones\/calv.tk\/records?page=3","next":"https:\/\/api.ukfast.io\/safedns\/v1\/zones\/calv.tk\/records?page=5","last":"https:\/\/api.ukfast.io\/safedns\/v1\/zones\/calv.tk\/records?page=5"}}}}'
    headers:
      access-control-allow-origin:
      - https://developers.ukfast.io
      cache-control:
      - no-cache, private
      connection:
      - close
      content-length:
      - '2012'
      content-type:
      - application/json
      date:
      - Mon, 03 Jun 2019 05:26:27 GMT
      request-id:
      - 744e22e8-1752-42e0-a7a3-b841307ac6ec
      server:
      - UKFast Web Services
      transfer-encoding:
      - chunked
      vary:
      - Origin
    status:
      code: 200
      message: OK
- request:
    body: !!python/unicode '{}'
    headers:
      Accept:
      - application/json
      Accept-Encoding:
      - gzip, deflate
      Connection:
      - keep-alive
      Content-Length:
      - '2'
      Content-Type:
      - application/json
      User-Agent:
      - python-requests/2.22.0
    method: GET
    uri: https://api.ukfast.io/safedns/v1/zones/calv.tk/records?page=5
  response:
    body:
      string: !!python/unicode '{"data":[{"id":3466757,"name":"_acme-challenge.noop.calv.tk","type":"TXT","content":"\"challengetoken\"","updated_at":"2019-06-03T04:57:29+00:00","ttl":86400,"priority":0},{"id":3466775,"name":"_acme-challenge.deleterecordinset.calv.tk","type":"TXT","content":"\"challengetoken2\"","updated_at":"2019-06-03T04:58:07+00:00","ttl":86400,"priority":0},{"id":3466784,"name":"_acme-challenge.listrecordset.calv.tk","type":"TXT","content":"\"challengetoken1\"","updated_at":"2019-06-03T04:58:24+00:00","ttl":86400,"priority":0},{"id":3466787,"name":"_acme-challenge.listrecordset.calv.tk","type":"TXT","content":"\"challengetoken2\"","updated_at":"2019-06-03T04:58:27+00:00","ttl":86400,"priority":0},{"id":3466790,"name":"random.fulltest.calv.tk","type":"TXT","content":"\"challengetoken\"","updated_at":"2019-06-03T04:59:22+00:00","ttl":86400,"priority":0},{"id":3466793,"name":"random.test.calv.tk","type":"TXT","content":"\"challengetoken\"","updated_at":"2019-06-03T04:59:29+00:00","ttl":86400,"priority":0},{"id":3466796,"name":"updated.test.calv.tk","type":"TXT","content":"\"challengetoken\"","updated_at":"2019-06-03T05:08:46+00:00","ttl":3600,"priority":0},{"id":3466799,"name":"orig.nameonly.test.calv.tk","type":"TXT","content":"\"challengetoken\"","updated_at":"2019-06-03T05:08:49+00:00","ttl":86400,"priority":0},{"id":3466802,"name":"updated.testfqdn.calv.tk","type":"TXT","content":"\"challengetoken\"","updated_at":"2019-06-03T05:10:54+00:00","ttl":3600,"priority":0},{"id":3466805,"name":"updated.testfull.calv.tk","type":"TXT","content":"\"challengetoken\"","updated_at":"2019-06-03T05:10:59+00:00","ttl":3600,"priority":0}],"meta":{"pagination":{"total":50,"count":10,"per_page":10,"current_page":5,"total_pages":5,"links":{"first":"https:\/\/api.ukfast.io\/safedns\/v1\/zones\/calv.tk\/records?page=1","previous":"https:\/\/api.ukfast.io\/safedns\/v1\/zones\/calv.tk\/records?page=4"}}}}'
    headers:
      access-control-allow-origin:
      - https://developers.ukfast.io
      cache-control:
      - no-cache, private
      connection:
      - close
      content-length:
      - '1903'
      content-type:
      - application/json
      date:
      - Mon, 03 Jun 2019 05:26:28 GMT
      request-id:
      - 78e6b61e-9bcd-49c6-82ae-d07be673ba5e
      server:
      - UKFast Web Services
      transfer-encoding:
      - chunked
      vary:
      - Origin
    status:
      code: 200
      message: OK
version: 1
