interactions:
- request:
    body: !!python/unicode '{}'
    headers:
      Accept:
      - application/json
      Accept-Encoding:
      - gzip, deflate
      Connection:
      - keep-alive
      Content-Length:
      - '2'
      Content-Type:
      - application/json
      User-Agent:
      - python-requests/2.23.0
    method: GET
    uri: https://api.ukfast.io/safedns/v1/zones/lexicon.tests
  response:
    body:
      string: !!python/unicode '{"data":{"name":"lexicon.tests","description":""},"meta":{}}'
    headers:
      access-control-allow-origin:
      - https://developers.ukfast.io
      cache-control:
      - no-cache, private
      content-length:
      - '60'
      content-type:
      - application/json
      date:
      - Fri, 20 Mar 2020 22:01:52 GMT
      request-id:
      - ef6a9487-f775-4228-976d-07bcef7626cd
      server:
      - UKFast Web Services
      transfer-encoding:
      - chunked
      vary:
      - Accept-Encoding
      - Origin
    status:
      code: 200
      message: OK
- request:
    body: !!python/unicode '{}'
    headers:
      Accept:
      - application/json
      Accept-Encoding:
      - gzip, deflate
      Connection:
      - keep-alive
      Content-Length:
      - '2'
      Content-Type:
      - application/json
      User-Agent:
      - python-requests/2.23.0
    method: GET
    uri: https://api.ukfast.io/safedns/v1/zones/lexicon.tests/records
  response:
    body:
      string: !!python/unicode '{"data":[{"id":4291172,"name":"lexicon.tests","type":"SOA","content":"ns0.ukfast.net
        support@ukfast.co.uk 2020032002 300 300 300 300","updated_at":"2020-03-20T21:43:19+00:00","ttl":300,"priority":null},{"id":4291175,"name":"lexicon.tests","type":"NS","content":"ns0.ukfast.net","updated_at":"2020-03-20T21:43:19+00:00","ttl":300,"priority":null},{"id":4291178,"name":"lexicon.tests","type":"NS","content":"ns1.ukfast.net","updated_at":"2020-03-20T21:43:19+00:00","ttl":300,"priority":null},{"id":4291181,"name":"localhost.lexicon.tests","type":"A","content":"127.0.0.1","updated_at":"2020-03-20T21:44:28+00:00","ttl":86400,"priority":null},{"id":4291184,"name":"_acme-challenge.fqdn.lexicon.tests","type":"TXT","content":"\"challengetoken\"","updated_at":"2020-03-20T21:44:29+00:00","ttl":86400,"priority":null},{"id":4291187,"name":"_acme-challenge.full.lexicon.tests","type":"TXT","content":"\"challengetoken\"","updated_at":"2020-03-20T21:44:29+00:00","ttl":86400,"priority":null},{"id":4291190,"name":"_acme-challenge.test.lexicon.tests","type":"TXT","content":"\"challengetoken\"","updated_at":"2020-03-20T21:44:30+00:00","ttl":86400,"priority":null},{"id":4291193,"name":"_acme-challenge.createrecordset.lexicon.tests","type":"TXT","content":"\"challengetoken1\"","updated_at":"2020-03-20T21:44:30+00:00","ttl":86400,"priority":null},{"id":4291196,"name":"_acme-challenge.createrecordset.lexicon.tests","type":"TXT","content":"\"challengetoken2\"","updated_at":"2020-03-20T21:44:31+00:00","ttl":86400,"priority":null},{"id":4291199,"name":"_acme-challenge.noop.lexicon.tests","type":"TXT","content":"\"challengetoken\"","updated_at":"2020-03-20T21:44:31+00:00","ttl":86400,"priority":null}],"meta":{"pagination":{"total":24,"count":10,"per_page":10,"current_page":1,"total_pages":3,"links":{"first":"https:\/\/api.ukfast.io\/safedns\/v1\/zones\/lexicon.tests\/records?page=1","previous":null,"next":"https:\/\/api.ukfast.io\/safedns\/v1\/zones\/lexicon.tests\/records?page=2","last":"https:\/\/api.ukfast.io\/safedns\/v1\/zones\/lexicon.tests\/records?page=3"}}}}'
    headers:
      access-control-allow-origin:
      - https://developers.ukfast.io
      cache-control:
      - no-cache, private
      content-length:
      - '2067'
      content-type:
      - application/json
      date:
      - Fri, 20 Mar 2020 22:01:52 GMT
      request-id:
      - 0a526eaa-db67-41fe-afed-d38537d29343
      server:
      - UKFast Web Services
      transfer-encoding:
      - chunked
      vary:
      - Accept-Encoding
      - Origin
    status:
      code: 200
      message: OK
- request:
    body: !!python/unicode '{}'
    headers:
      Accept:
      - application/json
      Accept-Encoding:
      - gzip, deflate
      Connection:
      - keep-alive
      Content-Length:
      - '2'
      Content-Type:
      - application/json
      User-Agent:
      - python-requests/2.23.0
    method: GET
    uri: https://api.ukfast.io/safedns/v1/zones/lexicon.tests/records?page=2
  response:
    body:
      string: !!python/unicode '{"data":[{"id":4291217,"name":"_acme-challenge.deleterecordinset.lexicon.tests","type":"TXT","content":"\"challengetoken2\"","updated_at":"2020-03-20T21:44:38+00:00","ttl":86400,"priority":null},{"id":4291226,"name":"_acme-challenge.listrecordset.lexicon.tests","type":"TXT","content":"\"challengetoken1\"","updated_at":"2020-03-20T21:44:42+00:00","ttl":86400,"priority":null},{"id":4291229,"name":"_acme-challenge.listrecordset.lexicon.tests","type":"TXT","content":"\"challengetoken2\"","updated_at":"2020-03-20T21:44:43+00:00","ttl":86400,"priority":null},{"id":4291232,"name":"random.fqdntest.lexicon.tests","type":"TXT","content":"\"challengetoken\"","updated_at":"2020-03-20T21:44:44+00:00","ttl":86400,"priority":null},{"id":4291235,"name":"random.fulltest.lexicon.tests","type":"TXT","content":"\"challengetoken\"","updated_at":"2020-03-20T21:44:45+00:00","ttl":86400,"priority":null},{"id":4291238,"name":"random.test.lexicon.tests","type":"TXT","content":"\"challengetoken\"","updated_at":"2020-03-20T21:44:46+00:00","ttl":86400,"priority":null},{"id":4291241,"name":"updated.test.lexicon.tests","type":"TXT","content":"\"challengetoken\"","updated_at":"2020-03-20T21:44:49+00:00","ttl":86400,"priority":null},{"id":4291244,"name":"orig.nameonly.test.lexicon.tests","type":"TXT","content":"\"updated\"","updated_at":"2020-03-20T21:55:27+00:00","ttl":86400,"priority":null},{"id":4291247,"name":"updated.testfqdn.lexicon.tests","type":"TXT","content":"\"challengetoken\"","updated_at":"2020-03-20T21:44:52+00:00","ttl":86400,"priority":null},{"id":4291250,"name":"updated.testfull.lexicon.tests","type":"TXT","content":"\"challengetoken\"","updated_at":"2020-03-20T21:44:54+00:00","ttl":86400,"priority":null}],"meta":{"pagination":{"total":24,"count":10,"per_page":10,"current_page":2,"total_pages":3,"links":{"first":"https:\/\/api.ukfast.io\/safedns\/v1\/zones\/lexicon.tests\/records?page=1","previous":"https:\/\/api.ukfast.io\/safedns\/v1\/zones\/lexicon.tests\/records?page=1","next":"https:\/\/api.ukfast.io\/safedns\/v1\/zones\/lexicon.tests\/records?page=3","last":"https:\/\/api.ukfast.io\/safedns\/v1\/zones\/lexicon.tests\/records?page=3"}}}}'
    headers:
      access-control-allow-origin:
      - https://developers.ukfast.io
      cache-control:
      - no-cache, private
      content-length:
      - '2164'
      content-type:
      - application/json
      date:
      - Fri, 20 Mar 2020 22:01:52 GMT
      request-id:
      - e876abdf-9cf4-4b2b-8809-06ae93fc649b
      server:
      - UKFast Web Services
      transfer-encoding:
      - chunked
      vary:
      - Accept-Encoding
      - Origin
    status:
      code: 200
      message: OK
- request:
    body: !!python/unicode '{}'
    headers:
      Accept:
      - application/json
      Accept-Encoding:
      - gzip, deflate
      Connection:
      - keep-alive
      Content-Length:
      - '2'
      Content-Type:
      - application/json
      User-Agent:
      - python-requests/2.23.0
    method: GET
    uri: https://api.ukfast.io/safedns/v1/zones/lexicon.tests/records?page=3
  response:
    body:
      string: !!python/unicode '{"data":[{"id":4291274,"name":"updated.test.lexicon.tests","type":"TXT","content":"\"challengetoken\"","updated_at":"2020-03-20T21:55:25+00:00","ttl":86400,"priority":null},{"id":4291277,"name":"orig.nameonly.test.lexicon.tests","type":"TXT","content":"\"challengetoken\"","updated_at":"2020-03-20T21:55:26+00:00","ttl":86400,"priority":null},{"id":4291280,"name":"updated.testfqdn.lexicon.tests","type":"TXT","content":"\"challengetoken\"","updated_at":"2020-03-20T21:55:29+00:00","ttl":86400,"priority":null},{"id":4291283,"name":"updated.testfull.lexicon.tests","type":"TXT","content":"\"challengetoken\"","updated_at":"2020-03-20T21:55:31+00:00","ttl":86400,"priority":null}],"meta":{"pagination":{"total":24,"count":4,"per_page":10,"current_page":3,"total_pages":3,"links":{"first":"https:\/\/api.ukfast.io\/safedns\/v1\/zones\/lexicon.tests\/records?page=1","previous":"https:\/\/api.ukfast.io\/safedns\/v1\/zones\/lexicon.tests\/records?page=2","next":null,"last":"https:\/\/api.ukfast.io\/safedns\/v1\/zones\/lexicon.tests\/records?page=3"}}}}'
    headers:
      access-control-allow-origin:
      - https://developers.ukfast.io
      cache-control:
      - no-cache, private
      content-length:
      - '1051'
      content-type:
      - application/json
      date:
      - Fri, 20 Mar 2020 22:01:52 GMT
      request-id:
      - 221ee171-7898-461b-8ed6-e271763cc1b4
      server:
      - UKFast Web Services
      transfer-encoding:
      - chunked
      vary:
      - Accept-Encoding
      - Origin
    status:
      code: 200
      message: OK
- request:
    body: !!python/unicode '{"content": "\"challengetoken\"", "type": "TXT", "name":
      "delete.testfilt.lexicon.tests"}'
    headers:
      Accept:
      - application/json
      Accept-Encoding:
      - gzip, deflate
      Connection:
      - keep-alive
      Content-Length:
      - '89'
      Content-Type:
      - application/json
      User-Agent:
      - python-requests/2.23.0
    method: POST
    uri: https://api.ukfast.io/safedns/v1/zones/lexicon.tests/records
  response:
    body:
      string: !!python/unicode '{"data":{"id":4291286},"meta":{"location":"https:\/\/api.ukfast.io\/safedns\/v1\/zones\/lexicon.tests\/records\/4291286"}}'
    headers:
      access-control-allow-origin:
      - https://developers.ukfast.io
      cache-control:
      - no-cache, private
      content-type:
      - application/json
      date:
      - Fri, 20 Mar 2020 22:01:53 GMT
      request-id:
      - d9deca41-fe0b-47cb-ada4-13525f3aed7e
      server:
      - UKFast Web Services
      transfer-encoding:
      - chunked
      vary:
      - Origin
    status:
      code: 201
      message: Created
- request:
    body: !!python/unicode '{}'
    headers:
      Accept:
      - application/json
      Accept-Encoding:
      - gzip, deflate
      Connection:
      - keep-alive
      Content-Length:
      - '2'
      Content-Type:
      - application/json
      User-Agent:
      - python-requests/2.23.0
    method: GET
    uri: https://api.ukfast.io/safedns/v1/zones/lexicon.tests/records
  response:
    body:
      string: !!python/unicode '{"data":[{"id":4291172,"name":"lexicon.tests","type":"SOA","content":"ns0.ukfast.net
        support@ukfast.co.uk 2020032002 300 300 300 300","updated_at":"2020-03-20T21:43:19+00:00","ttl":300,"priority":null},{"id":4291175,"name":"lexicon.tests","type":"NS","content":"ns0.ukfast.net","updated_at":"2020-03-20T21:43:19+00:00","ttl":300,"priority":null},{"id":4291178,"name":"lexicon.tests","type":"NS","content":"ns1.ukfast.net","updated_at":"2020-03-20T21:43:19+00:00","ttl":300,"priority":null},{"id":4291181,"name":"localhost.lexicon.tests","type":"A","content":"127.0.0.1","updated_at":"2020-03-20T21:44:28+00:00","ttl":86400,"priority":null},{"id":4291184,"name":"_acme-challenge.fqdn.lexicon.tests","type":"TXT","content":"\"challengetoken\"","updated_at":"2020-03-20T21:44:29+00:00","ttl":86400,"priority":null},{"id":4291187,"name":"_acme-challenge.full.lexicon.tests","type":"TXT","content":"\"challengetoken\"","updated_at":"2020-03-20T21:44:29+00:00","ttl":86400,"priority":null},{"id":4291190,"name":"_acme-challenge.test.lexicon.tests","type":"TXT","content":"\"challengetoken\"","updated_at":"2020-03-20T21:44:30+00:00","ttl":86400,"priority":null},{"id":4291193,"name":"_acme-challenge.createrecordset.lexicon.tests","type":"TXT","content":"\"challengetoken1\"","updated_at":"2020-03-20T21:44:30+00:00","ttl":86400,"priority":null},{"id":4291196,"name":"_acme-challenge.createrecordset.lexicon.tests","type":"TXT","content":"\"challengetoken2\"","updated_at":"2020-03-20T21:44:31+00:00","ttl":86400,"priority":null},{"id":4291199,"name":"_acme-challenge.noop.lexicon.tests","type":"TXT","content":"\"challengetoken\"","updated_at":"2020-03-20T21:44:31+00:00","ttl":86400,"priority":null}],"meta":{"pagination":{"total":25,"count":10,"per_page":10,"current_page":1,"total_pages":3,"links":{"first":"https:\/\/api.ukfast.io\/safedns\/v1\/zones\/lexicon.tests\/records?page=1","previous":null,"next":"https:\/\/api.ukfast.io\/safedns\/v1\/zones\/lexicon.tests\/records?page=2","last":"https:\/\/api.ukfast.io\/safedns\/v1\/zones\/lexicon.tests\/records?page=3"}}}}'
    headers:
      access-control-allow-origin:
      - https://developers.ukfast.io
      cache-control:
      - no-cache, private
      content-length:
      - '2067'
      content-type:
      - application/json
      date:
      - Fri, 20 Mar 2020 22:01:53 GMT
      request-id:
      - 6de469a0-fd1e-4aab-bee8-f813a3d6fce9
      server:
      - UKFast Web Services
      transfer-encoding:
      - chunked
      vary:
      - Accept-Encoding
      - Origin
    status:
      code: 200
      message: OK
- request:
    body: !!python/unicode '{}'
    headers:
      Accept:
      - application/json
      Accept-Encoding:
      - gzip, deflate
      Connection:
      - keep-alive
      Content-Length:
      - '2'
      Content-Type:
      - application/json
      User-Agent:
      - python-requests/2.23.0
    method: GET
    uri: https://api.ukfast.io/safedns/v1/zones/lexicon.tests/records?page=2
  response:
    body:
      string: !!python/unicode '{"data":[{"id":4291217,"name":"_acme-challenge.deleterecordinset.lexicon.tests","type":"TXT","content":"\"challengetoken2\"","updated_at":"2020-03-20T21:44:38+00:00","ttl":86400,"priority":null},{"id":4291226,"name":"_acme-challenge.listrecordset.lexicon.tests","type":"TXT","content":"\"challengetoken1\"","updated_at":"2020-03-20T21:44:42+00:00","ttl":86400,"priority":null},{"id":4291229,"name":"_acme-challenge.listrecordset.lexicon.tests","type":"TXT","content":"\"challengetoken2\"","updated_at":"2020-03-20T21:44:43+00:00","ttl":86400,"priority":null},{"id":4291232,"name":"random.fqdntest.lexicon.tests","type":"TXT","content":"\"challengetoken\"","updated_at":"2020-03-20T21:44:44+00:00","ttl":86400,"priority":null},{"id":4291235,"name":"random.fulltest.lexicon.tests","type":"TXT","content":"\"challengetoken\"","updated_at":"2020-03-20T21:44:45+00:00","ttl":86400,"priority":null},{"id":4291238,"name":"random.test.lexicon.tests","type":"TXT","content":"\"challengetoken\"","updated_at":"2020-03-20T21:44:46+00:00","ttl":86400,"priority":null},{"id":4291241,"name":"updated.test.lexicon.tests","type":"TXT","content":"\"challengetoken\"","updated_at":"2020-03-20T21:44:49+00:00","ttl":86400,"priority":null},{"id":4291244,"name":"orig.nameonly.test.lexicon.tests","type":"TXT","content":"\"updated\"","updated_at":"2020-03-20T21:55:27+00:00","ttl":86400,"priority":null},{"id":4291247,"name":"updated.testfqdn.lexicon.tests","type":"TXT","content":"\"challengetoken\"","updated_at":"2020-03-20T21:44:52+00:00","ttl":86400,"priority":null},{"id":4291250,"name":"updated.testfull.lexicon.tests","type":"TXT","content":"\"challengetoken\"","updated_at":"2020-03-20T21:44:54+00:00","ttl":86400,"priority":null}],"meta":{"pagination":{"total":25,"count":10,"per_page":10,"current_page":2,"total_pages":3,"links":{"first":"https:\/\/api.ukfast.io\/safedns\/v1\/zones\/lexicon.tests\/records?page=1","previous":"https:\/\/api.ukfast.io\/safedns\/v1\/zones\/lexicon.tests\/records?page=1","next":"https:\/\/api.ukfast.io\/safedns\/v1\/zones\/lexicon.tests\/records?page=3","last":"https:\/\/api.ukfast.io\/safedns\/v1\/zones\/lexicon.tests\/records?page=3"}}}}'
    headers:
      access-control-allow-origin:
      - https://developers.ukfast.io
      cache-control:
      - no-cache, private
      content-length:
      - '2164'
      content-type:
      - application/json
      date:
      - Fri, 20 Mar 2020 22:01:53 GMT
      request-id:
      - 5f030b1a-24b6-4669-a7b6-7ff3d1890d66
      server:
      - UKFast Web Services
      transfer-encoding:
      - chunked
      vary:
      - Accept-Encoding
      - Origin
    status:
      code: 200
      message: OK
- request:
    body: !!python/unicode '{}'
    headers:
      Accept:
      - application/json
      Accept-Encoding:
      - gzip, deflate
      Connection:
      - keep-alive
      Content-Length:
      - '2'
      Content-Type:
      - application/json
      User-Agent:
      - python-requests/2.23.0
    method: GET
    uri: https://api.ukfast.io/safedns/v1/zones/lexicon.tests/records?page=3
  response:
    body:
      string: !!python/unicode '{"data":[{"id":4291274,"name":"updated.test.lexicon.tests","type":"TXT","content":"\"challengetoken\"","updated_at":"2020-03-20T21:55:25+00:00","ttl":86400,"priority":null},{"id":4291277,"name":"orig.nameonly.test.lexicon.tests","type":"TXT","content":"\"challengetoken\"","updated_at":"2020-03-20T21:55:26+00:00","ttl":86400,"priority":null},{"id":4291280,"name":"updated.testfqdn.lexicon.tests","type":"TXT","content":"\"challengetoken\"","updated_at":"2020-03-20T21:55:29+00:00","ttl":86400,"priority":null},{"id":4291283,"name":"updated.testfull.lexicon.tests","type":"TXT","content":"\"challengetoken\"","updated_at":"2020-03-20T21:55:31+00:00","ttl":86400,"priority":null},{"id":4291286,"name":"delete.testfilt.lexicon.tests","type":"TXT","content":"\"challengetoken\"","updated_at":"2020-03-20T22:01:53+00:00","ttl":86400,"priority":null}],"meta":{"pagination":{"total":25,"count":5,"per_page":10,"current_page":3,"total_pages":3,"links":{"first":"https:\/\/api.ukfast.io\/safedns\/v1\/zones\/lexicon.tests\/records?page=1","previous":"https:\/\/api.ukfast.io\/safedns\/v1\/zones\/lexicon.tests\/records?page=2","next":null,"last":"https:\/\/api.ukfast.io\/safedns\/v1\/zones\/lexicon.tests\/records?page=3"}}}}'
    headers:
      access-control-allow-origin:
      - https://developers.ukfast.io
      cache-control:
      - no-cache, private
      content-length:
      - '1218'
      content-type:
      - application/json
      date:
      - Fri, 20 Mar 2020 22:01:53 GMT
      request-id:
      - d63a62a4-db7e-4a8f-b936-2cfdca68a8a4
      server:
      - UKFast Web Services
      transfer-encoding:
      - chunked
      vary:
      - Accept-Encoding
      - Origin
    status:
      code: 200
      message: OK
- request:
    body: !!python/unicode '{}'
    headers:
      Accept:
      - application/json
      Accept-Encoding:
      - gzip, deflate
      Connection:
      - keep-alive
      Content-Length:
      - '2'
      Content-Type:
      - application/json
      User-Agent:
      - python-requests/2.23.0
    method: DELETE
    uri: https://api.ukfast.io/safedns/v1/zones/lexicon.tests/records/4291286
  response:
    body:
      string: !!python/unicode ''
    headers:
      access-control-allow-origin:
      - https://developers.ukfast.io
      cache-control:
      - no-cache, private
      date:
      - Fri, 20 Mar 2020 22:01:54 GMT
      request-id:
      - 1ef7e839-dd93-4ca3-bbd3-b18a4fbbf642
      server:
      - UKFast Web Services
      vary:
      - Origin
    status:
      code: 204
      message: No Content
- request:
    body: !!python/unicode '{}'
    headers:
      Accept:
      - application/json
      Accept-Encoding:
      - gzip, deflate
      Connection:
      - keep-alive
      Content-Length:
      - '2'
      Content-Type:
      - application/json
      User-Agent:
      - python-requests/2.23.0
    method: GET
    uri: https://api.ukfast.io/safedns/v1/zones/lexicon.tests/records
  response:
    body:
      string: !!python/unicode '{"data":[{"id":4291172,"name":"lexicon.tests","type":"SOA","content":"ns0.ukfast.net
        support@ukfast.co.uk 2020032002 300 300 300 300","updated_at":"2020-03-20T21:43:19+00:00","ttl":300,"priority":null},{"id":4291175,"name":"lexicon.tests","type":"NS","content":"ns0.ukfast.net","updated_at":"2020-03-20T21:43:19+00:00","ttl":300,"priority":null},{"id":4291178,"name":"lexicon.tests","type":"NS","content":"ns1.ukfast.net","updated_at":"2020-03-20T21:43:19+00:00","ttl":300,"priority":null},{"id":4291181,"name":"localhost.lexicon.tests","type":"A","content":"127.0.0.1","updated_at":"2020-03-20T21:44:28+00:00","ttl":86400,"priority":null},{"id":4291184,"name":"_acme-challenge.fqdn.lexicon.tests","type":"TXT","content":"\"challengetoken\"","updated_at":"2020-03-20T21:44:29+00:00","ttl":86400,"priority":null},{"id":4291187,"name":"_acme-challenge.full.lexicon.tests","type":"TXT","content":"\"challengetoken\"","updated_at":"2020-03-20T21:44:29+00:00","ttl":86400,"priority":null},{"id":4291190,"name":"_acme-challenge.test.lexicon.tests","type":"TXT","content":"\"challengetoken\"","updated_at":"2020-03-20T21:44:30+00:00","ttl":86400,"priority":null},{"id":4291193,"name":"_acme-challenge.createrecordset.lexicon.tests","type":"TXT","content":"\"challengetoken1\"","updated_at":"2020-03-20T21:44:30+00:00","ttl":86400,"priority":null},{"id":4291196,"name":"_acme-challenge.createrecordset.lexicon.tests","type":"TXT","content":"\"challengetoken2\"","updated_at":"2020-03-20T21:44:31+00:00","ttl":86400,"priority":null},{"id":4291199,"name":"_acme-challenge.noop.lexicon.tests","type":"TXT","content":"\"challengetoken\"","updated_at":"2020-03-20T21:44:31+00:00","ttl":86400,"priority":null}],"meta":{"pagination":{"total":24,"count":10,"per_page":10,"current_page":1,"total_pages":3,"links":{"first":"https:\/\/api.ukfast.io\/safedns\/v1\/zones\/lexicon.tests\/records?page=1","previous":null,"next":"https:\/\/api.ukfast.io\/safedns\/v1\/zones\/lexicon.tests\/records?page=2","last":"https:\/\/api.ukfast.io\/safedns\/v1\/zones\/lexicon.tests\/records?page=3"}}}}'
    headers:
      access-control-allow-origin:
      - https://developers.ukfast.io
      cache-control:
      - no-cache, private
      content-length:
      - '2067'
      content-type:
      - application/json
      date:
      - Fri, 20 Mar 2020 22:01:54 GMT
      request-id:
      - 33ec2bdc-6ad5-476d-ae4b-d7adeb9e16ac
      server:
      - UKFast Web Services
      transfer-encoding:
      - chunked
      vary:
      - Accept-Encoding
      - Origin
    status:
      code: 200
      message: OK
- request:
    body: !!python/unicode '{}'
    headers:
      Accept:
      - application/json
      Accept-Encoding:
      - gzip, deflate
      Connection:
      - keep-alive
      Content-Length:
      - '2'
      Content-Type:
      - application/json
      User-Agent:
      - python-requests/2.23.0
    method: GET
    uri: https://api.ukfast.io/safedns/v1/zones/lexicon.tests/records?page=2
  response:
    body:
      string: !!python/unicode '{"data":[{"id":4291217,"name":"_acme-challenge.deleterecordinset.lexicon.tests","type":"TXT","content":"\"challengetoken2\"","updated_at":"2020-03-20T21:44:38+00:00","ttl":86400,"priority":null},{"id":4291226,"name":"_acme-challenge.listrecordset.lexicon.tests","type":"TXT","content":"\"challengetoken1\"","updated_at":"2020-03-20T21:44:42+00:00","ttl":86400,"priority":null},{"id":4291229,"name":"_acme-challenge.listrecordset.lexicon.tests","type":"TXT","content":"\"challengetoken2\"","updated_at":"2020-03-20T21:44:43+00:00","ttl":86400,"priority":null},{"id":4291232,"name":"random.fqdntest.lexicon.tests","type":"TXT","content":"\"challengetoken\"","updated_at":"2020-03-20T21:44:44+00:00","ttl":86400,"priority":null},{"id":4291235,"name":"random.fulltest.lexicon.tests","type":"TXT","content":"\"challengetoken\"","updated_at":"2020-03-20T21:44:45+00:00","ttl":86400,"priority":null},{"id":4291238,"name":"random.test.lexicon.tests","type":"TXT","content":"\"challengetoken\"","updated_at":"2020-03-20T21:44:46+00:00","ttl":86400,"priority":null},{"id":4291241,"name":"updated.test.lexicon.tests","type":"TXT","content":"\"challengetoken\"","updated_at":"2020-03-20T21:44:49+00:00","ttl":86400,"priority":null},{"id":4291244,"name":"orig.nameonly.test.lexicon.tests","type":"TXT","content":"\"updated\"","updated_at":"2020-03-20T21:55:27+00:00","ttl":86400,"priority":null},{"id":4291247,"name":"updated.testfqdn.lexicon.tests","type":"TXT","content":"\"challengetoken\"","updated_at":"2020-03-20T21:44:52+00:00","ttl":86400,"priority":null},{"id":4291250,"name":"updated.testfull.lexicon.tests","type":"TXT","content":"\"challengetoken\"","updated_at":"2020-03-20T21:44:54+00:00","ttl":86400,"priority":null}],"meta":{"pagination":{"total":24,"count":10,"per_page":10,"current_page":2,"total_pages":3,"links":{"first":"https:\/\/api.ukfast.io\/safedns\/v1\/zones\/lexicon.tests\/records?page=1","previous":"https:\/\/api.ukfast.io\/safedns\/v1\/zones\/lexicon.tests\/records?page=1","next":"https:\/\/api.ukfast.io\/safedns\/v1\/zones\/lexicon.tests\/records?page=3","last":"https:\/\/api.ukfast.io\/safedns\/v1\/zones\/lexicon.tests\/records?page=3"}}}}'
    headers:
      access-control-allow-origin:
      - https://developers.ukfast.io
      cache-control:
      - no-cache, private
      content-length:
      - '2164'
      content-type:
      - application/json
      date:
      - Fri, 20 Mar 2020 22:01:54 GMT
      request-id:
      - 51e5e290-6d9c-486f-bb9f-eeed90949cc1
      server:
      - UKFast Web Services
      transfer-encoding:
      - chunked
      vary:
      - Accept-Encoding
      - Origin
    status:
      code: 200
      message: OK
- request:
    body: !!python/unicode '{}'
    headers:
      Accept:
      - application/json
      Accept-Encoding:
      - gzip, deflate
      Connection:
      - keep-alive
      Content-Length:
      - '2'
      Content-Type:
      - application/json
      User-Agent:
      - python-requests/2.23.0
    method: GET
    uri: https://api.ukfast.io/safedns/v1/zones/lexicon.tests/records?page=3
  response:
    body:
      string: !!python/unicode '{"data":[{"id":4291274,"name":"updated.test.lexicon.tests","type":"TXT","content":"\"challengetoken\"","updated_at":"2020-03-20T21:55:25+00:00","ttl":86400,"priority":null},{"id":4291277,"name":"orig.nameonly.test.lexicon.tests","type":"TXT","content":"\"challengetoken\"","updated_at":"2020-03-20T21:55:26+00:00","ttl":86400,"priority":null},{"id":4291280,"name":"updated.testfqdn.lexicon.tests","type":"TXT","content":"\"challengetoken\"","updated_at":"2020-03-20T21:55:29+00:00","ttl":86400,"priority":null},{"id":4291283,"name":"updated.testfull.lexicon.tests","type":"TXT","content":"\"challengetoken\"","updated_at":"2020-03-20T21:55:31+00:00","ttl":86400,"priority":null}],"meta":{"pagination":{"total":24,"count":4,"per_page":10,"current_page":3,"total_pages":3,"links":{"first":"https:\/\/api.ukfast.io\/safedns\/v1\/zones\/lexicon.tests\/records?page=1","previous":"https:\/\/api.ukfast.io\/safedns\/v1\/zones\/lexicon.tests\/records?page=2","next":null,"last":"https:\/\/api.ukfast.io\/safedns\/v1\/zones\/lexicon.tests\/records?page=3"}}}}'
    headers:
      access-control-allow-origin:
      - https://developers.ukfast.io
      cache-control:
      - no-cache, private
      content-length:
      - '1051'
      content-type:
      - application/json
      date:
      - Fri, 20 Mar 2020 22:01:54 GMT
      request-id:
      - fb80cb98-eb93-4f8e-af5b-5e47dfdc59ea
      server:
      - UKFast Web Services
      transfer-encoding:
      - chunked
      vary:
      - Accept-Encoding
      - Origin
    status:
      code: 200
      message: OK
version: 1
