interactions:
- request:
    body: !!python/unicode '{}'
    headers:
      Accept:
      - application/json
      Accept-Encoding:
      - gzip, deflate
      Connection:
      - keep-alive
      Content-Length:
      - '2'
      Content-Type:
      - application/json
      User-Agent:
      - python-requests/2.22.0
    method: GET
    uri: https://api.ukfast.io/safedns/v1/zones/tests.lexicon.com
  response:
    body:
      string: !!python/unicode '{"data":{"name":"tests.lexicon.com","description":"Lexicon
        Test zone"},"meta":{}}'
    headers:
      access-control-allow-origin:
      - https://developers.ukfast.io
      cache-control:
      - no-cache, private
      connection:
      - close
      content-length:
      - '81'
      content-type:
      - application/json
      date:
      - Wed, 19 Jun 2019 19:05:19 GMT
      request-id:
      - c067aaef-31e4-4c40-b4f9-cc04e630377b
      server:
      - UKFast Web Services
      transfer-encoding:
      - chunked
      vary:
      - Origin
    status:
      code: 200
      message: OK
- request:
    body: !!python/unicode '{}'
    headers:
      Accept:
      - application/json
      Accept-Encoding:
      - gzip, deflate
      Connection:
      - keep-alive
      Content-Length:
      - '2'
      Content-Type:
      - application/json
      User-Agent:
      - python-requests/2.22.0
    method: GET
    uri: https://api.ukfast.io/safedns/v1/zones/tests.lexicon.com/records
  response:
    body:
      string: !!python/unicode '{"data":[{"id":3466895,"name":"localhost.tests.lexicon.com","type":"A","content":"127.0.0.1","updated_at":"2019-06-03T07:19:16+00:00","ttl":86400,"priority":0},{"id":3836012,"name":"tests.lexicon.com","type":"NS","content":"ns0.ukfast.net","updated_at":"2019-06-19T17:20:09+00:00","ttl":86400,"priority":0},{"id":3836015,"name":"tests.lexicon.com","type":"NS","content":"ns1.ukfast.net","updated_at":"2019-06-19T17:20:09+00:00","ttl":86400,"priority":0},{"id":3836525,"name":"_acme-challenge.fqdn.tests.lexicon.com","type":"TXT","content":"\"challengetoken\"","updated_at":"2019-06-19T18:57:46+00:00","ttl":86400,"priority":0},{"id":3836528,"name":"_acme-challenge.full.tests.lexicon.com","type":"TXT","content":"\"challengetoken\"","updated_at":"2019-06-19T18:57:47+00:00","ttl":86400,"priority":0},{"id":3836531,"name":"_acme-challenge.test.tests.lexicon.com","type":"TXT","content":"\"challengetoken\"","updated_at":"2019-06-19T18:57:48+00:00","ttl":86400,"priority":0},{"id":3836534,"name":"_acme-challenge.createrecordset.tests.lexicon.com","type":"TXT","content":"\"challengetoken1\"","updated_at":"2019-06-19T18:57:49+00:00","ttl":86400,"priority":0},{"id":3836537,"name":"_acme-challenge.createrecordset.tests.lexicon.com","type":"TXT","content":"\"challengetoken2\"","updated_at":"2019-06-19T18:57:50+00:00","ttl":86400,"priority":0},{"id":3836540,"name":"_acme-challenge.noop.tests.lexicon.com","type":"TXT","content":"\"challengetoken\"","updated_at":"2019-06-19T18:57:51+00:00","ttl":86400,"priority":0},{"id":3836558,"name":"_acme-challenge.deleterecordinset.tests.lexicon.com","type":"TXT","content":"\"challengetoken2\"","updated_at":"2019-06-19T18:58:00+00:00","ttl":86400,"priority":0}],"meta":{"pagination":{"total":23,"count":10,"per_page":10,"current_page":1,"total_pages":3,"links":{"next":"https:\/\/api.ukfast.io\/safedns\/v1\/zones\/tests.lexicon.com\/records?page=2","last":"https:\/\/api.ukfast.io\/safedns\/v1\/zones\/tests.lexicon.com\/records?page=3"}}}}'
    headers:
      access-control-allow-origin:
      - https://developers.ukfast.io
      cache-control:
      - no-cache, private
      connection:
      - close
      content-length:
      - '1983'
      content-type:
      - application/json
      date:
      - Wed, 19 Jun 2019 19:05:19 GMT
      request-id:
      - 87762a22-92d0-4846-98d1-704c3b93167e
      server:
      - UKFast Web Services
      transfer-encoding:
      - chunked
      vary:
      - Origin
    status:
      code: 200
      message: OK
- request:
    body: !!python/unicode '{}'
    headers:
      Accept:
      - application/json
      Accept-Encoding:
      - gzip, deflate
      Connection:
      - keep-alive
      Content-Length:
      - '2'
      Content-Type:
      - application/json
      User-Agent:
      - python-requests/2.22.0
    method: GET
    uri: https://api.ukfast.io/safedns/v1/zones/tests.lexicon.com/records?page=2
  response:
    body:
      string: !!python/unicode '{"data":[{"id":3836567,"name":"_acme-challenge.listrecordset.tests.lexicon.com","type":"TXT","content":"\"challengetoken1\"","updated_at":"2019-06-19T18:58:06+00:00","ttl":86400,"priority":0},{"id":3836570,"name":"_acme-challenge.listrecordset.tests.lexicon.com","type":"TXT","content":"\"challengetoken2\"","updated_at":"2019-06-19T18:58:07+00:00","ttl":86400,"priority":0},{"id":3836573,"name":"random.fqdntest.tests.lexicon.com","type":"TXT","content":"\"challengetoken\"","updated_at":"2019-06-19T18:58:09+00:00","ttl":86400,"priority":0},{"id":3836576,"name":"random.fulltest.tests.lexicon.com","type":"TXT","content":"\"challengetoken\"","updated_at":"2019-06-19T18:58:10+00:00","ttl":86400,"priority":0},{"id":3836579,"name":"random.test.tests.lexicon.com","type":"TXT","content":"\"challengetoken\"","updated_at":"2019-06-19T18:58:13+00:00","ttl":86400,"priority":0},{"id":3836582,"name":"updated.test.tests.lexicon.com","type":"TXT","content":"\"challengetoken\"","updated_at":"2019-06-19T18:58:17+00:00","ttl":86400,"priority":0},{"id":3836585,"name":"orig.nameonly.test.tests.lexicon.com","type":"TXT","content":"\"updated\"","updated_at":"2019-06-19T18:58:20+00:00","ttl":86400,"priority":0},{"id":3836588,"name":"updated.testfqdn.tests.lexicon.com","type":"TXT","content":"\"challengetoken\"","updated_at":"2019-06-19T18:58:23+00:00","ttl":86400,"priority":0},{"id":3836591,"name":"updated.testfull.tests.lexicon.com","type":"TXT","content":"\"challengetoken\"","updated_at":"2019-06-19T18:58:26+00:00","ttl":86400,"priority":0},{"id":3836630,"name":"orig.test.tests.lexicon.com","type":"TXT","content":"\"challengetoken\"","updated_at":"2019-06-19T19:00:42+00:00","ttl":86400,"priority":0}],"meta":{"pagination":{"total":23,"count":10,"per_page":10,"current_page":2,"total_pages":3,"links":{"first":"https:\/\/api.ukfast.io\/safedns\/v1\/zones\/tests.lexicon.com\/records?page=1","previous":"https:\/\/api.ukfast.io\/safedns\/v1\/zones\/tests.lexicon.com\/records?page=1","next":"https:\/\/api.ukfast.io\/safedns\/v1\/zones\/tests.lexicon.com\/records?page=3","last":"https:\/\/api.ukfast.io\/safedns\/v1\/zones\/tests.lexicon.com\/records?page=3"}}}}'
    headers:
      access-control-allow-origin:
      - https://developers.ukfast.io
      cache-control:
      - no-cache, private
      connection:
      - close
      content-length:
      - '2165'
      content-type:
      - application/json
      date:
      - Wed, 19 Jun 2019 19:05:20 GMT
      request-id:
      - 47269bf0-01d4-4589-b7dc-b3b309159ec2
      server:
      - UKFast Web Services
      transfer-encoding:
      - chunked
      vary:
      - Origin
    status:
      code: 200
      message: OK
- request:
    body: !!python/unicode '{}'
    headers:
      Accept:
      - application/json
      Accept-Encoding:
      - gzip, deflate
      Connection:
      - keep-alive
      Content-Length:
      - '2'
      Content-Type:
      - application/json
      User-Agent:
      - python-requests/2.22.0
    method: GET
    uri: https://api.ukfast.io/safedns/v1/zones/tests.lexicon.com/records?page=3
  response:
    body:
      string: !!python/unicode '{"data":[{"id":3836675,"name":"orig.nameonly.test.tests.lexicon.com","type":"TXT","content":"\"challengetoken\"","updated_at":"2019-06-19T19:03:50+00:00","ttl":86400,"priority":0},{"id":3836678,"name":"orig.testfqdn.tests.lexicon.com","type":"TXT","content":"\"challengetoken\"","updated_at":"2019-06-19T19:03:52+00:00","ttl":86400,"priority":0},{"id":3836681,"name":"orig.testfull.tests.lexicon.com","type":"TXT","content":"\"challengetoken\"","updated_at":"2019-06-19T19:03:56+00:00","ttl":86400,"priority":0}],"meta":{"pagination":{"total":23,"count":3,"per_page":10,"current_page":3,"total_pages":3,"links":{"first":"https:\/\/api.ukfast.io\/safedns\/v1\/zones\/tests.lexicon.com\/records?page=1","previous":"https:\/\/api.ukfast.io\/safedns\/v1\/zones\/tests.lexicon.com\/records?page=2"}}}}'
    headers:
      access-control-allow-origin:
      - https://developers.ukfast.io
      cache-control:
      - no-cache, private
      connection:
      - close
      content-length:
      - '796'
      content-type:
      - application/json
      date:
      - Wed, 19 Jun 2019 19:05:20 GMT
      request-id:
      - 9251759a-f256-4b17-84eb-4bee647e5a7c
      server:
      - UKFast Web Services
      transfer-encoding:
      - chunked
      vary:
      - Origin
    status:
      code: 200
      message: OK
- request:
    body: !!python/unicode '{}'
    headers:
      Accept:
      - application/json
      Accept-Encoding:
      - gzip, deflate
      Connection:
      - keep-alive
      Content-Length:
      - '2'
      Content-Type:
      - application/json
      User-Agent:
      - python-requests/2.22.0
    method: GET
    uri: https://api.ukfast.io/safedns/v1/zones/tests.lexicon.com/records
  response:
    body:
      string: !!python/unicode '{"data":[{"id":3466895,"name":"localhost.tests.lexicon.com","type":"A","content":"127.0.0.1","updated_at":"2019-06-03T07:19:16+00:00","ttl":86400,"priority":0},{"id":3836012,"name":"tests.lexicon.com","type":"NS","content":"ns0.ukfast.net","updated_at":"2019-06-19T17:20:09+00:00","ttl":86400,"priority":0},{"id":3836015,"name":"tests.lexicon.com","type":"NS","content":"ns1.ukfast.net","updated_at":"2019-06-19T17:20:09+00:00","ttl":86400,"priority":0},{"id":3836525,"name":"_acme-challenge.fqdn.tests.lexicon.com","type":"TXT","content":"\"challengetoken\"","updated_at":"2019-06-19T18:57:46+00:00","ttl":86400,"priority":0},{"id":3836528,"name":"_acme-challenge.full.tests.lexicon.com","type":"TXT","content":"\"challengetoken\"","updated_at":"2019-06-19T18:57:47+00:00","ttl":86400,"priority":0},{"id":3836531,"name":"_acme-challenge.test.tests.lexicon.com","type":"TXT","content":"\"challengetoken\"","updated_at":"2019-06-19T18:57:48+00:00","ttl":86400,"priority":0},{"id":3836534,"name":"_acme-challenge.createrecordset.tests.lexicon.com","type":"TXT","content":"\"challengetoken1\"","updated_at":"2019-06-19T18:57:49+00:00","ttl":86400,"priority":0},{"id":3836537,"name":"_acme-challenge.createrecordset.tests.lexicon.com","type":"TXT","content":"\"challengetoken2\"","updated_at":"2019-06-19T18:57:50+00:00","ttl":86400,"priority":0},{"id":3836540,"name":"_acme-challenge.noop.tests.lexicon.com","type":"TXT","content":"\"challengetoken\"","updated_at":"2019-06-19T18:57:51+00:00","ttl":86400,"priority":0},{"id":3836558,"name":"_acme-challenge.deleterecordinset.tests.lexicon.com","type":"TXT","content":"\"challengetoken2\"","updated_at":"2019-06-19T18:58:00+00:00","ttl":86400,"priority":0}],"meta":{"pagination":{"total":23,"count":10,"per_page":10,"current_page":1,"total_pages":3,"links":{"next":"https:\/\/api.ukfast.io\/safedns\/v1\/zones\/tests.lexicon.com\/records?page=2","last":"https:\/\/api.ukfast.io\/safedns\/v1\/zones\/tests.lexicon.com\/records?page=3"}}}}'
    headers:
      access-control-allow-origin:
      - https://developers.ukfast.io
      cache-control:
      - no-cache, private
      connection:
      - close
      content-length:
      - '1983'
      content-type:
      - application/json
      date:
      - Wed, 19 Jun 2019 19:05:20 GMT
      request-id:
      - ae2ce1cc-5037-4a07-bcfc-82b4b00012f9
      server:
      - UKFast Web Services
      transfer-encoding:
      - chunked
      vary:
      - Origin
    status:
      code: 200
      message: OK
- request:
    body: !!python/unicode '{}'
    headers:
      Accept:
      - application/json
      Accept-Encoding:
      - gzip, deflate
      Connection:
      - keep-alive
      Content-Length:
      - '2'
      Content-Type:
      - application/json
      User-Agent:
      - python-requests/2.22.0
    method: GET
    uri: https://api.ukfast.io/safedns/v1/zones/tests.lexicon.com/records?page=2
  response:
    body:
      string: !!python/unicode '{"data":[{"id":3836567,"name":"_acme-challenge.listrecordset.tests.lexicon.com","type":"TXT","content":"\"challengetoken1\"","updated_at":"2019-06-19T18:58:06+00:00","ttl":86400,"priority":0},{"id":3836570,"name":"_acme-challenge.listrecordset.tests.lexicon.com","type":"TXT","content":"\"challengetoken2\"","updated_at":"2019-06-19T18:58:07+00:00","ttl":86400,"priority":0},{"id":3836573,"name":"random.fqdntest.tests.lexicon.com","type":"TXT","content":"\"challengetoken\"","updated_at":"2019-06-19T18:58:09+00:00","ttl":86400,"priority":0},{"id":3836576,"name":"random.fulltest.tests.lexicon.com","type":"TXT","content":"\"challengetoken\"","updated_at":"2019-06-19T18:58:10+00:00","ttl":86400,"priority":0},{"id":3836579,"name":"random.test.tests.lexicon.com","type":"TXT","content":"\"challengetoken\"","updated_at":"2019-06-19T18:58:13+00:00","ttl":86400,"priority":0},{"id":3836582,"name":"updated.test.tests.lexicon.com","type":"TXT","content":"\"challengetoken\"","updated_at":"2019-06-19T18:58:17+00:00","ttl":86400,"priority":0},{"id":3836585,"name":"orig.nameonly.test.tests.lexicon.com","type":"TXT","content":"\"updated\"","updated_at":"2019-06-19T18:58:20+00:00","ttl":86400,"priority":0},{"id":3836588,"name":"updated.testfqdn.tests.lexicon.com","type":"TXT","content":"\"challengetoken\"","updated_at":"2019-06-19T18:58:23+00:00","ttl":86400,"priority":0},{"id":3836591,"name":"updated.testfull.tests.lexicon.com","type":"TXT","content":"\"challengetoken\"","updated_at":"2019-06-19T18:58:26+00:00","ttl":86400,"priority":0},{"id":3836630,"name":"orig.test.tests.lexicon.com","type":"TXT","content":"\"challengetoken\"","updated_at":"2019-06-19T19:00:42+00:00","ttl":86400,"priority":0}],"meta":{"pagination":{"total":23,"count":10,"per_page":10,"current_page":2,"total_pages":3,"links":{"first":"https:\/\/api.ukfast.io\/safedns\/v1\/zones\/tests.lexicon.com\/records?page=1","previous":"https:\/\/api.ukfast.io\/safedns\/v1\/zones\/tests.lexicon.com\/records?page=1","next":"https:\/\/api.ukfast.io\/safedns\/v1\/zones\/tests.lexicon.com\/records?page=3","last":"https:\/\/api.ukfast.io\/safedns\/v1\/zones\/tests.lexicon.com\/records?page=3"}}}}'
    headers:
      access-control-allow-origin:
      - https://developers.ukfast.io
      cache-control:
      - no-cache, private
      connection:
      - close
      content-length:
      - '2165'
      content-type:
      - application/json
      date:
      - Wed, 19 Jun 2019 19:05:20 GMT
      request-id:
      - ee45d7f8-a5e4-4426-a6e2-b307c0401d68
      server:
      - UKFast Web Services
      transfer-encoding:
      - chunked
      vary:
      - Origin
    status:
      code: 200
      message: OK
- request:
    body: !!python/unicode '{}'
    headers:
      Accept:
      - application/json
      Accept-Encoding:
      - gzip, deflate
      Connection:
      - keep-alive
      Content-Length:
      - '2'
      Content-Type:
      - application/json
      User-Agent:
      - python-requests/2.22.0
    method: GET
    uri: https://api.ukfast.io/safedns/v1/zones/tests.lexicon.com/records?page=3
  response:
    body:
      string: !!python/unicode '{"data":[{"id":3836675,"name":"orig.nameonly.test.tests.lexicon.com","type":"TXT","content":"\"challengetoken\"","updated_at":"2019-06-19T19:03:50+00:00","ttl":86400,"priority":0},{"id":3836678,"name":"orig.testfqdn.tests.lexicon.com","type":"TXT","content":"\"challengetoken\"","updated_at":"2019-06-19T19:03:52+00:00","ttl":86400,"priority":0},{"id":3836681,"name":"orig.testfull.tests.lexicon.com","type":"TXT","content":"\"challengetoken\"","updated_at":"2019-06-19T19:03:56+00:00","ttl":86400,"priority":0}],"meta":{"pagination":{"total":23,"count":3,"per_page":10,"current_page":3,"total_pages":3,"links":{"first":"https:\/\/api.ukfast.io\/safedns\/v1\/zones\/tests.lexicon.com\/records?page=1","previous":"https:\/\/api.ukfast.io\/safedns\/v1\/zones\/tests.lexicon.com\/records?page=2"}}}}'
    headers:
      access-control-allow-origin:
      - https://developers.ukfast.io
      cache-control:
      - no-cache, private
      connection:
      - close
      content-length:
      - '796'
      content-type:
      - application/json
      date:
      - Wed, 19 Jun 2019 19:05:21 GMT
      request-id:
      - 93d6c42a-2263-455c-96ae-8fbe41023a19
      server:
      - UKFast Web Services
      transfer-encoding:
      - chunked
      vary:
      - Origin
    status:
      code: 200
      message: OK
- request:
    body: !!python/unicode '{}'
    headers:
      Accept:
      - application/json
      Accept-Encoding:
      - gzip, deflate
      Connection:
      - keep-alive
      Content-Length:
      - '2'
      Content-Type:
      - application/json
      User-Agent:
      - python-requests/2.22.0
    method: GET
    uri: https://api.ukfast.io/safedns/v1/zones/tests.lexicon.com/records
  response:
    body:
      string: !!python/unicode '{"data":[{"id":3466895,"name":"localhost.tests.lexicon.com","type":"A","content":"127.0.0.1","updated_at":"2019-06-03T07:19:16+00:00","ttl":86400,"priority":0},{"id":3836012,"name":"tests.lexicon.com","type":"NS","content":"ns0.ukfast.net","updated_at":"2019-06-19T17:20:09+00:00","ttl":86400,"priority":0},{"id":3836015,"name":"tests.lexicon.com","type":"NS","content":"ns1.ukfast.net","updated_at":"2019-06-19T17:20:09+00:00","ttl":86400,"priority":0},{"id":3836525,"name":"_acme-challenge.fqdn.tests.lexicon.com","type":"TXT","content":"\"challengetoken\"","updated_at":"2019-06-19T18:57:46+00:00","ttl":86400,"priority":0},{"id":3836528,"name":"_acme-challenge.full.tests.lexicon.com","type":"TXT","content":"\"challengetoken\"","updated_at":"2019-06-19T18:57:47+00:00","ttl":86400,"priority":0},{"id":3836531,"name":"_acme-challenge.test.tests.lexicon.com","type":"TXT","content":"\"challengetoken\"","updated_at":"2019-06-19T18:57:48+00:00","ttl":86400,"priority":0},{"id":3836534,"name":"_acme-challenge.createrecordset.tests.lexicon.com","type":"TXT","content":"\"challengetoken1\"","updated_at":"2019-06-19T18:57:49+00:00","ttl":86400,"priority":0},{"id":3836537,"name":"_acme-challenge.createrecordset.tests.lexicon.com","type":"TXT","content":"\"challengetoken2\"","updated_at":"2019-06-19T18:57:50+00:00","ttl":86400,"priority":0},{"id":3836540,"name":"_acme-challenge.noop.tests.lexicon.com","type":"TXT","content":"\"challengetoken\"","updated_at":"2019-06-19T18:57:51+00:00","ttl":86400,"priority":0},{"id":3836558,"name":"_acme-challenge.deleterecordinset.tests.lexicon.com","type":"TXT","content":"\"challengetoken2\"","updated_at":"2019-06-19T18:58:00+00:00","ttl":86400,"priority":0}],"meta":{"pagination":{"total":23,"count":10,"per_page":10,"current_page":1,"total_pages":3,"links":{"next":"https:\/\/api.ukfast.io\/safedns\/v1\/zones\/tests.lexicon.com\/records?page=2","last":"https:\/\/api.ukfast.io\/safedns\/v1\/zones\/tests.lexicon.com\/records?page=3"}}}}'
    headers:
      access-control-allow-origin:
      - https://developers.ukfast.io
      cache-control:
      - no-cache, private
      connection:
      - close
      content-length:
      - '1983'
      content-type:
      - application/json
      date:
      - Wed, 19 Jun 2019 19:05:21 GMT
      request-id:
      - 0b7a4bb4-39c4-4127-a474-2c0a53ea1a0e
      server:
      - UKFast Web Services
      transfer-encoding:
      - chunked
      vary:
      - Origin
    status:
      code: 200
      message: OK
- request:
    body: !!python/unicode '{}'
    headers:
      Accept:
      - application/json
      Accept-Encoding:
      - gzip, deflate
      Connection:
      - keep-alive
      Content-Length:
      - '2'
      Content-Type:
      - application/json
      User-Agent:
      - python-requests/2.22.0
    method: GET
    uri: https://api.ukfast.io/safedns/v1/zones/tests.lexicon.com/records?page=2
  response:
    body:
      string: !!python/unicode '{"data":[{"id":3836567,"name":"_acme-challenge.listrecordset.tests.lexicon.com","type":"TXT","content":"\"challengetoken1\"","updated_at":"2019-06-19T18:58:06+00:00","ttl":86400,"priority":0},{"id":3836570,"name":"_acme-challenge.listrecordset.tests.lexicon.com","type":"TXT","content":"\"challengetoken2\"","updated_at":"2019-06-19T18:58:07+00:00","ttl":86400,"priority":0},{"id":3836573,"name":"random.fqdntest.tests.lexicon.com","type":"TXT","content":"\"challengetoken\"","updated_at":"2019-06-19T18:58:09+00:00","ttl":86400,"priority":0},{"id":3836576,"name":"random.fulltest.tests.lexicon.com","type":"TXT","content":"\"challengetoken\"","updated_at":"2019-06-19T18:58:10+00:00","ttl":86400,"priority":0},{"id":3836579,"name":"random.test.tests.lexicon.com","type":"TXT","content":"\"challengetoken\"","updated_at":"2019-06-19T18:58:13+00:00","ttl":86400,"priority":0},{"id":3836582,"name":"updated.test.tests.lexicon.com","type":"TXT","content":"\"challengetoken\"","updated_at":"2019-06-19T18:58:17+00:00","ttl":86400,"priority":0},{"id":3836585,"name":"orig.nameonly.test.tests.lexicon.com","type":"TXT","content":"\"updated\"","updated_at":"2019-06-19T18:58:20+00:00","ttl":86400,"priority":0},{"id":3836588,"name":"updated.testfqdn.tests.lexicon.com","type":"TXT","content":"\"challengetoken\"","updated_at":"2019-06-19T18:58:23+00:00","ttl":86400,"priority":0},{"id":3836591,"name":"updated.testfull.tests.lexicon.com","type":"TXT","content":"\"challengetoken\"","updated_at":"2019-06-19T18:58:26+00:00","ttl":86400,"priority":0},{"id":3836630,"name":"orig.test.tests.lexicon.com","type":"TXT","content":"\"challengetoken\"","updated_at":"2019-06-19T19:00:42+00:00","ttl":86400,"priority":0}],"meta":{"pagination":{"total":23,"count":10,"per_page":10,"current_page":2,"total_pages":3,"links":{"first":"https:\/\/api.ukfast.io\/safedns\/v1\/zones\/tests.lexicon.com\/records?page=1","previous":"https:\/\/api.ukfast.io\/safedns\/v1\/zones\/tests.lexicon.com\/records?page=1","next":"https:\/\/api.ukfast.io\/safedns\/v1\/zones\/tests.lexicon.com\/records?page=3","last":"https:\/\/api.ukfast.io\/safedns\/v1\/zones\/tests.lexicon.com\/records?page=3"}}}}'
    headers:
      access-control-allow-origin:
      - https://developers.ukfast.io
      cache-control:
      - no-cache, private
      connection:
      - close
      content-length:
      - '2165'
      content-type:
      - application/json
      date:
      - Wed, 19 Jun 2019 19:05:21 GMT
      request-id:
      - 78e759ac-9816-4e15-a257-9453b517d5bd
      server:
      - UKFast Web Services
      transfer-encoding:
      - chunked
      vary:
      - Origin
    status:
      code: 200
      message: OK
- request:
    body: !!python/unicode '{}'
    headers:
      Accept:
      - application/json
      Accept-Encoding:
      - gzip, deflate
      Connection:
      - keep-alive
      Content-Length:
      - '2'
      Content-Type:
      - application/json
      User-Agent:
      - python-requests/2.22.0
    method: GET
    uri: https://api.ukfast.io/safedns/v1/zones/tests.lexicon.com/records?page=3
  response:
    body:
      string: !!python/unicode '{"data":[{"id":3836675,"name":"orig.nameonly.test.tests.lexicon.com","type":"TXT","content":"\"challengetoken\"","updated_at":"2019-06-19T19:03:50+00:00","ttl":86400,"priority":0},{"id":3836678,"name":"orig.testfqdn.tests.lexicon.com","type":"TXT","content":"\"challengetoken\"","updated_at":"2019-06-19T19:03:52+00:00","ttl":86400,"priority":0},{"id":3836681,"name":"orig.testfull.tests.lexicon.com","type":"TXT","content":"\"challengetoken\"","updated_at":"2019-06-19T19:03:56+00:00","ttl":86400,"priority":0}],"meta":{"pagination":{"total":23,"count":3,"per_page":10,"current_page":3,"total_pages":3,"links":{"first":"https:\/\/api.ukfast.io\/safedns\/v1\/zones\/tests.lexicon.com\/records?page=1","previous":"https:\/\/api.ukfast.io\/safedns\/v1\/zones\/tests.lexicon.com\/records?page=2"}}}}'
    headers:
      access-control-allow-origin:
      - https://developers.ukfast.io
      cache-control:
      - no-cache, private
      connection:
      - close
      content-length:
      - '796'
      content-type:
      - application/json
      date:
      - Wed, 19 Jun 2019 19:05:22 GMT
      request-id:
      - c20852ef-d06b-472c-a7c7-20536eaf50c7
      server:
      - UKFast Web Services
      transfer-encoding:
      - chunked
      vary:
      - Origin
    status:
      code: 200
      message: OK
version: 1
