interactions:
- request:
    body: !!python/unicode '{}'
    headers:
      Accept:
      - application/json
      Accept-Encoding:
      - gzip, deflate
      Connection:
      - keep-alive
      Content-Length:
      - '2'
      Content-Type:
      - application/json
      User-Agent:
      - python-requests/2.22.0
    method: GET
    uri: https://api.ukfast.io/safedns/v1/zones/tests.lexicon.com
  response:
    body:
      string: !!python/unicode '{"data":{"name":"tests.lexicon.com","description":"Lexicon
        Test zone"},"meta":{}}'
    headers:
      access-control-allow-origin:
      - https://developers.ukfast.io
      cache-control:
      - no-cache, private
      connection:
      - close
      content-length:
      - '81'
      content-type:
      - application/json
      date:
      - Wed, 19 Jun 2019 19:04:49 GMT
      request-id:
      - c43cd29c-229b-4b91-b0e3-fd2a8a85e0d8
      server:
      - UKFast Web Services
      transfer-encoding:
      - chunked
      vary:
      - Origin
    status:
      code: 200
      message: OK
- request:
    body: !!python/unicode '{}'
    headers:
      Accept:
      - application/json
      Accept-Encoding:
      - gzip, deflate
      Connection:
      - keep-alive
      Content-Length:
      - '2'
      Content-Type:
      - application/json
      User-Agent:
      - python-requests/2.22.0
    method: GET
    uri: https://api.ukfast.io/safedns/v1/zones/tests.lexicon.com/records
  response:
    body:
      string: !!python/unicode '{"data":[{"id":3466895,"name":"localhost.tests.lexicon.com","type":"A","content":"127.0.0.1","updated_at":"2019-06-03T07:19:16+00:00","ttl":86400,"priority":0},{"id":3836012,"name":"tests.lexicon.com","type":"NS","content":"ns0.ukfast.net","updated_at":"2019-06-19T17:20:09+00:00","ttl":86400,"priority":0},{"id":3836015,"name":"tests.lexicon.com","type":"NS","content":"ns1.ukfast.net","updated_at":"2019-06-19T17:20:09+00:00","ttl":86400,"priority":0},{"id":3836525,"name":"_acme-challenge.fqdn.tests.lexicon.com","type":"TXT","content":"\"challengetoken\"","updated_at":"2019-06-19T18:57:46+00:00","ttl":86400,"priority":0},{"id":3836528,"name":"_acme-challenge.full.tests.lexicon.com","type":"TXT","content":"\"challengetoken\"","updated_at":"2019-06-19T18:57:47+00:00","ttl":86400,"priority":0},{"id":3836531,"name":"_acme-challenge.test.tests.lexicon.com","type":"TXT","content":"\"challengetoken\"","updated_at":"2019-06-19T18:57:48+00:00","ttl":86400,"priority":0},{"id":3836534,"name":"_acme-challenge.createrecordset.tests.lexicon.com","type":"TXT","content":"\"challengetoken1\"","updated_at":"2019-06-19T18:57:49+00:00","ttl":86400,"priority":0},{"id":3836537,"name":"_acme-challenge.createrecordset.tests.lexicon.com","type":"TXT","content":"\"challengetoken2\"","updated_at":"2019-06-19T18:57:50+00:00","ttl":86400,"priority":0},{"id":3836540,"name":"_acme-challenge.noop.tests.lexicon.com","type":"TXT","content":"\"challengetoken\"","updated_at":"2019-06-19T18:57:51+00:00","ttl":86400,"priority":0},{"id":3836558,"name":"_acme-challenge.deleterecordinset.tests.lexicon.com","type":"TXT","content":"\"challengetoken2\"","updated_at":"2019-06-19T18:58:00+00:00","ttl":86400,"priority":0}],"meta":{"pagination":{"total":23,"count":10,"per_page":10,"current_page":1,"total_pages":3,"links":{"next":"https:\/\/api.ukfast.io\/safedns\/v1\/zones\/tests.lexicon.com\/records?page=2","last":"https:\/\/api.ukfast.io\/safedns\/v1\/zones\/tests.lexicon.com\/records?page=3"}}}}'
    headers:
      access-control-allow-origin:
      - https://developers.ukfast.io
      cache-control:
      - no-cache, private
      connection:
      - close
      content-length:
      - '1983'
      content-type:
      - application/json
      date:
      - Wed, 19 Jun 2019 19:04:50 GMT
      request-id:
      - 536c2fff-944c-4ffe-966f-fc755f833c75
      server:
      - UKFast Web Services
      transfer-encoding:
      - chunked
      vary:
      - Origin
    status:
      code: 200
      message: OK
- request:
    body: !!python/unicode '{}'
    headers:
      Accept:
      - application/json
      Accept-Encoding:
      - gzip, deflate
      Connection:
      - keep-alive
      Content-Length:
      - '2'
      Content-Type:
      - application/json
      User-Agent:
      - python-requests/2.22.0
    method: GET
    uri: https://api.ukfast.io/safedns/v1/zones/tests.lexicon.com/records?page=2
  response:
    body:
      string: !!python/unicode '{"data":[{"id":3836567,"name":"_acme-challenge.listrecordset.tests.lexicon.com","type":"TXT","content":"\"challengetoken1\"","updated_at":"2019-06-19T18:58:06+00:00","ttl":86400,"priority":0},{"id":3836570,"name":"_acme-challenge.listrecordset.tests.lexicon.com","type":"TXT","content":"\"challengetoken2\"","updated_at":"2019-06-19T18:58:07+00:00","ttl":86400,"priority":0},{"id":3836573,"name":"random.fqdntest.tests.lexicon.com","type":"TXT","content":"\"challengetoken\"","updated_at":"2019-06-19T18:58:09+00:00","ttl":86400,"priority":0},{"id":3836576,"name":"random.fulltest.tests.lexicon.com","type":"TXT","content":"\"challengetoken\"","updated_at":"2019-06-19T18:58:10+00:00","ttl":86400,"priority":0},{"id":3836579,"name":"random.test.tests.lexicon.com","type":"TXT","content":"\"challengetoken\"","updated_at":"2019-06-19T18:58:13+00:00","ttl":86400,"priority":0},{"id":3836582,"name":"updated.test.tests.lexicon.com","type":"TXT","content":"\"challengetoken\"","updated_at":"2019-06-19T18:58:17+00:00","ttl":86400,"priority":0},{"id":3836585,"name":"orig.nameonly.test.tests.lexicon.com","type":"TXT","content":"\"updated\"","updated_at":"2019-06-19T18:58:20+00:00","ttl":86400,"priority":0},{"id":3836588,"name":"updated.testfqdn.tests.lexicon.com","type":"TXT","content":"\"challengetoken\"","updated_at":"2019-06-19T18:58:23+00:00","ttl":86400,"priority":0},{"id":3836591,"name":"updated.testfull.tests.lexicon.com","type":"TXT","content":"\"challengetoken\"","updated_at":"2019-06-19T18:58:26+00:00","ttl":86400,"priority":0},{"id":3836630,"name":"orig.test.tests.lexicon.com","type":"TXT","content":"\"challengetoken\"","updated_at":"2019-06-19T19:00:42+00:00","ttl":86400,"priority":0}],"meta":{"pagination":{"total":23,"count":10,"per_page":10,"current_page":2,"total_pages":3,"links":{"first":"https:\/\/api.ukfast.io\/safedns\/v1\/zones\/tests.lexicon.com\/records?page=1","previous":"https:\/\/api.ukfast.io\/safedns\/v1\/zones\/tests.lexicon.com\/records?page=1","next":"https:\/\/api.ukfast.io\/safedns\/v1\/zones\/tests.lexicon.com\/records?page=3","last":"https:\/\/api.ukfast.io\/safedns\/v1\/zones\/tests.lexicon.com\/records?page=3"}}}}'
    headers:
      access-control-allow-origin:
      - https://developers.ukfast.io
      cache-control:
      - no-cache, private
      connection:
      - close
      content-length:
      - '2165'
      content-type:
      - application/json
      date:
      - Wed, 19 Jun 2019 19:04:50 GMT
      request-id:
      - 954a97dd-f43c-4f07-ae6b-82f99d0ad592
      server:
      - UKFast Web Services
      transfer-encoding:
      - chunked
      vary:
      - Origin
    status:
      code: 200
      message: OK
- request:
    body: !!python/unicode '{}'
    headers:
      Accept:
      - application/json
      Accept-Encoding:
      - gzip, deflate
      Connection:
      - keep-alive
      Content-Length:
      - '2'
      Content-Type:
      - application/json
      User-Agent:
      - python-requests/2.22.0
    method: GET
    uri: https://api.ukfast.io/safedns/v1/zones/tests.lexicon.com/records?page=3
  response:
    body:
      string: !!python/unicode '{"data":[{"id":3836675,"name":"orig.nameonly.test.tests.lexicon.com","type":"TXT","content":"\"challengetoken\"","updated_at":"2019-06-19T19:03:50+00:00","ttl":86400,"priority":0},{"id":3836678,"name":"orig.testfqdn.tests.lexicon.com","type":"TXT","content":"\"challengetoken\"","updated_at":"2019-06-19T19:03:52+00:00","ttl":86400,"priority":0},{"id":3836681,"name":"orig.testfull.tests.lexicon.com","type":"TXT","content":"\"challengetoken\"","updated_at":"2019-06-19T19:03:56+00:00","ttl":86400,"priority":0}],"meta":{"pagination":{"total":23,"count":3,"per_page":10,"current_page":3,"total_pages":3,"links":{"first":"https:\/\/api.ukfast.io\/safedns\/v1\/zones\/tests.lexicon.com\/records?page=1","previous":"https:\/\/api.ukfast.io\/safedns\/v1\/zones\/tests.lexicon.com\/records?page=2"}}}}'
    headers:
      access-control-allow-origin:
      - https://developers.ukfast.io
      cache-control:
      - no-cache, private
      connection:
      - close
      content-length:
      - '796'
      content-type:
      - application/json
      date:
      - Wed, 19 Jun 2019 19:04:50 GMT
      request-id:
      - 8f930ee1-cf4b-4652-adfc-e82e69db1cfe
      server:
      - UKFast Web Services
      transfer-encoding:
      - chunked
      vary:
      - Origin
    status:
      code: 200
      message: OK
- request:
    body: !!python/unicode '{"content": "\"challengetoken\"", "type": "TXT", "name":
      "delete.testfull.tests.lexicon.com"}'
    headers:
      Accept:
      - application/json
      Accept-Encoding:
      - gzip, deflate
      Connection:
      - keep-alive
      Content-Length:
      - '93'
      Content-Type:
      - application/json
      User-Agent:
      - python-requests/2.22.0
    method: POST
    uri: https://api.ukfast.io/safedns/v1/zones/tests.lexicon.com/records
  response:
    body:
      string: !!python/unicode '{"data":{"id":3836690},"meta":{"location":"http:\/\/apio-safedns\/v1\/zones\/tests.lexicon.com\/records\/3836690"}}'
    headers:
      access-control-allow-origin:
      - https://developers.ukfast.io
      cache-control:
      - no-cache, private
      connection:
      - close
      content-type:
      - application/json
      date:
      - Wed, 19 Jun 2019 19:04:51 GMT
      request-id:
      - e8df3524-6297-4013-8ff2-b44332bdd237
      server:
      - UKFast Web Services
      transfer-encoding:
      - chunked
      vary:
      - Origin
    status:
      code: 201
      message: Created
- request:
    body: !!python/unicode '{}'
    headers:
      Accept:
      - application/json
      Accept-Encoding:
      - gzip, deflate
      Connection:
      - keep-alive
      Content-Length:
      - '2'
      Content-Type:
      - application/json
      User-Agent:
      - python-requests/2.22.0
    method: GET
    uri: https://api.ukfast.io/safedns/v1/zones/tests.lexicon.com/records
  response:
    body:
      string: !!python/unicode '{"data":[{"id":3466895,"name":"localhost.tests.lexicon.com","type":"A","content":"127.0.0.1","updated_at":"2019-06-03T07:19:16+00:00","ttl":86400,"priority":0},{"id":3836012,"name":"tests.lexicon.com","type":"NS","content":"ns0.ukfast.net","updated_at":"2019-06-19T17:20:09+00:00","ttl":86400,"priority":0},{"id":3836015,"name":"tests.lexicon.com","type":"NS","content":"ns1.ukfast.net","updated_at":"2019-06-19T17:20:09+00:00","ttl":86400,"priority":0},{"id":3836525,"name":"_acme-challenge.fqdn.tests.lexicon.com","type":"TXT","content":"\"challengetoken\"","updated_at":"2019-06-19T18:57:46+00:00","ttl":86400,"priority":0},{"id":3836528,"name":"_acme-challenge.full.tests.lexicon.com","type":"TXT","content":"\"challengetoken\"","updated_at":"2019-06-19T18:57:47+00:00","ttl":86400,"priority":0},{"id":3836531,"name":"_acme-challenge.test.tests.lexicon.com","type":"TXT","content":"\"challengetoken\"","updated_at":"2019-06-19T18:57:48+00:00","ttl":86400,"priority":0},{"id":3836534,"name":"_acme-challenge.createrecordset.tests.lexicon.com","type":"TXT","content":"\"challengetoken1\"","updated_at":"2019-06-19T18:57:49+00:00","ttl":86400,"priority":0},{"id":3836537,"name":"_acme-challenge.createrecordset.tests.lexicon.com","type":"TXT","content":"\"challengetoken2\"","updated_at":"2019-06-19T18:57:50+00:00","ttl":86400,"priority":0},{"id":3836540,"name":"_acme-challenge.noop.tests.lexicon.com","type":"TXT","content":"\"challengetoken\"","updated_at":"2019-06-19T18:57:51+00:00","ttl":86400,"priority":0},{"id":3836558,"name":"_acme-challenge.deleterecordinset.tests.lexicon.com","type":"TXT","content":"\"challengetoken2\"","updated_at":"2019-06-19T18:58:00+00:00","ttl":86400,"priority":0}],"meta":{"pagination":{"total":24,"count":10,"per_page":10,"current_page":1,"total_pages":3,"links":{"next":"https:\/\/api.ukfast.io\/safedns\/v1\/zones\/tests.lexicon.com\/records?page=2","last":"https:\/\/api.ukfast.io\/safedns\/v1\/zones\/tests.lexicon.com\/records?page=3"}}}}'
    headers:
      access-control-allow-origin:
      - https://developers.ukfast.io
      cache-control:
      - no-cache, private
      connection:
      - close
      content-length:
      - '1983'
      content-type:
      - application/json
      date:
      - Wed, 19 Jun 2019 19:04:51 GMT
      request-id:
      - a03f8ec8-a86e-48ac-92ad-168f1742d5be
      server:
      - UKFast Web Services
      transfer-encoding:
      - chunked
      vary:
      - Origin
    status:
      code: 200
      message: OK
- request:
    body: !!python/unicode '{}'
    headers:
      Accept:
      - application/json
      Accept-Encoding:
      - gzip, deflate
      Connection:
      - keep-alive
      Content-Length:
      - '2'
      Content-Type:
      - application/json
      User-Agent:
      - python-requests/2.22.0
    method: GET
    uri: https://api.ukfast.io/safedns/v1/zones/tests.lexicon.com/records?page=2
  response:
    body:
      string: !!python/unicode '{"data":[{"id":3836567,"name":"_acme-challenge.listrecordset.tests.lexicon.com","type":"TXT","content":"\"challengetoken1\"","updated_at":"2019-06-19T18:58:06+00:00","ttl":86400,"priority":0},{"id":3836570,"name":"_acme-challenge.listrecordset.tests.lexicon.com","type":"TXT","content":"\"challengetoken2\"","updated_at":"2019-06-19T18:58:07+00:00","ttl":86400,"priority":0},{"id":3836573,"name":"random.fqdntest.tests.lexicon.com","type":"TXT","content":"\"challengetoken\"","updated_at":"2019-06-19T18:58:09+00:00","ttl":86400,"priority":0},{"id":3836576,"name":"random.fulltest.tests.lexicon.com","type":"TXT","content":"\"challengetoken\"","updated_at":"2019-06-19T18:58:10+00:00","ttl":86400,"priority":0},{"id":3836579,"name":"random.test.tests.lexicon.com","type":"TXT","content":"\"challengetoken\"","updated_at":"2019-06-19T18:58:13+00:00","ttl":86400,"priority":0},{"id":3836582,"name":"updated.test.tests.lexicon.com","type":"TXT","content":"\"challengetoken\"","updated_at":"2019-06-19T18:58:17+00:00","ttl":86400,"priority":0},{"id":3836585,"name":"orig.nameonly.test.tests.lexicon.com","type":"TXT","content":"\"updated\"","updated_at":"2019-06-19T18:58:20+00:00","ttl":86400,"priority":0},{"id":3836588,"name":"updated.testfqdn.tests.lexicon.com","type":"TXT","content":"\"challengetoken\"","updated_at":"2019-06-19T18:58:23+00:00","ttl":86400,"priority":0},{"id":3836591,"name":"updated.testfull.tests.lexicon.com","type":"TXT","content":"\"challengetoken\"","updated_at":"2019-06-19T18:58:26+00:00","ttl":86400,"priority":0},{"id":3836630,"name":"orig.test.tests.lexicon.com","type":"TXT","content":"\"challengetoken\"","updated_at":"2019-06-19T19:00:42+00:00","ttl":86400,"priority":0}],"meta":{"pagination":{"total":24,"count":10,"per_page":10,"current_page":2,"total_pages":3,"links":{"first":"https:\/\/api.ukfast.io\/safedns\/v1\/zones\/tests.lexicon.com\/records?page=1","previous":"https:\/\/api.ukfast.io\/safedns\/v1\/zones\/tests.lexicon.com\/records?page=1","next":"https:\/\/api.ukfast.io\/safedns\/v1\/zones\/tests.lexicon.com\/records?page=3","last":"https:\/\/api.ukfast.io\/safedns\/v1\/zones\/tests.lexicon.com\/records?page=3"}}}}'
    headers:
      access-control-allow-origin:
      - https://developers.ukfast.io
      cache-control:
      - no-cache, private
      connection:
      - close
      content-length:
      - '2165'
      content-type:
      - application/json
      date:
      - Wed, 19 Jun 2019 19:04:51 GMT
      request-id:
      - f4e02db5-e6ee-4da5-87ae-43d85f1be1c8
      server:
      - UKFast Web Services
      transfer-encoding:
      - chunked
      vary:
      - Origin
    status:
      code: 200
      message: OK
- request:
    body: !!python/unicode '{}'
    headers:
      Accept:
      - application/json
      Accept-Encoding:
      - gzip, deflate
      Connection:
      - keep-alive
      Content-Length:
      - '2'
      Content-Type:
      - application/json
      User-Agent:
      - python-requests/2.22.0
    method: GET
    uri: https://api.ukfast.io/safedns/v1/zones/tests.lexicon.com/records?page=3
  response:
    body:
      string: !!python/unicode '{"data":[{"id":3836675,"name":"orig.nameonly.test.tests.lexicon.com","type":"TXT","content":"\"challengetoken\"","updated_at":"2019-06-19T19:03:50+00:00","ttl":86400,"priority":0},{"id":3836678,"name":"orig.testfqdn.tests.lexicon.com","type":"TXT","content":"\"challengetoken\"","updated_at":"2019-06-19T19:03:52+00:00","ttl":86400,"priority":0},{"id":3836681,"name":"orig.testfull.tests.lexicon.com","type":"TXT","content":"\"challengetoken\"","updated_at":"2019-06-19T19:03:56+00:00","ttl":86400,"priority":0},{"id":3836690,"name":"delete.testfull.tests.lexicon.com","type":"TXT","content":"\"challengetoken\"","updated_at":"2019-06-19T19:04:51+00:00","ttl":86400,"priority":0}],"meta":{"pagination":{"total":24,"count":4,"per_page":10,"current_page":3,"total_pages":3,"links":{"first":"https:\/\/api.ukfast.io\/safedns\/v1\/zones\/tests.lexicon.com\/records?page=1","previous":"https:\/\/api.ukfast.io\/safedns\/v1\/zones\/tests.lexicon.com\/records?page=2"}}}}'
    headers:
      access-control-allow-origin:
      - https://developers.ukfast.io
      cache-control:
      - no-cache, private
      connection:
      - close
      content-length:
      - '964'
      content-type:
      - application/json
      date:
      - Wed, 19 Jun 2019 19:04:52 GMT
      request-id:
      - 0eadd520-d00e-40cd-a5c6-2fa8918982bb
      server:
      - UKFast Web Services
      transfer-encoding:
      - chunked
      vary:
      - Origin
    status:
      code: 200
      message: OK
- request:
    body: !!python/unicode '{}'
    headers:
      Accept:
      - application/json
      Accept-Encoding:
      - gzip, deflate
      Connection:
      - keep-alive
      Content-Length:
      - '2'
      Content-Type:
      - application/json
      User-Agent:
      - python-requests/2.22.0
    method: DELETE
    uri: https://api.ukfast.io/safedns/v1/zones/tests.lexicon.com/records/3836690
  response:
    body:
      string: !!python/unicode ''
    headers:
      access-control-allow-origin:
      - https://developers.ukfast.io
      cache-control:
      - no-cache, private
      connection:
      - close
      content-type:
      - text/html; charset=UTF-8
      date:
      - Wed, 19 Jun 2019 19:04:52 GMT
      request-id:
      - 3ca283c7-a95b-4a75-a249-b4e338591921
      server:
      - UKFast Web Services
      vary:
      - Origin
    status:
      code: 204
      message: No Content
- request:
    body: !!python/unicode '{}'
    headers:
      Accept:
      - application/json
      Accept-Encoding:
      - gzip, deflate
      Connection:
      - keep-alive
      Content-Length:
      - '2'
      Content-Type:
      - application/json
      User-Agent:
      - python-requests/2.22.0
    method: GET
    uri: https://api.ukfast.io/safedns/v1/zones/tests.lexicon.com/records
  response:
    body:
      string: !!python/unicode '{"data":[{"id":3466895,"name":"localhost.tests.lexicon.com","type":"A","content":"127.0.0.1","updated_at":"2019-06-03T07:19:16+00:00","ttl":86400,"priority":0},{"id":3836012,"name":"tests.lexicon.com","type":"NS","content":"ns0.ukfast.net","updated_at":"2019-06-19T17:20:09+00:00","ttl":86400,"priority":0},{"id":3836015,"name":"tests.lexicon.com","type":"NS","content":"ns1.ukfast.net","updated_at":"2019-06-19T17:20:09+00:00","ttl":86400,"priority":0},{"id":3836525,"name":"_acme-challenge.fqdn.tests.lexicon.com","type":"TXT","content":"\"challengetoken\"","updated_at":"2019-06-19T18:57:46+00:00","ttl":86400,"priority":0},{"id":3836528,"name":"_acme-challenge.full.tests.lexicon.com","type":"TXT","content":"\"challengetoken\"","updated_at":"2019-06-19T18:57:47+00:00","ttl":86400,"priority":0},{"id":3836531,"name":"_acme-challenge.test.tests.lexicon.com","type":"TXT","content":"\"challengetoken\"","updated_at":"2019-06-19T18:57:48+00:00","ttl":86400,"priority":0},{"id":3836534,"name":"_acme-challenge.createrecordset.tests.lexicon.com","type":"TXT","content":"\"challengetoken1\"","updated_at":"2019-06-19T18:57:49+00:00","ttl":86400,"priority":0},{"id":3836537,"name":"_acme-challenge.createrecordset.tests.lexicon.com","type":"TXT","content":"\"challengetoken2\"","updated_at":"2019-06-19T18:57:50+00:00","ttl":86400,"priority":0},{"id":3836540,"name":"_acme-challenge.noop.tests.lexicon.com","type":"TXT","content":"\"challengetoken\"","updated_at":"2019-06-19T18:57:51+00:00","ttl":86400,"priority":0},{"id":3836558,"name":"_acme-challenge.deleterecordinset.tests.lexicon.com","type":"TXT","content":"\"challengetoken2\"","updated_at":"2019-06-19T18:58:00+00:00","ttl":86400,"priority":0}],"meta":{"pagination":{"total":23,"count":10,"per_page":10,"current_page":1,"total_pages":3,"links":{"next":"https:\/\/api.ukfast.io\/safedns\/v1\/zones\/tests.lexicon.com\/records?page=2","last":"https:\/\/api.ukfast.io\/safedns\/v1\/zones\/tests.lexicon.com\/records?page=3"}}}}'
    headers:
      access-control-allow-origin:
      - https://developers.ukfast.io
      cache-control:
      - no-cache, private
      connection:
      - close
      content-length:
      - '1983'
      content-type:
      - application/json
      date:
      - Wed, 19 Jun 2019 19:04:52 GMT
      request-id:
      - e5d4f0cf-e5bc-4c80-ac1e-3dadb504224a
      server:
      - UKFast Web Services
      transfer-encoding:
      - chunked
      vary:
      - Origin
    status:
      code: 200
      message: OK
- request:
    body: !!python/unicode '{}'
    headers:
      Accept:
      - application/json
      Accept-Encoding:
      - gzip, deflate
      Connection:
      - keep-alive
      Content-Length:
      - '2'
      Content-Type:
      - application/json
      User-Agent:
      - python-requests/2.22.0
    method: GET
    uri: https://api.ukfast.io/safedns/v1/zones/tests.lexicon.com/records?page=2
  response:
    body:
      string: !!python/unicode '{"data":[{"id":3836567,"name":"_acme-challenge.listrecordset.tests.lexicon.com","type":"TXT","content":"\"challengetoken1\"","updated_at":"2019-06-19T18:58:06+00:00","ttl":86400,"priority":0},{"id":3836570,"name":"_acme-challenge.listrecordset.tests.lexicon.com","type":"TXT","content":"\"challengetoken2\"","updated_at":"2019-06-19T18:58:07+00:00","ttl":86400,"priority":0},{"id":3836573,"name":"random.fqdntest.tests.lexicon.com","type":"TXT","content":"\"challengetoken\"","updated_at":"2019-06-19T18:58:09+00:00","ttl":86400,"priority":0},{"id":3836576,"name":"random.fulltest.tests.lexicon.com","type":"TXT","content":"\"challengetoken\"","updated_at":"2019-06-19T18:58:10+00:00","ttl":86400,"priority":0},{"id":3836579,"name":"random.test.tests.lexicon.com","type":"TXT","content":"\"challengetoken\"","updated_at":"2019-06-19T18:58:13+00:00","ttl":86400,"priority":0},{"id":3836582,"name":"updated.test.tests.lexicon.com","type":"TXT","content":"\"challengetoken\"","updated_at":"2019-06-19T18:58:17+00:00","ttl":86400,"priority":0},{"id":3836585,"name":"orig.nameonly.test.tests.lexicon.com","type":"TXT","content":"\"updated\"","updated_at":"2019-06-19T18:58:20+00:00","ttl":86400,"priority":0},{"id":3836588,"name":"updated.testfqdn.tests.lexicon.com","type":"TXT","content":"\"challengetoken\"","updated_at":"2019-06-19T18:58:23+00:00","ttl":86400,"priority":0},{"id":3836591,"name":"updated.testfull.tests.lexicon.com","type":"TXT","content":"\"challengetoken\"","updated_at":"2019-06-19T18:58:26+00:00","ttl":86400,"priority":0},{"id":3836630,"name":"orig.test.tests.lexicon.com","type":"TXT","content":"\"challengetoken\"","updated_at":"2019-06-19T19:00:42+00:00","ttl":86400,"priority":0}],"meta":{"pagination":{"total":23,"count":10,"per_page":10,"current_page":2,"total_pages":3,"links":{"first":"https:\/\/api.ukfast.io\/safedns\/v1\/zones\/tests.lexicon.com\/records?page=1","previous":"https:\/\/api.ukfast.io\/safedns\/v1\/zones\/tests.lexicon.com\/records?page=1","next":"https:\/\/api.ukfast.io\/safedns\/v1\/zones\/tests.lexicon.com\/records?page=3","last":"https:\/\/api.ukfast.io\/safedns\/v1\/zones\/tests.lexicon.com\/records?page=3"}}}}'
    headers:
      access-control-allow-origin:
      - https://developers.ukfast.io
      cache-control:
      - no-cache, private
      connection:
      - close
      content-length:
      - '2165'
      content-type:
      - application/json
      date:
      - Wed, 19 Jun 2019 19:04:52 GMT
      request-id:
      - 49bf1ac4-c63d-44bb-87fd-6fe4ae3b5826
      server:
      - UKFast Web Services
      transfer-encoding:
      - chunked
      vary:
      - Origin
    status:
      code: 200
      message: OK
- request:
    body: !!python/unicode '{}'
    headers:
      Accept:
      - application/json
      Accept-Encoding:
      - gzip, deflate
      Connection:
      - keep-alive
      Content-Length:
      - '2'
      Content-Type:
      - application/json
      User-Agent:
      - python-requests/2.22.0
    method: GET
    uri: https://api.ukfast.io/safedns/v1/zones/tests.lexicon.com/records?page=3
  response:
    body:
      string: !!python/unicode '{"data":[{"id":3836675,"name":"orig.nameonly.test.tests.lexicon.com","type":"TXT","content":"\"challengetoken\"","updated_at":"2019-06-19T19:03:50+00:00","ttl":86400,"priority":0},{"id":3836678,"name":"orig.testfqdn.tests.lexicon.com","type":"TXT","content":"\"challengetoken\"","updated_at":"2019-06-19T19:03:52+00:00","ttl":86400,"priority":0},{"id":3836681,"name":"orig.testfull.tests.lexicon.com","type":"TXT","content":"\"challengetoken\"","updated_at":"2019-06-19T19:03:56+00:00","ttl":86400,"priority":0}],"meta":{"pagination":{"total":23,"count":3,"per_page":10,"current_page":3,"total_pages":3,"links":{"first":"https:\/\/api.ukfast.io\/safedns\/v1\/zones\/tests.lexicon.com\/records?page=1","previous":"https:\/\/api.ukfast.io\/safedns\/v1\/zones\/tests.lexicon.com\/records?page=2"}}}}'
    headers:
      access-control-allow-origin:
      - https://developers.ukfast.io
      cache-control:
      - no-cache, private
      connection:
      - close
      content-length:
      - '796'
      content-type:
      - application/json
      date:
      - Wed, 19 Jun 2019 19:04:53 GMT
      request-id:
      - 804b8056-2df2-4ab4-a782-a64a905acdc8
      server:
      - UKFast Web Services
      transfer-encoding:
      - chunked
      vary:
      - Origin
    status:
      code: 200
      message: OK
version: 1
