interactions:
- request:
    body: !!python/unicode '{}'
    headers:
      Accept:
      - application/json
      Accept-Encoding:
      - gzip, deflate
      Connection:
      - keep-alive
      Content-Length:
      - '2'
      Content-Type:
      - application/json
      User-Agent:
      - python-requests/2.22.0
    method: GET
    uri: https://api.ukfast.io/safedns/v1/zones/tests.lexicon.com
  response:
    body:
      string: !!python/unicode '{"data":{"name":"tests.lexicon.com","description":"Lexicon
        Test zone"},"meta":{}}'
    headers:
      access-control-allow-origin:
      - https://developers.ukfast.io
      cache-control:
      - no-cache, private
      connection:
      - close
      content-length:
      - '81'
      content-type:
      - application/json
      date:
      - Wed, 19 Jun 2019 19:05:22 GMT
      request-id:
      - 8b98e1f5-9dc7-47ad-8420-5ac8dbe90ec6
      server:
      - UKFast Web Services
      transfer-encoding:
      - chunked
      vary:
      - Origin
    status:
      code: 200
      message: OK
- request:
    body: !!python/unicode '{}'
    headers:
      Accept:
      - application/json
      Accept-Encoding:
      - gzip, deflate
      Connection:
      - keep-alive
      Content-Length:
      - '2'
      Content-Type:
      - application/json
      User-Agent:
      - python-requests/2.22.0
    method: GET
    uri: https://api.ukfast.io/safedns/v1/zones/tests.lexicon.com/records
  response:
    body:
      string: !!python/unicode '{"data":[{"id":3466895,"name":"localhost.tests.lexicon.com","type":"A","content":"127.0.0.1","updated_at":"2019-06-03T07:19:16+00:00","ttl":86400,"priority":0},{"id":3836012,"name":"tests.lexicon.com","type":"NS","content":"ns0.ukfast.net","updated_at":"2019-06-19T17:20:09+00:00","ttl":86400,"priority":0},{"id":3836015,"name":"tests.lexicon.com","type":"NS","content":"ns1.ukfast.net","updated_at":"2019-06-19T17:20:09+00:00","ttl":86400,"priority":0},{"id":3836525,"name":"_acme-challenge.fqdn.tests.lexicon.com","type":"TXT","content":"\"challengetoken\"","updated_at":"2019-06-19T18:57:46+00:00","ttl":86400,"priority":0},{"id":3836528,"name":"_acme-challenge.full.tests.lexicon.com","type":"TXT","content":"\"challengetoken\"","updated_at":"2019-06-19T18:57:47+00:00","ttl":86400,"priority":0},{"id":3836531,"name":"_acme-challenge.test.tests.lexicon.com","type":"TXT","content":"\"challengetoken\"","updated_at":"2019-06-19T18:57:48+00:00","ttl":86400,"priority":0},{"id":3836534,"name":"_acme-challenge.createrecordset.tests.lexicon.com","type":"TXT","content":"\"challengetoken1\"","updated_at":"2019-06-19T18:57:49+00:00","ttl":86400,"priority":0},{"id":3836537,"name":"_acme-challenge.createrecordset.tests.lexicon.com","type":"TXT","content":"\"challengetoken2\"","updated_at":"2019-06-19T18:57:50+00:00","ttl":86400,"priority":0},{"id":3836540,"name":"_acme-challenge.noop.tests.lexicon.com","type":"TXT","content":"\"challengetoken\"","updated_at":"2019-06-19T18:57:51+00:00","ttl":86400,"priority":0},{"id":3836558,"name":"_acme-challenge.deleterecordinset.tests.lexicon.com","type":"TXT","content":"\"challengetoken2\"","updated_at":"2019-06-19T18:58:00+00:00","ttl":86400,"priority":0}],"meta":{"pagination":{"total":23,"count":10,"per_page":10,"current_page":1,"total_pages":3,"links":{"next":"https:\/\/api.ukfast.io\/safedns\/v1\/zones\/tests.lexicon.com\/records?page=2","last":"https:\/\/api.ukfast.io\/safedns\/v1\/zones\/tests.lexicon.com\/records?page=3"}}}}'
    headers:
      access-control-allow-origin:
      - https://developers.ukfast.io
      cache-control:
      - no-cache, private
      connection:
      - close
      content-length:
      - '1983'
      content-type:
      - application/json
      date:
      - Wed, 19 Jun 2019 19:05:22 GMT
      request-id:
      - 26a27ffc-e1db-43a7-b7e9-9d6cfacb5895
      server:
      - UKFast Web Services
      transfer-encoding:
      - chunked
      vary:
      - Origin
    status:
      code: 200
      message: OK
- request:
    body: !!python/unicode '{}'
    headers:
      Accept:
      - application/json
      Accept-Encoding:
      - gzip, deflate
      Connection:
      - keep-alive
      Content-Length:
      - '2'
      Content-Type:
      - application/json
      User-Agent:
      - python-requests/2.22.0
    method: GET
    uri: https://api.ukfast.io/safedns/v1/zones/tests.lexicon.com/records?page=2
  response:
    body:
      string: !!python/unicode '{"data":[{"id":3836567,"name":"_acme-challenge.listrecordset.tests.lexicon.com","type":"TXT","content":"\"challengetoken1\"","updated_at":"2019-06-19T18:58:06+00:00","ttl":86400,"priority":0},{"id":3836570,"name":"_acme-challenge.listrecordset.tests.lexicon.com","type":"TXT","content":"\"challengetoken2\"","updated_at":"2019-06-19T18:58:07+00:00","ttl":86400,"priority":0},{"id":3836573,"name":"random.fqdntest.tests.lexicon.com","type":"TXT","content":"\"challengetoken\"","updated_at":"2019-06-19T18:58:09+00:00","ttl":86400,"priority":0},{"id":3836576,"name":"random.fulltest.tests.lexicon.com","type":"TXT","content":"\"challengetoken\"","updated_at":"2019-06-19T18:58:10+00:00","ttl":86400,"priority":0},{"id":3836579,"name":"random.test.tests.lexicon.com","type":"TXT","content":"\"challengetoken\"","updated_at":"2019-06-19T18:58:13+00:00","ttl":86400,"priority":0},{"id":3836582,"name":"updated.test.tests.lexicon.com","type":"TXT","content":"\"challengetoken\"","updated_at":"2019-06-19T18:58:17+00:00","ttl":86400,"priority":0},{"id":3836585,"name":"orig.nameonly.test.tests.lexicon.com","type":"TXT","content":"\"updated\"","updated_at":"2019-06-19T18:58:20+00:00","ttl":86400,"priority":0},{"id":3836588,"name":"updated.testfqdn.tests.lexicon.com","type":"TXT","content":"\"challengetoken\"","updated_at":"2019-06-19T18:58:23+00:00","ttl":86400,"priority":0},{"id":3836591,"name":"updated.testfull.tests.lexicon.com","type":"TXT","content":"\"challengetoken\"","updated_at":"2019-06-19T18:58:26+00:00","ttl":86400,"priority":0},{"id":3836630,"name":"orig.test.tests.lexicon.com","type":"TXT","content":"\"challengetoken\"","updated_at":"2019-06-19T19:00:42+00:00","ttl":86400,"priority":0}],"meta":{"pagination":{"total":23,"count":10,"per_page":10,"current_page":2,"total_pages":3,"links":{"first":"https:\/\/api.ukfast.io\/safedns\/v1\/zones\/tests.lexicon.com\/records?page=1","previous":"https:\/\/api.ukfast.io\/safedns\/v1\/zones\/tests.lexicon.com\/records?page=1","next":"https:\/\/api.ukfast.io\/safedns\/v1\/zones\/tests.lexicon.com\/records?page=3","last":"https:\/\/api.ukfast.io\/safedns\/v1\/zones\/tests.lexicon.com\/records?page=3"}}}}'
    headers:
      access-control-allow-origin:
      - https://developers.ukfast.io
      cache-control:
      - no-cache, private
      connection:
      - close
      content-length:
      - '2165'
      content-type:
      - application/json
      date:
      - Wed, 19 Jun 2019 19:05:23 GMT
      request-id:
      - b5dee85d-9b80-4b5a-8269-c1d6cad17984
      server:
      - UKFast Web Services
      transfer-encoding:
      - chunked
      vary:
      - Origin
    status:
      code: 200
      message: OK
- request:
    body: !!python/unicode '{}'
    headers:
      Accept:
      - application/json
      Accept-Encoding:
      - gzip, deflate
      Connection:
      - keep-alive
      Content-Length:
      - '2'
      Content-Type:
      - application/json
      User-Agent:
      - python-requests/2.22.0
    method: GET
    uri: https://api.ukfast.io/safedns/v1/zones/tests.lexicon.com/records?page=3
  response:
    body:
      string: !!python/unicode '{"data":[{"id":3836675,"name":"orig.nameonly.test.tests.lexicon.com","type":"TXT","content":"\"challengetoken\"","updated_at":"2019-06-19T19:03:50+00:00","ttl":86400,"priority":0},{"id":3836678,"name":"orig.testfqdn.tests.lexicon.com","type":"TXT","content":"\"challengetoken\"","updated_at":"2019-06-19T19:03:52+00:00","ttl":86400,"priority":0},{"id":3836681,"name":"orig.testfull.tests.lexicon.com","type":"TXT","content":"\"challengetoken\"","updated_at":"2019-06-19T19:03:56+00:00","ttl":86400,"priority":0}],"meta":{"pagination":{"total":23,"count":3,"per_page":10,"current_page":3,"total_pages":3,"links":{"first":"https:\/\/api.ukfast.io\/safedns\/v1\/zones\/tests.lexicon.com\/records?page=1","previous":"https:\/\/api.ukfast.io\/safedns\/v1\/zones\/tests.lexicon.com\/records?page=2"}}}}'
    headers:
      access-control-allow-origin:
      - https://developers.ukfast.io
      cache-control:
      - no-cache, private
      connection:
      - close
      content-length:
      - '796'
      content-type:
      - application/json
      date:
      - Wed, 19 Jun 2019 19:05:23 GMT
      request-id:
      - 38ebca6e-e219-4d81-8a41-09e0ab09c9d9
      server:
      - UKFast Web Services
      transfer-encoding:
      - chunked
      vary:
      - Origin
    status:
      code: 200
      message: OK
- request:
    body: !!python/unicode '{}'
    headers:
      Accept:
      - application/json
      Accept-Encoding:
      - gzip, deflate
      Connection:
      - keep-alive
      Content-Length:
      - '2'
      Content-Type:
      - application/json
      User-Agent:
      - python-requests/2.22.0
    method: GET
    uri: https://api.ukfast.io/safedns/v1/zones/tests.lexicon.com/records
  response:
    body:
      string: !!python/unicode '{"data":[{"id":3466895,"name":"localhost.tests.lexicon.com","type":"A","content":"127.0.0.1","updated_at":"2019-06-03T07:19:16+00:00","ttl":86400,"priority":0},{"id":3836012,"name":"tests.lexicon.com","type":"NS","content":"ns0.ukfast.net","updated_at":"2019-06-19T17:20:09+00:00","ttl":86400,"priority":0},{"id":3836015,"name":"tests.lexicon.com","type":"NS","content":"ns1.ukfast.net","updated_at":"2019-06-19T17:20:09+00:00","ttl":86400,"priority":0},{"id":3836525,"name":"_acme-challenge.fqdn.tests.lexicon.com","type":"TXT","content":"\"challengetoken\"","updated_at":"2019-06-19T18:57:46+00:00","ttl":86400,"priority":0},{"id":3836528,"name":"_acme-challenge.full.tests.lexicon.com","type":"TXT","content":"\"challengetoken\"","updated_at":"2019-06-19T18:57:47+00:00","ttl":86400,"priority":0},{"id":3836531,"name":"_acme-challenge.test.tests.lexicon.com","type":"TXT","content":"\"challengetoken\"","updated_at":"2019-06-19T18:57:48+00:00","ttl":86400,"priority":0},{"id":3836534,"name":"_acme-challenge.createrecordset.tests.lexicon.com","type":"TXT","content":"\"challengetoken1\"","updated_at":"2019-06-19T18:57:49+00:00","ttl":86400,"priority":0},{"id":3836537,"name":"_acme-challenge.createrecordset.tests.lexicon.com","type":"TXT","content":"\"challengetoken2\"","updated_at":"2019-06-19T18:57:50+00:00","ttl":86400,"priority":0},{"id":3836540,"name":"_acme-challenge.noop.tests.lexicon.com","type":"TXT","content":"\"challengetoken\"","updated_at":"2019-06-19T18:57:51+00:00","ttl":86400,"priority":0},{"id":3836558,"name":"_acme-challenge.deleterecordinset.tests.lexicon.com","type":"TXT","content":"\"challengetoken2\"","updated_at":"2019-06-19T18:58:00+00:00","ttl":86400,"priority":0}],"meta":{"pagination":{"total":23,"count":10,"per_page":10,"current_page":1,"total_pages":3,"links":{"next":"https:\/\/api.ukfast.io\/safedns\/v1\/zones\/tests.lexicon.com\/records?page=2","last":"https:\/\/api.ukfast.io\/safedns\/v1\/zones\/tests.lexicon.com\/records?page=3"}}}}'
    headers:
      access-control-allow-origin:
      - https://developers.ukfast.io
      cache-control:
      - no-cache, private
      connection:
      - close
      content-length:
      - '1983'
      content-type:
      - application/json
      date:
      - Wed, 19 Jun 2019 19:05:23 GMT
      request-id:
      - c20c87f2-7694-4650-9bc5-0b7038602d3b
      server:
      - UKFast Web Services
      transfer-encoding:
      - chunked
      vary:
      - Origin
    status:
      code: 200
      message: OK
- request:
    body: !!python/unicode '{}'
    headers:
      Accept:
      - application/json
      Accept-Encoding:
      - gzip, deflate
      Connection:
      - keep-alive
      Content-Length:
      - '2'
      Content-Type:
      - application/json
      User-Agent:
      - python-requests/2.22.0
    method: GET
    uri: https://api.ukfast.io/safedns/v1/zones/tests.lexicon.com/records?page=2
  response:
    body:
      string: !!python/unicode '{"data":[{"id":3836567,"name":"_acme-challenge.listrecordset.tests.lexicon.com","type":"TXT","content":"\"challengetoken1\"","updated_at":"2019-06-19T18:58:06+00:00","ttl":86400,"priority":0},{"id":3836570,"name":"_acme-challenge.listrecordset.tests.lexicon.com","type":"TXT","content":"\"challengetoken2\"","updated_at":"2019-06-19T18:58:07+00:00","ttl":86400,"priority":0},{"id":3836573,"name":"random.fqdntest.tests.lexicon.com","type":"TXT","content":"\"challengetoken\"","updated_at":"2019-06-19T18:58:09+00:00","ttl":86400,"priority":0},{"id":3836576,"name":"random.fulltest.tests.lexicon.com","type":"TXT","content":"\"challengetoken\"","updated_at":"2019-06-19T18:58:10+00:00","ttl":86400,"priority":0},{"id":3836579,"name":"random.test.tests.lexicon.com","type":"TXT","content":"\"challengetoken\"","updated_at":"2019-06-19T18:58:13+00:00","ttl":86400,"priority":0},{"id":3836582,"name":"updated.test.tests.lexicon.com","type":"TXT","content":"\"challengetoken\"","updated_at":"2019-06-19T18:58:17+00:00","ttl":86400,"priority":0},{"id":3836585,"name":"orig.nameonly.test.tests.lexicon.com","type":"TXT","content":"\"updated\"","updated_at":"2019-06-19T18:58:20+00:00","ttl":86400,"priority":0},{"id":3836588,"name":"updated.testfqdn.tests.lexicon.com","type":"TXT","content":"\"challengetoken\"","updated_at":"2019-06-19T18:58:23+00:00","ttl":86400,"priority":0},{"id":3836591,"name":"updated.testfull.tests.lexicon.com","type":"TXT","content":"\"challengetoken\"","updated_at":"2019-06-19T18:58:26+00:00","ttl":86400,"priority":0},{"id":3836630,"name":"orig.test.tests.lexicon.com","type":"TXT","content":"\"challengetoken\"","updated_at":"2019-06-19T19:00:42+00:00","ttl":86400,"priority":0}],"meta":{"pagination":{"total":23,"count":10,"per_page":10,"current_page":2,"total_pages":3,"links":{"first":"https:\/\/api.ukfast.io\/safedns\/v1\/zones\/tests.lexicon.com\/records?page=1","previous":"https:\/\/api.ukfast.io\/safedns\/v1\/zones\/tests.lexicon.com\/records?page=1","next":"https:\/\/api.ukfast.io\/safedns\/v1\/zones\/tests.lexicon.com\/records?page=3","last":"https:\/\/api.ukfast.io\/safedns\/v1\/zones\/tests.lexicon.com\/records?page=3"}}}}'
    headers:
      access-control-allow-origin:
      - https://developers.ukfast.io
      cache-control:
      - no-cache, private
      connection:
      - close
      content-length:
      - '2165'
      content-type:
      - application/json
      date:
      - Wed, 19 Jun 2019 19:05:23 GMT
      request-id:
      - 4a81abfe-78b9-4af9-bf43-1b0769755637
      server:
      - UKFast Web Services
      transfer-encoding:
      - chunked
      vary:
      - Origin
    status:
      code: 200
      message: OK
- request:
    body: !!python/unicode '{}'
    headers:
      Accept:
      - application/json
      Accept-Encoding:
      - gzip, deflate
      Connection:
      - keep-alive
      Content-Length:
      - '2'
      Content-Type:
      - application/json
      User-Agent:
      - python-requests/2.22.0
    method: GET
    uri: https://api.ukfast.io/safedns/v1/zones/tests.lexicon.com/records?page=3
  response:
    body:
      string: !!python/unicode '{"data":[{"id":3836675,"name":"orig.nameonly.test.tests.lexicon.com","type":"TXT","content":"\"challengetoken\"","updated_at":"2019-06-19T19:03:50+00:00","ttl":86400,"priority":0},{"id":3836678,"name":"orig.testfqdn.tests.lexicon.com","type":"TXT","content":"\"challengetoken\"","updated_at":"2019-06-19T19:03:52+00:00","ttl":86400,"priority":0},{"id":3836681,"name":"orig.testfull.tests.lexicon.com","type":"TXT","content":"\"challengetoken\"","updated_at":"2019-06-19T19:03:56+00:00","ttl":86400,"priority":0}],"meta":{"pagination":{"total":23,"count":3,"per_page":10,"current_page":3,"total_pages":3,"links":{"first":"https:\/\/api.ukfast.io\/safedns\/v1\/zones\/tests.lexicon.com\/records?page=1","previous":"https:\/\/api.ukfast.io\/safedns\/v1\/zones\/tests.lexicon.com\/records?page=2"}}}}'
    headers:
      access-control-allow-origin:
      - https://developers.ukfast.io
      cache-control:
      - no-cache, private
      connection:
      - close
      content-length:
      - '796'
      content-type:
      - application/json
      date:
      - Wed, 19 Jun 2019 19:05:24 GMT
      request-id:
      - 6fc66f53-cc5d-4965-8677-8696af2fe12e
      server:
      - UKFast Web Services
      transfer-encoding:
      - chunked
      vary:
      - Origin
    status:
      code: 200
      message: OK
version: 1
