interactions:
- request:
    body: !!python/unicode '{}'
    headers:
      Accept:
      - application/json
      Accept-Encoding:
      - gzip, deflate
      Connection:
      - keep-alive
      Content-Length:
      - '2'
      Content-Type:
      - application/json
      User-Agent:
      - python-requests/2.22.0
    method: GET
    uri: https://api.ukfast.io/safedns/v1/zones/tests.lexicon.com
  response:
    body:
      string: !!python/unicode '{"data":{"name":"tests.lexicon.com","description":"Lexicon
        Test zone"},"meta":{}}'
    headers:
      access-control-allow-origin:
      - https://developers.ukfast.io
      cache-control:
      - no-cache, private
      connection:
      - close
      content-length:
      - '81'
      content-type:
      - application/json
      date:
      - Mon, 03 Jun 2019 07:28:22 GMT
      request-id:
      - f5524a47-8765-4bb5-9faf-b6e5a2c2f748
      server:
      - UKFast Web Services
      transfer-encoding:
      - chunked
      vary:
      - Origin
    status:
      code: 200
      message: OK
- request:
    body: !!python/unicode '{}'
    headers:
      Accept:
      - application/json
      Accept-Encoding:
      - gzip, deflate
      Connection:
      - keep-alive
      Content-Length:
      - '2'
      Content-Type:
      - application/json
      User-Agent:
      - python-requests/2.22.0
    method: GET
    uri: https://api.ukfast.io/safedns/v1/zones/tests.lexicon.com/records
  response:
    body:
      string: !!python/unicode '{"data":[{"id":3466895,"name":"localhost.tests.lexicon.com","type":"A","content":"127.0.0.1","updated_at":"2019-06-03T07:19:16+00:00","ttl":86400,"priority":0},{"id":3466898,"name":"_acme-challenge.fqdn.tests.lexicon.com","type":"TXT","content":"\"challengetoken\"","updated_at":"2019-06-03T07:19:18+00:00","ttl":86400,"priority":0},{"id":3466901,"name":"_acme-challenge.full.tests.lexicon.com","type":"TXT","content":"\"challengetoken\"","updated_at":"2019-06-03T07:19:18+00:00","ttl":86400,"priority":0},{"id":3466904,"name":"_acme-challenge.test.tests.lexicon.com","type":"TXT","content":"\"challengetoken\"","updated_at":"2019-06-03T07:19:19+00:00","ttl":86400,"priority":0},{"id":3466907,"name":"_acme-challenge.createrecordset.tests.lexicon.com","type":"TXT","content":"\"challengetoken1\"","updated_at":"2019-06-03T07:19:20+00:00","ttl":86400,"priority":0},{"id":3466910,"name":"_acme-challenge.createrecordset.tests.lexicon.com","type":"TXT","content":"\"challengetoken2\"","updated_at":"2019-06-03T07:19:20+00:00","ttl":86400,"priority":0},{"id":3466913,"name":"_acme-challenge.noop.tests.lexicon.com","type":"TXT","content":"\"challengetoken\"","updated_at":"2019-06-03T07:19:21+00:00","ttl":86400,"priority":0},{"id":3466931,"name":"_acme-challenge.deleterecordinset.tests.lexicon.com","type":"TXT","content":"\"challengetoken2\"","updated_at":"2019-06-03T07:19:30+00:00","ttl":86400,"priority":0},{"id":3466940,"name":"_acme-challenge.listrecordset.tests.lexicon.com","type":"TXT","content":"\"challengetoken1\"","updated_at":"2019-06-03T07:19:35+00:00","ttl":86400,"priority":0},{"id":3466943,"name":"_acme-challenge.listrecordset.tests.lexicon.com","type":"TXT","content":"\"challengetoken2\"","updated_at":"2019-06-03T07:19:35+00:00","ttl":86400,"priority":0}],"meta":{"pagination":{"total":17,"count":10,"per_page":10,"current_page":1,"total_pages":2,"links":{"next":"https:\/\/api.ukfast.io\/safedns\/v1\/zones\/tests.lexicon.com\/records?page=2","last":"https:\/\/api.ukfast.io\/safedns\/v1\/zones\/tests.lexicon.com\/records?page=2"}}}}'
    headers:
      access-control-allow-origin:
      - https://developers.ukfast.io
      cache-control:
      - no-cache, private
      connection:
      - close
      content-length:
      - '2055'
      content-type:
      - application/json
      date:
      - Mon, 03 Jun 2019 07:28:22 GMT
      request-id:
      - 53d0b15c-d301-41b1-825b-23d8501e168b
      server:
      - UKFast Web Services
      transfer-encoding:
      - chunked
      vary:
      - Origin
    status:
      code: 200
      message: OK
- request:
    body: !!python/unicode '{}'
    headers:
      Accept:
      - application/json
      Accept-Encoding:
      - gzip, deflate
      Connection:
      - keep-alive
      Content-Length:
      - '2'
      Content-Type:
      - application/json
      User-Agent:
      - python-requests/2.22.0
    method: GET
    uri: https://api.ukfast.io/safedns/v1/zones/tests.lexicon.com/records?page=2
  response:
    body:
      string: !!python/unicode '{"data":[{"id":3466946,"name":"random.fqdntest.tests.lexicon.com","type":"TXT","content":"\"challengetoken\"","updated_at":"2019-06-03T07:19:36+00:00","ttl":86400,"priority":0},{"id":3466949,"name":"random.fulltest.tests.lexicon.com","type":"TXT","content":"\"challengetoken\"","updated_at":"2019-06-03T07:19:37+00:00","ttl":86400,"priority":0},{"id":3466952,"name":"random.test.tests.lexicon.com","type":"TXT","content":"\"challengetoken\"","updated_at":"2019-06-03T07:19:40+00:00","ttl":86400,"priority":0},{"id":3466955,"name":"updated.test.tests.lexicon.com","type":"TXT","content":"\"challengetoken\"","updated_at":"2019-06-03T07:19:42+00:00","ttl":3600,"priority":0},{"id":3466958,"name":"updated.testfqdn.tests.lexicon.com","type":"TXT","content":"\"challengetoken\"","updated_at":"2019-06-03T07:19:44+00:00","ttl":3600,"priority":0},{"id":3466961,"name":"updated.testfull.tests.lexicon.com","type":"TXT","content":"\"challengetoken\"","updated_at":"2019-06-03T07:19:45+00:00","ttl":3600,"priority":0},{"id":3466994,"name":"updated.test.tests.lexicon.com","type":"TXT","content":"\"challengetoken\"","updated_at":"2019-06-03T07:28:21+00:00","ttl":3600,"priority":0}],"meta":{"pagination":{"total":17,"count":7,"per_page":10,"current_page":2,"total_pages":2,"links":{"first":"https:\/\/api.ukfast.io\/safedns\/v1\/zones\/tests.lexicon.com\/records?page=1","previous":"https:\/\/api.ukfast.io\/safedns\/v1\/zones\/tests.lexicon.com\/records?page=1"}}}}'
    headers:
      access-control-allow-origin:
      - https://developers.ukfast.io
      cache-control:
      - no-cache, private
      connection:
      - close
      content-length:
      - '1457'
      content-type:
      - application/json
      date:
      - Mon, 03 Jun 2019 07:28:22 GMT
      request-id:
      - 7c1ae355-c858-42fd-8ce8-dda50c5aaee1
      server:
      - UKFast Web Services
      transfer-encoding:
      - chunked
      vary:
      - Origin
    status:
      code: 200
      message: OK
- request:
    body: !!python/unicode '{"content": "\"challengetoken\"", "type": "TXT", "name":
      "orig.testfqdn.tests.lexicon.com"}'
    headers:
      Accept:
      - application/json
      Accept-Encoding:
      - gzip, deflate
      Connection:
      - keep-alive
      Content-Length:
      - '91'
      Content-Type:
      - application/json
      User-Agent:
      - python-requests/2.22.0
    method: POST
    uri: https://api.ukfast.io/safedns/v1/zones/tests.lexicon.com/records
  response:
    body:
      string: !!python/unicode '{"data":{"id":3466997},"meta":{"location":"http:\/\/apio-safedns\/v1\/zones\/tests.lexicon.com\/records\/3466997"}}'
    headers:
      access-control-allow-origin:
      - https://developers.ukfast.io
      cache-control:
      - no-cache, private
      connection:
      - close
      content-type:
      - application/json
      date:
      - Mon, 03 Jun 2019 07:28:22 GMT
      request-id:
      - 0fc94f50-6098-4cfd-a4ca-42421891f1e0
      server:
      - UKFast Web Services
      transfer-encoding:
      - chunked
      vary:
      - Origin
    status:
      code: 201
      message: Created
- request:
    body: !!python/unicode '{}'
    headers:
      Accept:
      - application/json
      Accept-Encoding:
      - gzip, deflate
      Connection:
      - keep-alive
      Content-Length:
      - '2'
      Content-Type:
      - application/json
      User-Agent:
      - python-requests/2.22.0
    method: GET
    uri: https://api.ukfast.io/safedns/v1/zones/tests.lexicon.com/records
  response:
    body:
      string: !!python/unicode '{"data":[{"id":3466895,"name":"localhost.tests.lexicon.com","type":"A","content":"127.0.0.1","updated_at":"2019-06-03T07:19:16+00:00","ttl":86400,"priority":0},{"id":3466898,"name":"_acme-challenge.fqdn.tests.lexicon.com","type":"TXT","content":"\"challengetoken\"","updated_at":"2019-06-03T07:19:18+00:00","ttl":86400,"priority":0},{"id":3466901,"name":"_acme-challenge.full.tests.lexicon.com","type":"TXT","content":"\"challengetoken\"","updated_at":"2019-06-03T07:19:18+00:00","ttl":86400,"priority":0},{"id":3466904,"name":"_acme-challenge.test.tests.lexicon.com","type":"TXT","content":"\"challengetoken\"","updated_at":"2019-06-03T07:19:19+00:00","ttl":86400,"priority":0},{"id":3466907,"name":"_acme-challenge.createrecordset.tests.lexicon.com","type":"TXT","content":"\"challengetoken1\"","updated_at":"2019-06-03T07:19:20+00:00","ttl":86400,"priority":0},{"id":3466910,"name":"_acme-challenge.createrecordset.tests.lexicon.com","type":"TXT","content":"\"challengetoken2\"","updated_at":"2019-06-03T07:19:20+00:00","ttl":86400,"priority":0},{"id":3466913,"name":"_acme-challenge.noop.tests.lexicon.com","type":"TXT","content":"\"challengetoken\"","updated_at":"2019-06-03T07:19:21+00:00","ttl":86400,"priority":0},{"id":3466931,"name":"_acme-challenge.deleterecordinset.tests.lexicon.com","type":"TXT","content":"\"challengetoken2\"","updated_at":"2019-06-03T07:19:30+00:00","ttl":86400,"priority":0},{"id":3466940,"name":"_acme-challenge.listrecordset.tests.lexicon.com","type":"TXT","content":"\"challengetoken1\"","updated_at":"2019-06-03T07:19:35+00:00","ttl":86400,"priority":0},{"id":3466943,"name":"_acme-challenge.listrecordset.tests.lexicon.com","type":"TXT","content":"\"challengetoken2\"","updated_at":"2019-06-03T07:19:35+00:00","ttl":86400,"priority":0}],"meta":{"pagination":{"total":18,"count":10,"per_page":10,"current_page":1,"total_pages":2,"links":{"next":"https:\/\/api.ukfast.io\/safedns\/v1\/zones\/tests.lexicon.com\/records?page=2","last":"https:\/\/api.ukfast.io\/safedns\/v1\/zones\/tests.lexicon.com\/records?page=2"}}}}'
    headers:
      access-control-allow-origin:
      - https://developers.ukfast.io
      cache-control:
      - no-cache, private
      connection:
      - close
      content-length:
      - '2055'
      content-type:
      - application/json
      date:
      - Mon, 03 Jun 2019 07:28:23 GMT
      request-id:
      - 1ca7a36f-130e-432f-b99e-1cd19c4283fb
      server:
      - UKFast Web Services
      transfer-encoding:
      - chunked
      vary:
      - Origin
    status:
      code: 200
      message: OK
- request:
    body: !!python/unicode '{}'
    headers:
      Accept:
      - application/json
      Accept-Encoding:
      - gzip, deflate
      Connection:
      - keep-alive
      Content-Length:
      - '2'
      Content-Type:
      - application/json
      User-Agent:
      - python-requests/2.22.0
    method: GET
    uri: https://api.ukfast.io/safedns/v1/zones/tests.lexicon.com/records?page=2
  response:
    body:
      string: !!python/unicode '{"data":[{"id":3466946,"name":"random.fqdntest.tests.lexicon.com","type":"TXT","content":"\"challengetoken\"","updated_at":"2019-06-03T07:19:36+00:00","ttl":86400,"priority":0},{"id":3466949,"name":"random.fulltest.tests.lexicon.com","type":"TXT","content":"\"challengetoken\"","updated_at":"2019-06-03T07:19:37+00:00","ttl":86400,"priority":0},{"id":3466952,"name":"random.test.tests.lexicon.com","type":"TXT","content":"\"challengetoken\"","updated_at":"2019-06-03T07:19:40+00:00","ttl":86400,"priority":0},{"id":3466955,"name":"updated.test.tests.lexicon.com","type":"TXT","content":"\"challengetoken\"","updated_at":"2019-06-03T07:19:42+00:00","ttl":3600,"priority":0},{"id":3466958,"name":"updated.testfqdn.tests.lexicon.com","type":"TXT","content":"\"challengetoken\"","updated_at":"2019-06-03T07:19:44+00:00","ttl":3600,"priority":0},{"id":3466961,"name":"updated.testfull.tests.lexicon.com","type":"TXT","content":"\"challengetoken\"","updated_at":"2019-06-03T07:19:45+00:00","ttl":3600,"priority":0},{"id":3466994,"name":"updated.test.tests.lexicon.com","type":"TXT","content":"\"challengetoken\"","updated_at":"2019-06-03T07:28:21+00:00","ttl":3600,"priority":0},{"id":3466997,"name":"orig.testfqdn.tests.lexicon.com","type":"TXT","content":"\"challengetoken\"","updated_at":"2019-06-03T07:28:22+00:00","ttl":86400,"priority":0}],"meta":{"pagination":{"total":18,"count":8,"per_page":10,"current_page":2,"total_pages":2,"links":{"first":"https:\/\/api.ukfast.io\/safedns\/v1\/zones\/tests.lexicon.com\/records?page=1","previous":"https:\/\/api.ukfast.io\/safedns\/v1\/zones\/tests.lexicon.com\/records?page=1"}}}}'
    headers:
      access-control-allow-origin:
      - https://developers.ukfast.io
      cache-control:
      - no-cache, private
      connection:
      - close
      content-length:
      - '1623'
      content-type:
      - application/json
      date:
      - Mon, 03 Jun 2019 07:28:23 GMT
      request-id:
      - a536c035-36b9-4dd9-a11b-adabe5996e61
      server:
      - UKFast Web Services
      transfer-encoding:
      - chunked
      vary:
      - Origin
    status:
      code: 200
      message: OK
- request:
    body: !!python/unicode '{"content": "\"challengetoken\"", "type": "TXT", "name":
      "updated.testfqdn.tests.lexicon.com", "ttl": 3600}'
    headers:
      Accept:
      - application/json
      Accept-Encoding:
      - gzip, deflate
      Connection:
      - keep-alive
      Content-Length:
      - '107'
      Content-Type:
      - application/json
      User-Agent:
      - python-requests/2.22.0
    method: PATCH
    uri: https://api.ukfast.io/safedns/v1/zones/tests.lexicon.com/records/3466997
  response:
    body:
      string: !!python/unicode '{"data":{"id":3466997},"meta":{"location":"v1\/zones\/tests.lexicon.com\/records\/3466997"}}'
    headers:
      access-control-allow-origin:
      - https://developers.ukfast.io
      cache-control:
      - no-cache, private
      connection:
      - close
      content-length:
      - '92'
      content-type:
      - application/json
      date:
      - Mon, 03 Jun 2019 07:28:23 GMT
      request-id:
      - 32a16aec-dfd6-4536-a1f7-e894d217cc5a
      server:
      - UKFast Web Services
      transfer-encoding:
      - chunked
      vary:
      - Origin
    status:
      code: 200
      message: OK
version: 1
